core_tb.vcd
$date
	Fri Jun 19 14:32:00 2026
$end
$version
	Icarus Verilog
$end
$timescale
	1ps
$end
$scope module core_tb $end
$var wire 32 ! mem_rdata [31:0] $end
$var wire 1 " mem_we $end
$var wire 32 # mem_wdata [31:0] $end
$var wire 1 $ mem_req $end
$var wire 1 % mem_re $end
$var wire 32 & mem_addr [31:0] $end
$var wire 32 ' dm_rdata [31:0] $end
$var reg 1 ( clk $end
$var reg 32 ) dm_addr [31:0] $end
$var reg 1 * dm_re $end
$var reg 32 + dm_wdata [31:0] $end
$var reg 1 , dm_we $end
$var reg 1 - mem_ready $end
$var reg 1 . mem_req_prev $end
$var reg 1 / reset $end
$var integer 32 0 cycle_count [31:0] $end
$var integer 32 1 test_fail [31:0] $end
$var integer 32 2 test_pass [31:0] $end
$scope module u_core $end
$var wire 1 ( clk $end
$var wire 1 3 mem_can_forward $end
$var wire 32 4 mem_rdata [31:0] $end
$var wire 1 - mem_ready $end
$var wire 1 5 mem_sc_result $end
$var wire 1 6 mem_uses_bus $end
$var wire 1 7 mem_wait $end
$var wire 1 / reset $end
$var wire 1 8 wb_can_forward $end
$var wire 32 9 wb_write_data [31:0] $end
$var wire 1 : wb_valid $end
$var wire 1 ; wb_reg_write $end
$var wire 5 < wb_rd_addr [4:0] $end
$var wire 32 = rs2_data [31:0] $end
$var wire 32 > rs1_data [31:0] $end
$var wire 32 ? redirect_target [31:0] $end
$var wire 1 @ redirect_taken $end
$var wire 4 A pipe_mem_amo_op [3:0] $end
$var wire 1 B mem_wb_clear $end
$var wire 1 C mem_valid $end
$var wire 32 D mem_store_data [31:0] $end
$var wire 32 E mem_result [31:0] $end
$var wire 1 F mem_reg_write $end
$var wire 5 G mem_rd_addr [4:0] $end
$var wire 1 H mem_mem_write $end
$var wire 1 I mem_mem_to_reg $end
$var wire 1 J mem_mem_sc $end
$var wire 1 K mem_mem_read $end
$var wire 1 L mem_mem_lr $end
$var wire 1 M mem_mem_amo $end
$var wire 1 N load_use_stall $end
$var wire 32 O instr_from_mem [31:0] $end
$var wire 1 P if_id_valid $end
$var wire 32 Q if_id_pc [31:0] $end
$var wire 32 R if_id_instr [31:0] $end
$var wire 1 S if_id_hold $end
$var wire 1 T if_id_clear $end
$var wire 1 U id_ex_hold $end
$var wire 1 V id_ex_clear $end
$var wire 2 W forward_b [1:0] $end
$var wire 2 X forward_a [1:0] $end
$var wire 1 Y ex_valid $end
$var wire 32 Z ex_stage_result [31:0] $end
$var wire 32 [ ex_rs2_data [31:0] $end
$var wire 5 \ ex_rs2_addr [4:0] $end
$var wire 32 ] ex_rs1_data [31:0] $end
$var wire 5 ^ ex_rs1_addr [4:0] $end
$var wire 1 _ ex_reg_write $end
$var wire 5 ` ex_rd_addr [4:0] $end
$var wire 32 a ex_pc [31:0] $end
$var wire 1 b ex_mem_write $end
$var wire 1 c ex_mem_to_reg $end
$var wire 1 d ex_mem_sc $end
$var wire 1 e ex_mem_read $end
$var wire 1 f ex_mem_lr $end
$var wire 1 g ex_mem_hold $end
$var wire 1 h ex_mem_amo $end
$var wire 1 i ex_lui $end
$var wire 1 j ex_jump $end
$var wire 1 k ex_jalr $end
$var wire 32 l ex_imm [31:0] $end
$var wire 3 m ex_branch_type [2:0] $end
$var wire 1 n ex_branch $end
$var wire 1 o ex_auipc $end
$var wire 4 p ex_amo_op [3:0] $end
$var wire 1 q ex_alu_src $end
$var wire 4 r ex_alu_control [3:0] $end
$var wire 5 s cu_rs2_addr [4:0] $end
$var wire 5 t cu_rs1_addr [4:0] $end
$var wire 1 u cu_reg_write $end
$var wire 5 v cu_rd_addr [4:0] $end
$var wire 1 w cu_mem_write $end
$var wire 1 x cu_mem_to_reg $end
$var wire 1 y cu_mem_sc $end
$var wire 1 z cu_mem_read $end
$var wire 1 { cu_mem_lr $end
$var wire 1 | cu_mem_amo $end
$var wire 1 } cu_lui $end
$var wire 1 ~ cu_jump $end
$var wire 1 !" cu_jalr $end
$var wire 32 "" cu_imm [31:0] $end
$var wire 3 #" cu_branch_type [2:0] $end
$var wire 1 $" cu_branch $end
$var wire 1 %" cu_auipc $end
$var wire 4 &" cu_amo_op [3:0] $end
$var wire 1 '" cu_alu_src $end
$var wire 4 (" cu_alu_control [3:0] $end
$var wire 1 )" alu_zero $end
$var wire 32 *" alu_result [31:0] $end
$var parameter 32 +" CORE_ID $end
$var parameter 88 ," INIT_FILE $end
$var parameter 32 -" PROGRAM_WORDS $end
$var reg 32 ." alu_input_a [31:0] $end
$var reg 32 /" alu_input_b [31:0] $end
$var reg 32 0" flush_count [31:0] $end
$var reg 32 1" fwd_rs1_data [31:0] $end
$var reg 32 2" fwd_rs2_data [31:0] $end
$var reg 32 3" load_use_stall_count [31:0] $end
$var reg 32 4" mem_addr [31:0] $end
$var reg 1 5" mem_amo $end
$var reg 4 6" mem_amo_op [3:0] $end
$var reg 1 7" mem_lr $end
$var reg 1 % mem_re $end
$var reg 1 $ mem_req $end
$var reg 1 8" mem_sc $end
$var reg 32 9" mem_stall_count [31:0] $end
$var reg 32 :" mem_wb_in_write_data [31:0] $end
$var reg 32 ;" mem_wdata [31:0] $end
$var reg 1 " mem_we $end
$var reg 32 <" pc [31:0] $end
$var reg 32 =" pipeline_cycle_count [31:0] $end
$var reg 32 >" retired_count [31:0] $end
$scope module u_alu $end
$var wire 32 ?" a [31:0] $end
$var wire 32 @" b [31:0] $end
$var wire 1 )" zero $end
$var wire 4 A" alu_control [3:0] $end
$var parameter 4 B" ADD $end
$var parameter 4 C" AND $end
$var parameter 4 D" OR $end
$var parameter 4 E" SLL $end
$var parameter 4 F" SLT $end
$var parameter 4 G" SRL $end
$var parameter 4 H" SUB $end
$var parameter 4 I" XOR $end
$var reg 32 J" result [31:0] $end
$upscope $end
$scope module u_branch_check $end
$var wire 32 K" alu_result [31:0] $end
$var wire 32 L" rs1 [31:0] $end
$var wire 32 M" rs2 [31:0] $end
$var wire 1 Y ex_valid $end
$var wire 32 N" ex_pc [31:0] $end
$var wire 1 i ex_lui $end
$var wire 1 j ex_jump $end
$var wire 1 k ex_jalr $end
$var wire 32 O" ex_imm [31:0] $end
$var wire 1 n ex_branch $end
$var wire 1 o ex_auipc $end
$var wire 3 P" branch_type [2:0] $end
$var reg 1 Q" condition_met $end
$var reg 32 R" ex_stage_result [31:0] $end
$var reg 1 @ redirect_taken $end
$var reg 32 S" redirect_target [31:0] $end
$upscope $end
$scope module u_cu $end
$var wire 5 T" rs2_addr [4:0] $end
$var wire 5 U" rs1_addr [4:0] $end
$var wire 5 V" rd_addr [4:0] $end
$var wire 7 W" opcode [6:0] $end
$var wire 32 X" instruction [31:0] $end
$var wire 7 Y" funct7 [6:0] $end
$var wire 5 Z" funct5 [4:0] $end
$var wire 3 [" funct3 [2:0] $end
$var parameter 4 \" ALU_ADD $end
$var parameter 4 ]" ALU_AND $end
$var parameter 4 ^" ALU_OR $end
$var parameter 4 _" ALU_SLL $end
$var parameter 4 `" ALU_SLT $end
$var parameter 4 a" ALU_SRL $end
$var parameter 4 b" ALU_SUB $end
$var parameter 4 c" ALU_XOR $end
$var parameter 7 d" OP_AMO $end
$var parameter 7 e" OP_AUIPC $end
$var parameter 7 f" OP_BRANCH $end
$var parameter 7 g" OP_I_TYPE $end
$var parameter 7 h" OP_JAL $end
$var parameter 7 i" OP_JALR $end
$var parameter 7 j" OP_LOAD $end
$var parameter 7 k" OP_LUI $end
$var parameter 7 l" OP_R_TYPE $end
$var parameter 7 m" OP_STORE $end
$var reg 4 n" alu_control [3:0] $end
$var reg 1 '" alu_src $end
$var reg 4 o" amo_op [3:0] $end
$var reg 1 %" auipc $end
$var reg 1 $" branch $end
$var reg 3 p" branch_type [2:0] $end
$var reg 32 q" imm [31:0] $end
$var reg 1 !" jalr $end
$var reg 1 ~ jump $end
$var reg 1 } lui $end
$var reg 1 | mem_amo $end
$var reg 1 { mem_lr $end
$var reg 1 z mem_read $end
$var reg 1 y mem_sc $end
$var reg 1 x mem_to_reg $end
$var reg 1 w mem_write $end
$var reg 1 u reg_write $end
$upscope $end
$scope module u_hazard_center $end
$var wire 5 r" cu_rs1_addr [4:0] $end
$var wire 5 s" cu_rs2_addr [4:0] $end
$var wire 1 t" ex_load_like $end
$var wire 1 g ex_mem_hold $end
$var wire 1 V id_ex_clear $end
$var wire 1 U id_ex_hold $end
$var wire 1 T if_id_clear $end
$var wire 1 S if_id_hold $end
$var wire 1 N load_use_stall $end
$var wire 1 3 mem_can_forward $end
$var wire 1 7 mem_wait $end
$var wire 1 B mem_wb_hold $end
$var wire 1 @ redirect_taken $end
$var wire 1 8 wb_can_forward $end
$var wire 5 u" wb_rd_addr [4:0] $end
$var wire 5 v" mem_rd_addr [4:0] $end
$var wire 1 P id_valid $end
$var wire 1 Y ex_valid $end
$var wire 5 w" ex_rs2_addr [4:0] $end
$var wire 5 x" ex_rs1_addr [4:0] $end
$var wire 1 _ ex_reg_write $end
$var wire 5 y" ex_rd_addr [4:0] $end
$var reg 2 z" forward_a [1:0] $end
$var reg 2 {" forward_b [1:0] $end
$upscope $end
$scope module u_instr_mem $end
$var wire 32 |" addr [31:0] $end
$var wire 32 }" instruction [31:0] $end
$var wire 8 ~" word_addr [7:0] $end
$var parameter 88 !# INIT_FILE $end
$var parameter 32 "# PROGRAM_WORDS $end
$var integer 32 ## i [31:0] $end
$upscope $end
$scope module u_pipe_ex_mem $end
$var wire 1 ( clk $end
$var wire 32 $# ex_result [31:0] $end
$var wire 32 %# ex_store_data [31:0] $end
$var wire 1 g hold $end
$var wire 1 / reset $end
$var wire 1 Y ex_valid $end
$var wire 1 _ ex_reg_write $end
$var wire 5 &# ex_rd_addr [4:0] $end
$var wire 1 b ex_mem_write $end
$var wire 1 c ex_mem_to_reg $end
$var wire 1 d ex_mem_sc $end
$var wire 1 e ex_mem_read $end
$var wire 1 f ex_mem_lr $end
$var wire 1 h ex_mem_amo $end
$var wire 4 '# ex_amo_op [3:0] $end
$var reg 4 (# mem_amo_op [3:0] $end
$var reg 1 M mem_mem_amo $end
$var reg 1 L mem_mem_lr $end
$var reg 1 K mem_mem_read $end
$var reg 1 J mem_mem_sc $end
$var reg 1 I mem_mem_to_reg $end
$var reg 1 H mem_mem_write $end
$var reg 5 )# mem_rd_addr [4:0] $end
$var reg 1 F mem_reg_write $end
$var reg 32 *# mem_result [31:0] $end
$var reg 32 +# mem_store_data [31:0] $end
$var reg 1 C mem_valid $end
$upscope $end
$scope module u_pipe_id_ex $end
$var wire 1 V clear $end
$var wire 1 ( clk $end
$var wire 1 U hold $end
$var wire 4 ,# id_alu_control [3:0] $end
$var wire 1 '" id_alu_src $end
$var wire 4 -# id_amo_op [3:0] $end
$var wire 1 %" id_auipc $end
$var wire 1 $" id_branch $end
$var wire 3 .# id_branch_type [2:0] $end
$var wire 32 /# id_imm [31:0] $end
$var wire 1 !" id_jalr $end
$var wire 1 ~ id_jump $end
$var wire 1 } id_lui $end
$var wire 1 | id_mem_amo $end
$var wire 1 { id_mem_lr $end
$var wire 1 z id_mem_read $end
$var wire 1 y id_mem_sc $end
$var wire 1 x id_mem_to_reg $end
$var wire 1 w id_mem_write $end
$var wire 5 0# id_rd_addr [4:0] $end
$var wire 1 u id_reg_write $end
$var wire 5 1# id_rs1_addr [4:0] $end
$var wire 5 2# id_rs2_addr [4:0] $end
$var wire 1 / reset $end
$var wire 1 P id_valid $end
$var wire 32 3# id_rs2_data [31:0] $end
$var wire 32 4# id_rs1_data [31:0] $end
$var wire 32 5# id_pc [31:0] $end
$var reg 4 6# ex_alu_control [3:0] $end
$var reg 1 q ex_alu_src $end
$var reg 4 7# ex_amo_op [3:0] $end
$var reg 1 o ex_auipc $end
$var reg 1 n ex_branch $end
$var reg 3 8# ex_branch_type [2:0] $end
$var reg 32 9# ex_imm [31:0] $end
$var reg 1 k ex_jalr $end
$var reg 1 j ex_jump $end
$var reg 1 i ex_lui $end
$var reg 1 h ex_mem_amo $end
$var reg 1 f ex_mem_lr $end
$var reg 1 e ex_mem_read $end
$var reg 1 d ex_mem_sc $end
$var reg 1 c ex_mem_to_reg $end
$var reg 1 b ex_mem_write $end
$var reg 32 :# ex_pc [31:0] $end
$var reg 5 ;# ex_rd_addr [4:0] $end
$var reg 1 _ ex_reg_write $end
$var reg 5 <# ex_rs1_addr [4:0] $end
$var reg 32 =# ex_rs1_data [31:0] $end
$var reg 5 ># ex_rs2_addr [4:0] $end
$var reg 32 ?# ex_rs2_data [31:0] $end
$var reg 1 Y ex_valid $end
$upscope $end
$scope module u_pipe_if_id $end
$var wire 1 T clear $end
$var wire 1 ( clk $end
$var wire 1 S hold $end
$var wire 32 @# if_instr [31:0] $end
$var wire 32 A# if_pc [31:0] $end
$var wire 1 / reset $end
$var reg 32 B# id_instr [31:0] $end
$var reg 32 C# id_pc [31:0] $end
$var reg 1 P id_valid $end
$upscope $end
$scope module u_pipe_mem_wb $end
$var wire 1 D# clear $end
$var wire 1 ( clk $end
$var wire 1 B hold $end
$var wire 5 E# mem_wb_in_rd_addr [4:0] $end
$var wire 1 F# mem_wb_in_reg_write $end
$var wire 1 G# mem_wb_in_valid $end
$var wire 32 H# mem_wb_in_write_data [31:0] $end
$var wire 1 / reset $end
$var reg 5 I# wb_rd_addr [4:0] $end
$var reg 1 ; wb_reg_write $end
$var reg 1 : wb_valid $end
$var reg 32 J# wb_write_data [31:0] $end
$upscope $end
$scope module u_rf $end
$var wire 1 ( clk $end
$var wire 5 K# rd_addr [4:0] $end
$var wire 1 L# reg_write $end
$var wire 1 / reset $end
$var wire 5 M# rs1_addr [4:0] $end
$var wire 5 N# rs2_addr [4:0] $end
$var wire 32 O# write_data [31:0] $end
$var wire 32 P# rs2_data [31:0] $end
$var wire 32 Q# rs1_data [31:0] $end
$var integer 32 R# i [31:0] $end
$upscope $end
$upscope $end
$scope module u_dmem $end
$var wire 32 S# addr [31:0] $end
$var wire 1 ( clk $end
$var wire 1 * re $end
$var wire 1 / reset $end
$var wire 32 T# wdata [31:0] $end
$var wire 1 , we $end
$var wire 10 U# word_addr [9:0] $end
$var reg 32 V# rdata [31:0] $end
$var integer 32 W# i [31:0] $end
$upscope $end
$upscope $end
$enddefinitions $end
$comment Show the parameter values. $end
$dumpall
b1001 "#
b111000001110010011011110110011101110010011000010110110100101110011010000110010101111000 !#
b100011 m"
b110011 l"
b110111 k"
b11 j"
b1100111 i"
b1101111 h"
b10011 g"
b1100011 f"
b10111 e"
b101111 d"
b100 c"
b110 b"
b101 a"
b111 `"
b11 _"
b1 ^"
b0 ]"
b10 \"
b100 I"
b110 H"
b101 G"
b111 F"
b11 E"
b1 D"
b0 C"
b10 B"
b1001 -"
b111000001110010011011110110011101110010011000010110110100101110011010000110010101111000 ,"
b0 +"
$end
#0
$dumpvars
b10000000000 W#
b0 V#
b0 U#
b0 T#
b0 S#
b100000 R#
b0 Q#
b0 P#
b0 O#
b0 N#
b0 M#
0L#
b0 K#
b0 J#
b0 I#
b0 H#
0G#
0F#
b0 E#
0D#
b0 C#
b0 B#
b0 A#
b10100000000000100010011 @#
b0 ?#
b0 >#
b0 =#
b0 <#
b0 ;#
b0 :#
b0 9#
b0 8#
b0 7#
b0 6#
b0 5#
b0 4#
b0 3#
b0 2#
b0 1#
b0 0#
b0 /#
b0 .#
b0 -#
b10 ,#
b0 +#
b0 *#
b0 )#
b0 (#
b0 '#
b0 &#
b0 %#
b0 $#
b100000000 ##
b0 ~"
b10100000000000100010011 }"
b0 |"
b0 {"
b0 z"
b0 y"
b0 x"
b0 w"
b0 v"
b0 u"
0t"
b0 s"
b0 r"
b0 q"
b0 p"
b0 o"
b10 n"
b0 ["
b0 Z"
b0 Y"
b0 X"
b0 W"
b0 V"
b0 U"
b0 T"
b0 S"
b0 R"
1Q"
b0 P"
b0 O"
b0 N"
b0 M"
b0 L"
b0 K"
b0 J"
b0 A"
b0 @"
b0 ?"
b0 >"
b0 ="
b0 <"
b0 ;"
b0 :"
b0 9"
08"
07"
b0 6"
05"
b0 4"
b0 3"
b0 2"
b0 1"
b0 0"
b0 /"
b0 ."
b0 *"
1)"
b10 ("
0'"
b0 &"
0%"
0$"
b0 #"
b0 ""
0!"
0~
0}
0|
0{
0z
0y
0x
0w
b0 v
0u
b0 t
b0 s
b0 r
0q
b0 p
0o
0n
b0 m
b0 l
0k
0j
0i
0h
0g
0f
0e
0d
0c
0b
b0 a
b0 `
0_
b0 ^
b0 ]
b0 \
b0 [
b0 Z
0Y
b0 X
b0 W
0V
0U
0T
0S
b0 R
b0 Q
0P
b10100000000000100010011 O
0N
0M
0L
0K
0J
0I
0H
b0 G
0F
b0 E
b0 D
0C
0B
b0 A
0@
b0 ?
b0 >
b0 =
b0 <
0;
0:
b0 9
08
07
06
z5
b0 4
03
b0 2
b0 1
b0 0
1/
0.
0-
0,
b0 +
0*
b0 )
0(
b0 '
b0 &
0%
0$
b0 #
0"
b0 !
$end
#5000
b10000000000 W#
b100000 R#
1(
#10000
0(
#15000
b100000 R#
b10000000000 W#
1(
#20000
0(
#25000
b101000000000000110010011 O
b101000000000000110010011 }"
b101000000000000110010011 @#
1'"
1u
b101 ""
b101 q"
b101 /#
b1 ~"
b10 v
b10 V"
b10 0#
b101 s
b101 T"
b101 s"
b101 2#
b101 N#
b10011 W"
b100 <"
b100 |"
b100 A#
b1 ="
b10 r
b10 A"
b10 6#
b10100000000000100010011 R
b10100000000000100010011 X"
b10100000000000100010011 B#
1P
b1 0
1(
0/
#30000
0(
#35000
b101 Z
b101 R"
b101 $#
0)"
b101 *"
b101 J"
b101 K"
b1100010000001000110011 O
b1100010000001000110011 }"
b1100010000001000110011 @#
b11 v
b11 V"
b11 0#
b1010 s
b1010 T"
b1010 s"
b1010 2#
b1010 N#
b1010 ""
b1010 q"
b1010 /#
b101 /"
b101 @"
1Q"
b10 ~"
b101000000000000110010011 R
b101000000000000110010011 X"
b101000000000000110010011 B#
b100 Q
b100 5#
b100 C#
1q
1_
b10 `
b10 y"
b10 &#
b10 ;#
b101 \
b101 w"
b101 >#
b101 l
b101 O"
b101 9#
1Y
b1000 <"
b1000 |"
b1000 A#
b10 ="
b10 0
1(
#40000
0(
#45000
b1010 Z
b1010 R"
b1010 $#
b0 O
b0 }"
b0 @#
13
b1010 *"
b1010 J"
b1010 K"
0'"
1u
b11 ~"
b101 :"
b101 H#
b101 &
b101 4"
1F#
1G#
b1010 /"
b1010 @"
1Q"
b100 v
b100 V"
b100 0#
b11 s
b11 T"
b11 s"
b11 2#
b11 N#
b10 t
b10 U"
b10 r"
b10 1#
b10 M#
b110011 W"
b0 ""
b0 q"
b0 /#
b1100 <"
b1100 |"
b1100 A#
b11 ="
b10 G
b10 v"
b10 )#
b10 E#
b101 E
b101 *#
1F
1C
b11 `
b11 y"
b11 &#
b11 ;#
b1010 \
b1010 w"
b1010 >#
b1010 l
b1010 O"
b1010 9#
b100 a
b100 N"
b100 :#
b1100010000001000110011 R
b1100010000001000110011 X"
b1100010000001000110011 B#
b1000 Q
b1000 5#
b1000 C#
b11 0
1(
#50000
0(
#55000
b1111 Z
b1111 R"
b1111 $#
b1111 *"
b1111 J"
b1111 K"
b101 ."
b101 ?"
b101 1"
b101 L"
0u
b1 X
b1 z"
b0 v
b0 V"
b0 0#
b0 s
b0 T"
b0 s"
b0 2#
b0 N#
b0 t
b0 U"
b0 r"
b0 1#
b0 M#
b0 W"
0Q"
b1010 :"
b1010 H#
b1010 &
b1010 4"
b1010 2"
b1010 M"
b1010 %#
18
b10 W
b10 {"
1L#
b100 ~"
b0 R
b0 X"
b0 B#
b1100 Q
b1100 5#
b1100 C#
0q
b100 `
b100 y"
b100 &#
b100 ;#
b11 \
b11 w"
b11 >#
b10 ^
b10 x"
b10 <#
b0 l
b0 O"
b0 9#
b1000 a
b1000 N"
b1000 :#
b11 G
b11 v"
b11 )#
b11 E#
b1010 E
b1010 *#
b101 9
b101 J#
b101 O#
b10 <
b10 u"
b10 I#
b10 K#
1;
1:
b10000 <"
b10000 |"
b10000 A#
b100 ="
b100 0
1(
#60000
0(
#65000
b0 Z
b0 R"
b0 $#
1)"
b0 *"
b0 J"
b0 K"
1Q"
b101 ~"
b0 /"
b0 @"
b0 ."
b0 ?"
b0 2"
b0 M"
b0 %#
b0 1"
b0 L"
b1111 :"
b1111 H#
b1010 #
b1010 ;"
b1111 &
b1111 4"
b0 W
b0 {"
b0 X
b0 z"
b10100 <"
b10100 |"
b10100 A#
b1 >"
b101 ="
b1010 9
b1010 J#
b1010 O#
b11 <
b11 u"
b11 I#
b11 K#
b100 G
b100 v"
b100 )#
b100 E#
b1010 D
b1010 +#
b1111 E
b1111 *#
0_
b0 `
b0 y"
b0 &#
b0 ;#
b0 \
b0 w"
b0 >#
b0 ^
b0 x"
b0 <#
b1100 a
b1100 N"
b1100 :#
b10000 Q
b10000 5#
b10000 C#
b101 0
1(
#70000
0(
#75000
03
1Q"
b0 :"
b0 H#
b0 #
b0 ;"
b0 &
b0 4"
0F#
b110 ~"
b10100 Q
b10100 5#
b10100 C#
b10000 a
b10000 N"
b10000 :#
b0 G
b0 v"
b0 )#
b0 E#
b0 D
b0 +#
b0 E
b0 *#
0F
b1111 9
b1111 J#
b1111 O#
b100 <
b100 u"
b100 I#
b100 K#
b11000 <"
b11000 |"
b11000 A#
b10 >"
b110 ="
b110 0
1(
#80000
0(
#85000
b111 ~"
08
0L#
1Q"
b11100 <"
b11100 |"
b11100 A#
b11 >"
b111 ="
b0 9
b0 J#
b0 O#
b0 <
b0 u"
b0 I#
b0 K#
0;
b10100 a
b10100 N"
b10100 :#
b11000 Q
b11000 5#
b11000 C#
b111 0
1(
#90000
0(
#95000
1Q"
b1000 ~"
b11100 Q
b11100 5#
b11100 C#
b11000 a
b11000 N"
b11000 :#
b100000 <"
b100000 |"
b100000 A#
b100 >"
b1000 ="
b1000 0
1(
#100000
0(
#105000
b10011 O
b10011 }"
b10011 @#
b1001 ~"
1Q"
b100100 <"
b100100 |"
b100100 A#
b101 >"
b1001 ="
b11100 a
b11100 N"
b11100 :#
b100000 Q
b100000 5#
b100000 C#
b1001 0
1(
#110000
0(
#115000
1'"
1u
b10011 W"
1Q"
b1010 ~"
b10011 R
b10011 X"
b10011 B#
b100100 Q
b100100 5#
b100100 C#
b100000 a
b100000 N"
b100000 :#
b101000 <"
b101000 |"
b101000 A#
b110 >"
b1010 ="
b1010 0
1(
#120000
0(
#125000
b1011 ~"
1Q"
b101100 <"
b101100 |"
b101100 A#
b111 >"
b1011 ="
1q
1_
b100100 a
b100100 N"
b100100 :#
b101000 Q
b101000 5#
b101000 C#
b1011 0
1(
#130000
0(
#135000
1Q"
1F#
b1100 ~"
b101100 Q
b101100 5#
b101100 C#
b101000 a
b101000 N"
b101000 :#
1F
b110000 <"
b110000 |"
b110000 A#
b1000 >"
b1100 ="
b1100 0
1(
#140000
0(
#145000
b1101 ~"
1L#
1Q"
b110100 <"
b110100 |"
b110100 A#
b1001 >"
b1101 ="
1;
b101100 a
b101100 N"
b101100 :#
b110000 Q
b110000 5#
b110000 C#
b1101 0
1(
#150000
0(
#155000
1Q"
b1110 ~"
b110100 Q
b110100 5#
b110100 C#
b110000 a
b110000 N"
b110000 :#
b111000 <"
b111000 |"
b111000 A#
b1010 >"
b1110 ="
b1110 0
1(
#160000
0(
#165000
b1111 ~"
1Q"
b111100 <"
b111100 |"
b111100 A#
b1011 >"
b1111 ="
b110100 a
b110100 N"
b110100 :#
b111000 Q
b111000 5#
b111000 C#
b1111 0
1(
#170000
0(
#175000
1Q"
b10000 ~"
b111100 Q
b111100 5#
b111100 C#
b111000 a
b111000 N"
b111000 :#
b1000000 <"
b1000000 |"
b1000000 A#
b1100 >"
b10000 ="
b10000 0
1(
#180000
0(
#185000
b10001 ~"
1Q"
b1000100 <"
b1000100 |"
b1000100 A#
b1101 >"
b10001 ="
b111100 a
b111100 N"
b111100 :#
b1000000 Q
b1000000 5#
b1000000 C#
b10001 0
1(
#190000
0(
#195000
1Q"
b10010 ~"
b1000100 Q
b1000100 5#
b1000100 C#
b1000000 a
b1000000 N"
b1000000 :#
b1001000 <"
b1001000 |"
b1001000 A#
b1110 >"
b10010 ="
b10010 0
1(
#200000
0(
#205000
b10011 ~"
1Q"
b1001100 <"
b1001100 |"
b1001100 A#
b1111 >"
b10011 ="
b1000100 a
b1000100 N"
b1000100 :#
b1001000 Q
b1001000 5#
b1001000 C#
b10011 0
1(
#210000
0(
#215000
1Q"
b10100 ~"
b1001100 Q
b1001100 5#
b1001100 C#
b1001000 a
b1001000 N"
b1001000 :#
b1010000 <"
b1010000 |"
b1010000 A#
b10000 >"
b10100 ="
b10100 0
1(
#220000
0(
#225000
b10101 ~"
1Q"
b1010100 <"
b1010100 |"
b1010100 A#
b10001 >"
b10101 ="
b1001100 a
b1001100 N"
b1001100 :#
b1010000 Q
b1010000 5#
b1010000 C#
b10101 0
1(
#230000
0(
#235000
1Q"
b10110 ~"
b1010100 Q
b1010100 5#
b1010100 C#
b1010000 a
b1010000 N"
b1010000 :#
b1011000 <"
b1011000 |"
b1011000 A#
b10010 >"
b10110 ="
b10110 0
1(
#240000
0(
#245000
b10111 ~"
1Q"
b1011100 <"
b1011100 |"
b1011100 A#
b10011 >"
b10111 ="
b1010100 a
b1010100 N"
b1010100 :#
b1011000 Q
b1011000 5#
b1011000 C#
b10111 0
1(
#250000
0(
#255000
1Q"
b11000 ~"
b1011100 Q
b1011100 5#
b1011100 C#
b1011000 a
b1011000 N"
b1011000 :#
b1100000 <"
b1100000 |"
b1100000 A#
b10100 >"
b11000 ="
b11000 0
1(
#260000
0(
#265000
b11001 ~"
1Q"
b1100100 <"
b1100100 |"
b1100100 A#
b10101 >"
b11001 ="
b1011100 a
b1011100 N"
b1011100 :#
b1100000 Q
b1100000 5#
b1100000 C#
b11001 0
1(
#270000
0(
#275000
1Q"
b11010 ~"
b1100100 Q
b1100100 5#
b1100100 C#
b1100000 a
b1100000 N"
b1100000 :#
b1101000 <"
b1101000 |"
b1101000 A#
b10110 >"
b11010 ="
b11010 0
1(
#280000
0(
#285000
b11011 ~"
1Q"
b1101100 <"
b1101100 |"
b1101100 A#
b10111 >"
b11011 ="
b1100100 a
b1100100 N"
b1100100 :#
b1101000 Q
b1101000 5#
b1101000 C#
b11011 0
1(
#290000
0(
#295000
1Q"
b11100 ~"
b1101100 Q
b1101100 5#
b1101100 C#
b1101000 a
b1101000 N"
b1101000 :#
b1110000 <"
b1110000 |"
b1110000 A#
b11000 >"
b11100 ="
b11100 0
1(
#300000
0(
#305000
b11101 ~"
1Q"
b1110100 <"
b1110100 |"
b1110100 A#
b11001 >"
b11101 ="
b1101100 a
b1101100 N"
b1101100 :#
b1110000 Q
b1110000 5#
b1110000 C#
b11101 0
1(
#310000
0(
#315000
1Q"
b11110 ~"
b1110100 Q
b1110100 5#
b1110100 C#
b1110000 a
b1110000 N"
b1110000 :#
b1111000 <"
b1111000 |"
b1111000 A#
b11010 >"
b11110 ="
b11110 0
1(
#320000
0(
#325000
b11111 ~"
1Q"
b1111100 <"
b1111100 |"
b1111100 A#
b11011 >"
b11111 ="
b1110100 a
b1110100 N"
b1110100 :#
b1111000 Q
b1111000 5#
b1111000 C#
b11111 0
1(
#330000
0(
#335000
1Q"
b100000 ~"
b1111100 Q
b1111100 5#
b1111100 C#
b1111000 a
b1111000 N"
b1111000 :#
b10000000 <"
b10000000 |"
b10000000 A#
b11100 >"
b100000 ="
b100000 0
1(
#340000
0(
#345000
b100001 ~"
1Q"
b10000100 <"
b10000100 |"
b10000100 A#
b11101 >"
b100001 ="
b1111100 a
b1111100 N"
b1111100 :#
b10000000 Q
b10000000 5#
b10000000 C#
b100001 0
1(
#350000
0(
#355000
1Q"
b100010 ~"
b10000100 Q
b10000100 5#
b10000100 C#
b10000000 a
b10000000 N"
b10000000 :#
b10001000 <"
b10001000 |"
b10001000 A#
b11110 >"
b100010 ="
b100010 0
1(
#360000
0(
#365000
b100011 ~"
1Q"
b10001100 <"
b10001100 |"
b10001100 A#
b11111 >"
b100011 ="
b10000100 a
b10000100 N"
b10000100 :#
b10001000 Q
b10001000 5#
b10001000 C#
b100011 0
1(
#370000
0(
#375000
1Q"
b100100 ~"
b10001100 Q
b10001100 5#
b10001100 C#
b10001000 a
b10001000 N"
b10001000 :#
b10010000 <"
b10010000 |"
b10010000 A#
b100000 >"
b100100 ="
b100100 0
1(
#380000
0(
#385000
b100101 ~"
1Q"
b10010100 <"
b10010100 |"
b10010100 A#
b100001 >"
b100101 ="
b10001100 a
b10001100 N"
b10001100 :#
b10010000 Q
b10010000 5#
b10010000 C#
b100101 0
1(
#390000
0(
#395000
1Q"
b100110 ~"
b10010100 Q
b10010100 5#
b10010100 C#
b10010000 a
b10010000 N"
b10010000 :#
b10011000 <"
b10011000 |"
b10011000 A#
b100010 >"
b100110 ="
b100110 0
1(
#400000
0(
#405000
b100111 ~"
1Q"
b10011100 <"
b10011100 |"
b10011100 A#
b100011 >"
b100111 ="
b10010100 a
b10010100 N"
b10010100 :#
b10011000 Q
b10011000 5#
b10011000 C#
b100111 0
1(
#410000
0(
#415000
1Q"
b101000 ~"
b10011100 Q
b10011100 5#
b10011100 C#
b10011000 a
b10011000 N"
b10011000 :#
b10100000 <"
b10100000 |"
b10100000 A#
b100100 >"
b101000 ="
b101000 0
1(
#420000
0(
#425000
b101001 ~"
1Q"
b10100100 <"
b10100100 |"
b10100100 A#
b100101 >"
b101001 ="
b10011100 a
b10011100 N"
b10011100 :#
b10100000 Q
b10100000 5#
b10100000 C#
b101001 0
1(
#430000
0(
