interconnect_tb.vcd
$date
	Thu Jun 18 20:00:02 2026
$end
$version
	Icarus Verilog
$end
$timescale
	1ps
$end
$scope module interconnect_tb $end
$var wire 1 ! dm_we $end
$var wire 32 " dm_wdata [31:0] $end
$var wire 1 # dm_re $end
$var wire 32 $ dm_rdata [31:0] $end
$var wire 32 % dm_addr [31:0] $end
$var wire 8 & core_sc_result [7:0] $end
$var wire 8 ' core_ready [7:0] $end
$var wire 8 ( arb_request [7:0] $end
$var wire 1 ) arb_grant_valid $end
$var wire 3 * arb_grant_id [2:0] $end
$var wire 8 + arb_grant [7:0] $end
$var reg 1 , clk $end
$var reg 8 - core_amo [7:0] $end
$var reg 8 . core_lr [7:0] $end
$var reg 8 / core_mem_req [7:0] $end
$var reg 8 0 core_re [7:0] $end
$var reg 8 1 core_sc [7:0] $end
$var reg 8 2 core_we [7:0] $end
$var reg 1 3 reset $end
$var reg 32 4 rv [31:0] $end
$var reg 1 5 sc_ok $end
$var integer 32 6 test_fail [31:0] $end
$var integer 32 7 test_pass [31:0] $end
$scope module u_arbiter $end
$var wire 1 , clk $end
$var wire 8 8 new_request [7:0] $end
$var wire 1 3 reset $end
$var wire 8 9 request [7:0] $end
$var reg 3 : candidate [2:0] $end
$var reg 1 ; found $end
$var reg 8 < grant [7:0] $end
$var reg 3 = grant_id [2:0] $end
$var reg 1 ) grant_valid $end
$var reg 8 > last_granted [7:0] $end
$var reg 3 ? priority_ptr [2:0] $end
$var reg 3 @ winner [2:0] $end
$var integer 32 A i [31:0] $end
$upscope $end
$scope module u_bus_ctrl $end
$var wire 8 B bus_grant [7:0] $end
$var wire 3 C bus_grant_id [2:0] $end
$var wire 1 ) bus_grant_valid $end
$var wire 8 D bus_request [7:0] $end
$var wire 1 , clk $end
$var wire 8 E core_amo [7:0] $end
$var wire 8 F core_lr [7:0] $end
$var wire 8 G core_mem_req [7:0] $end
$var wire 8 H core_re [7:0] $end
$var wire 8 I core_sc [7:0] $end
$var wire 8 J core_we [7:0] $end
$var wire 1 3 reset $end
$var wire 32 K dm_rdata [31:0] $end
$var parameter 4 L AMO_ADD $end
$var parameter 4 M AMO_AND $end
$var parameter 4 N AMO_MAX $end
$var parameter 4 O AMO_MAXU $end
$var parameter 4 P AMO_MIN $end
$var parameter 4 Q AMO_MINU $end
$var parameter 4 R AMO_OR $end
$var parameter 4 S AMO_SWAP $end
$var parameter 4 T AMO_XOR $end
$var parameter 3 U S_AMO_CALC $end
$var parameter 3 V S_AMO_READ $end
$var parameter 3 W S_IDLE $end
$var parameter 3 X S_LR $end
$var parameter 3 Y S_READ $end
$var parameter 3 Z S_SC $end
$var parameter 3 [ S_WRITE $end
$var reg 32 \ active_addr [31:0] $end
$var reg 4 ] active_amo_op [3:0] $end
$var reg 3 ^ active_core [2:0] $end
$var reg 1 _ active_is_amo $end
$var reg 1 ` active_is_lr $end
$var reg 1 a active_is_read $end
$var reg 1 b active_is_sc $end
$var reg 1 c active_is_write $end
$var reg 32 d active_wdata [31:0] $end
$var reg 32 e amo_computed [31:0] $end
$var reg 32 f amo_old_val [31:0] $end
$var reg 8 g core_ready [7:0] $end
$var reg 8 h core_sc_result [7:0] $end
$var reg 32 i dm_addr [31:0] $end
$var reg 1 # dm_re $end
$var reg 32 j dm_wdata [31:0] $end
$var reg 1 ! dm_we $end
$var reg 3 k state [2:0] $end
$var integer 32 l j [31:0] $end
$upscope $end
$scope module u_data_mem $end
$var wire 32 m addr [31:0] $end
$var wire 1 , clk $end
$var wire 1 # re $end
$var wire 1 3 reset $end
$var wire 32 n wdata [31:0] $end
$var wire 1 ! we $end
$var wire 10 o word_addr [9:0] $end
$var reg 32 p rdata [31:0] $end
$var integer 32 q i [31:0] $end
$upscope $end
$scope task clear_all $end
$var integer 32 r k [31:0] $end
$upscope $end
$scope task do_amo $end
$var reg 32 s addr [31:0] $end
$var reg 3 t cid [2:0] $end
$var reg 32 u old_val [31:0] $end
$var reg 4 v op [3:0] $end
$var reg 32 w operand [31:0] $end
$upscope $end
$scope task do_lr $end
$var reg 32 x addr [31:0] $end
$var reg 3 y cid [2:0] $end
$var reg 32 z data [31:0] $end
$upscope $end
$scope task do_read $end
$var reg 32 { addr [31:0] $end
$var reg 3 | cid [2:0] $end
$var reg 32 } data [31:0] $end
$upscope $end
$scope task do_sc $end
$var reg 32 ~ addr [31:0] $end
$var reg 3 !" cid [2:0] $end
$var reg 32 "" data [31:0] $end
$var reg 1 #" success $end
$upscope $end
$scope task do_write $end
$var reg 32 $" addr [31:0] $end
$var reg 3 %" cid [2:0] $end
$var reg 32 &" data [31:0] $end
$upscope $end
$upscope $end
$enddefinitions $end
$comment Show the parameter values. $end
$dumpall
b1 [
b1 Z
b1 Y
b1 X
b0 W
b10 V
b11 U
b100 T
b0 S
b11 R
b1000 Q
b111 P
b110 O
b101 N
b10 M
b1 L
$end
#0
$dumpvars
bx &"
bx %"
bx $"
x#"
bx ""
bx !"
bx ~
bx }
bx |
bx {
bx z
bx y
bx x
bx w
bx v
bx u
bx t
bx s
b1000 r
b10000000000 q
b0 p
b0 o
b0 n
b0 m
b1000 l
b0 k
b0 j
b0 i
b0 h
b0 g
b0 f
b0 e
b0 d
0c
0b
0a
0`
0_
b0 ^
b0 ]
b0 \
b0 K
b0 J
b0 I
b0 H
b0 G
b0 F
b0 E
b0 D
b0 C
b0 B
b1000 A
b0 @
b0 ?
b0 >
b0 =
b0 <
0;
b111 :
b0 9
b0 8
b0 7
b0 6
x5
bx 4
13
b0 2
b0 1
b0 0
b0 /
b0 .
b0 -
0,
b0 +
b0 *
0)
b0 (
b0 '
b0 &
b0 %
b0 $
0#
b0 "
0!
$end
#5000
b10000000000 q
b1000 l
1,
#10000
0,
#15000
b1000 l
b10000000000 q
1,
#20000
0,
#25000
1,
03
#30000
0,
#35000
1;
b111 :
b1000 A
b1 8
b1 2
b1 J
b1 (
b1 9
b1 D
b1 /
b1 G
b1000 r
b10101010101010100000000000000000 &"
b0 $"
b0 %"
1,
#40000
0,
#45000
b0 8
b0 :
b1000 A
0;
b10101010101010100000000000000000 "
b10101010101010100000000000000000 j
b10101010101010100000000000000000 n
1!
b1 >
b1 ?
1)
b1 +
b1 <
b1 B
1,
#50000
0,
#55000
0!
b0 "
b0 j
b0 n
b10101010101010100000000000000000 e
0)
b0 +
b0 <
b0 B
b1 '
b1 g
1c
b10101010101010100000000000000000 d
b1000 l
1,
#60000
0,
#65000
b0 '
b0 g
b0 >
b1000 r
b0 2
b0 J
b0 (
b0 9
b0 D
b0 /
b0 G
1,
#70000
0,
#75000
1;
b1 @
b0 :
b1000 A
b10 8
b10 2
b10 J
b10 (
b10 9
b10 D
b10 /
b10 G
b1000 r
b10111011101110110000000000000001 &"
b100 $"
b1 %"
1,
#80000
0,
#85000
b0 8
b1 o
b1 :
b1000 A
b0 @
0;
b10111011101110110000000000000001 "
b10111011101110110000000000000001 j
b10111011101110110000000000000001 n
1!
b100 %
b100 i
b100 m
b10 >
b10 ?
b1 *
b1 =
b1 C
1)
b10 +
b10 <
b10 B
1,
#90000
0,
#95000
b0 o
b10111011101110110000000000000001 e
0!
b0 "
b0 j
b0 n
b0 %
b0 i
b0 m
b0 *
b0 =
b0 C
0)
b0 +
b0 <
b0 B
b10 '
b10 g
b10111011101110110000000000000001 d
b100 \
b1 ^
b1000 l
1,
#100000
0,
#105000
b0 '
b0 g
b0 >
b1000 r
b0 2
b0 J
b0 (
b0 9
b0 D
b0 /
b0 G
1,
#110000
0,
#115000
1;
b10 @
b1 :
b1000 A
b100 8
b100 2
b100 J
b100 (
b100 9
b100 D
b100 /
b100 G
b1000 r
b11001100110011000000000000000010 &"
b1000 $"
b10 %"
1,
#120000
0,
#125000
b0 8
b10 o
b10 :
b1000 A
b0 @
0;
b11001100110011000000000000000010 "
b11001100110011000000000000000010 j
b11001100110011000000000000000010 n
1!
b1000 %
b1000 i
b1000 m
b100 >
b11 ?
b10 *
b10 =
b10 C
1)
b100 +
b100 <
b100 B
1,
#130000
0,
#135000
b0 o
b11001100110011000000000000000010 e
0!
b0 "
b0 j
b0 n
b0 %
b0 i
b0 m
b0 *
b0 =
b0 C
0)
b0 +
b0 <
b0 B
b100 '
b100 g
b11001100110011000000000000000010 d
b1000 \
b10 ^
b1000 l
1,
#140000
0,
#145000
b0 '
b0 g
b0 >
b1000 r
b0 2
b0 J
b0 (
b0 9
b0 D
b0 /
b0 G
1,
#150000
0,
#155000
1;
b11 @
b10 :
b1000 A
b1000 8
b1000 2
b1000 J
b1000 (
b1000 9
b1000 D
b1000 /
b1000 G
b1000 r
b11011101110111010000000000000011 &"
b1100 $"
b11 %"
1,
#160000
0,
#165000
b0 8
b11 o
b11 :
b1000 A
b0 @
0;
b11011101110111010000000000000011 "
b11011101110111010000000000000011 j
b11011101110111010000000000000011 n
1!
b1100 %
b1100 i
b1100 m
b1000 >
b100 ?
b11 *
b11 =
b11 C
1)
b1000 +
b1000 <
b1000 B
1,
#170000
0,
#175000
b0 o
b11011101110111010000000000000011 e
0!
b0 "
b0 j
b0 n
b0 %
b0 i
b0 m
b0 *
b0 =
b0 C
0)
b0 +
b0 <
b0 B
b1000 '
b1000 g
b11011101110111010000000000000011 d
b1100 \
b11 ^
b1000 l
1,
#180000
0,
#185000
b0 '
b0 g
b0 >
b1000 r
b0 2
b0 J
b0 (
b0 9
b0 D
b0 /
b0 G
1,
#190000
0,
#195000
1;
b11 :
b1000 A
b1 8
b1 0
b1 H
b1 (
b1 9
b1 D
b1 /
b1 G
b1000 r
b0 {
b0 |
1,
#200000
0,
#205000
b0 8
b10101010101010100000000000000000 $
b10101010101010100000000000000000 K
b10101010101010100000000000000000 p
b0 :
b1000 A
0;
1#
b1 >
b1 ?
1)
b1 +
b1 <
b1 B
1,
#210000
0,
#215000
b0 $
b0 K
b0 p
b0 e
0#
0)
b0 +
b0 <
b0 B
b1 '
b1 g
1a
0c
b0 d
b0 \
b0 ^
1,
#220000
0,
#225000
b0 '
b0 g
b0 >
b1000 r
b0 0
b0 H
b0 (
b0 9
b0 D
b0 /
b0 G
b10101010101010100000000000000000 }
1,
#230000
0,
#235000
1;
b1 @
b0 :
b1000 A
b10 8
b10 0
b10 H
b10 (
b10 9
b10 D
b10 /
b10 G
b1000 r
b100 {
b1 |
b1 7
b10101010101010100000000000000000 4
1,
#240000
0,
#245000
b0 8
b10111011101110110000000000000001 $
b10111011101110110000000000000001 K
b10111011101110110000000000000001 p
b1 o
b1 :
b1000 A
b0 @
0;
1#
b100 %
b100 i
b100 m
b10 >
b10 ?
b1 *
b1 =
b1 C
1)
b10 +
b10 <
b10 B
1,
#250000
0,
#255000
b0 $
b0 K
b0 p
b0 o
0#
b0 %
b0 i
b0 m
b0 *
b0 =
b0 C
0)
b0 +
b0 <
b0 B
b10 '
b10 g
b100 \
b1 ^
1,
#260000
0,
#265000
b0 '
b0 g
b0 >
b1000 r
b0 0
b0 H
b0 (
b0 9
b0 D
b0 /
b0 G
b10111011101110110000000000000001 }
1,
#270000
0,
#275000
1;
b10 @
b1 :
b1000 A
b100 8
b100 0
b100 H
b100 (
b100 9
b100 D
b100 /
b100 G
b1000 r
b1000 {
b10 |
b10 7
b10111011101110110000000000000001 4
1,
#280000
0,
#285000
b0 8
b11001100110011000000000000000010 $
b11001100110011000000000000000010 K
b11001100110011000000000000000010 p
b10 o
b10 :
b1000 A
b0 @
0;
1#
b1000 %
b1000 i
b1000 m
b100 >
b11 ?
b10 *
b10 =
b10 C
1)
b100 +
b100 <
b100 B
1,
#290000
0,
#295000
b0 $
b0 K
b0 p
b0 o
0#
b0 %
b0 i
b0 m
b0 *
b0 =
b0 C
0)
b0 +
b0 <
b0 B
b100 '
b100 g
b1000 \
b10 ^
1,
#300000
0,
#305000
b0 '
b0 g
b0 >
b1000 r
b0 0
b0 H
b0 (
b0 9
b0 D
b0 /
b0 G
b11001100110011000000000000000010 }
1,
#310000
0,
#315000
1;
b11 @
b10 :
b1000 A
b1000 8
b1000 0
b1000 H
b1000 (
b1000 9
b1000 D
b1000 /
b1000 G
b1000 r
b1100 {
b11 |
b11 7
b11001100110011000000000000000010 4
1,
#320000
0,
#325000
b0 8
b11011101110111010000000000000011 $
b11011101110111010000000000000011 K
b11011101110111010000000000000011 p
b11 o
b11 :
b1000 A
b0 @
0;
1#
b1100 %
b1100 i
b1100 m
b1000 >
b100 ?
b11 *
b11 =
b11 C
1)
b1000 +
b1000 <
b1000 B
1,
#330000
0,
#335000
b0 $
b0 K
b0 p
b0 o
0#
b0 %
b0 i
b0 m
b0 *
b0 =
b0 C
0)
b0 +
b0 <
b0 B
b1000 '
b1000 g
b1100 \
b11 ^
1,
#340000
0,
#345000
b0 '
b0 g
b0 >
b1000 r
b0 0
b0 H
b0 (
b0 9
b0 D
b0 /
b0 G
b11011101110111010000000000000011 }
1,
#350000
0,
#355000
1;
b11 :
b1000 A
b1 8
b1 2
b1 J
b1 (
b1 9
b1 D
b1 /
b1 G
b1000 r
b1100100 &"
b100000000 $"
b0 %"
b100 7
b11011101110111010000000000000011 4
1,
#360000
0,
#365000
b0 8
b1000000 o
b0 :
b1000 A
0;
b1100100 "
b1100100 j
b1100100 n
1!
b100000000 %
b100000000 i
b100000000 m
b1 >
b1 ?
1)
b1 +
b1 <
b1 B
1,
#370000
0,
#375000
b0 o
b1100100 e
0!
b0 "
b0 j
b0 n
b0 %
b0 i
b0 m
0)
b0 +
b0 <
b0 B
b1 '
b1 g
0a
1c
b1100100 d
b100000000 \
b0 ^
b1000 l
1,
#380000
0,
#385000
b0 '
b0 g
b0 >
b1000 r
b0 2
b0 J
b0 (
b0 9
b0 D
b0 /
b0 G
1,
#390000
0,
#395000
1;
b0 :
b1000 A
b1 8
b1 .
b1 F
b1 (
b1 9
b1 D
b1 /
b1 G
b1000 r
b100000000 x
b0 y
1,
#400000
0,
#405000
b0 :
b1000 A
0;
b0 8
b1100100 $
b1100100 K
b1100100 p
b1000000 o
1#
b100000000 %
b100000000 i
b100000000 m
b1 >
1)
b1 +
b1 <
b1 B
1,
#410000
0,
#415000
b0 $
b0 K
b0 p
b0 o
0#
b0 %
b0 i
b0 m
b0 e
0)
b0 +
b0 <
b0 B
b1 '
b1 g
1`
0c
b0 d
1,
#420000
0,
#425000
b0 '
b0 g
b0 >
b1000 r
b0 .
b0 F
b0 (
b0 9
b0 D
b0 /
b0 G
b1100100 z
1,
#430000
0,
#435000
1;
b0 :
b1000 A
b1 8
b1 1
b1 I
b1 (
b1 9
b1 D
b1 /
b1 G
b1000 r
b11001000 ""
b100000000 ~
b0 !"
b1100100 4
1,
#440000
0,
#445000
b0 :
b1000 A
0;
b0 8
b1000000 o
b11001000 "
b11001000 j
b11001000 n
1!
b100000000 %
b100000000 i
b100000000 m
b1 >
1)
b1 +
b1 <
b1 B
1,
#450000
0,
#455000
b0 o
0!
b0 "
b0 j
b0 n
b0 %
b0 i
b0 m
b11001000 e
0)
b0 +
b0 <
b0 B
b1 '
b1 g
1b
0`
b11001000 d
b1000 l
1,
#460000
0,
#465000
b0 '
b0 g
b0 >
b1000 r
b0 1
b0 I
b0 (
b0 9
b0 D
b0 /
b0 G
1#"
1,
#470000
0,
#475000
1;
b0 :
b1000 A
b1 8
b1 0
b1 H
b1 (
b1 9
b1 D
b1 /
b1 G
b1000 r
b100000000 {
b0 |
b101 7
15
1,
#480000
0,
#485000
b0 :
b1000 A
0;
b0 8
b11001000 $
b11001000 K
b11001000 p
b1000000 o
1#
b100000000 %
b100000000 i
b100000000 m
b1 >
1)
b1 +
b1 <
b1 B
1,
#490000
0,
#495000
b0 $
b0 K
b0 p
b0 o
0#
b0 %
b0 i
b0 m
b0 e
0)
b0 +
b0 <
b0 B
b1 '
b1 g
0b
1a
b0 d
1,
#500000
0,
#505000
b0 '
b0 g
b0 >
b1000 r
b0 0
b0 H
b0 (
b0 9
b0 D
b0 /
b0 G
b11001000 }
1,
#510000
0,
#515000
1;
b0 :
b1000 A
b1 8
b1 .
b1 F
b1 (
b1 9
b1 D
b1 /
b1 G
b1000 r
b110 7
b11001000 4
1,
#520000
0,
#525000
b0 :
b1000 A
0;
b0 8
b11001000 $
b11001000 K
b11001000 p
b1000000 o
1#
b100000000 %
b100000000 i
b100000000 m
b1 >
1)
b1 +
b1 <
b1 B
1,
#530000
0,
#535000
b0 $
b0 K
b0 p
b0 o
0#
b0 %
b0 i
b0 m
0)
b0 +
b0 <
b0 B
b1 '
b1 g
1`
0a
1,
#540000
0,
#545000
b0 '
b0 g
b0 >
b1000 r
b0 .
b0 F
b0 (
b0 9
b0 D
b0 /
b0 G
b11001000 z
1,
#550000
0,
#555000
1;
b1 @
b0 :
b1000 A
b10 8
b10 2
b10 J
b10 (
b10 9
b10 D
b10 /
b10 G
b1000 r
b1111100111 &"
b1 %"
1,
#560000
0,
#565000
b0 8
b1000000 o
b1 :
b1000 A
b0 @
0;
b1111100111 "
b1111100111 j
b1111100111 n
1!
b100000000 %
b100000000 i
b100000000 m
b10 >
b10 ?
b1 *
b1 =
b1 C
1)
b10 +
b10 <
b10 B
1,
#570000
0,
#575000
b0 o
0!
b0 "
b0 j
b0 n
b0 %
b0 i
b0 m
b1111100111 e
b0 *
b0 =
b0 C
0)
b0 +
b0 <
b0 B
b10 '
b10 g
0`
1c
b1111100111 d
b1 ^
b1000 l
1,
#580000
0,
#585000
b0 '
b0 g
b0 >
b1000 r
b0 2
b0 J
b0 (
b0 9
b0 D
b0 /
b0 G
1,
#590000
0,
#595000
1;
b1 :
b1000 A
b1 8
b1 1
b1 I
b1 (
b1 9
b1 D
b1 /
b1 G
b1000 r
b100101100 ""
1,
#600000
0,
#605000
b0 8
b1000000 o
b0 :
b1000 A
0;
b100000000 %
b100000000 i
b100000000 m
b1 >
b1 ?
1)
b1 +
b1 <
b1 B
1,
#610000
0,
#615000
b0 o
b0 %
b0 i
b0 m
b100101100 e
0)
b0 +
b0 <
b0 B
b1 '
b1 g
b1 &
b1 h
1b
0c
b100101100 d
b0 ^
1,
#620000
0,
#625000
b0 '
b0 g
b0 >
b1000 r
b0 1
b0 I
b0 (
b0 9
b0 D
b0 /
b0 G
0#"
1,
#630000
0,
#635000
1;
b0 :
b1000 A
b1 8
b1 0
b1 H
b1 (
b1 9
b1 D
b1 /
b1 G
b1000 r
b111 7
05
1,
#640000
0,
#645000
b0 :
b1000 A
0;
b0 8
b1111100111 $
b1111100111 K
b1111100111 p
b1000000 o
1#
b100000000 %
b100000000 i
b100000000 m
b1 >
1)
b1 +
b1 <
b1 B
1,
#650000
0,
#655000
b0 $
b0 K
b0 p
b0 o
0#
b0 %
b0 i
b0 m
b0 e
0)
b0 +
b0 <
b0 B
b1 '
b1 g
0b
1a
b0 d
1,
#660000
0,
#665000
b0 '
b0 g
b0 >
b1000 r
b0 0
b0 H
b0 (
b0 9
b0 D
b0 /
b0 G
b1111100111 }
1,
#670000
0,
#675000
1;
b0 :
b1000 A
b1 8
b1 2
b1 J
b1 (
b1 9
b1 D
b1 /
b1 G
b1000 r
b0 &"
b1000000000 $"
b0 %"
b1000 7
b1111100111 4
1,
#680000
0,
#685000
b0 :
b1000 A
0;
b0 8
b10000000 o
1!
b1000000000 %
b1000000000 i
b1000000000 m
b1 >
1)
b1 +
b1 <
b1 B
1,
#690000
0,
#695000
b0 o
0!
b0 %
b0 i
b0 m
0)
b0 +
b0 <
b0 B
b1 '
b1 g
0a
1c
b1000000000 \
b1000 l
1,
#700000
0,
#705000
b0 '
b0 g
b0 >
b1000 r
b0 2
b0 J
b0 (
b0 9
b0 D
b0 /
b0 G
1,
#710000
0,
#715000
1;
b10 @
b0 :
b1000 A
b100 8
b100 -
b100 E
b100 (
b100 9
b100 D
b100 /
b100 G
b1000 r
b101010 w
b1000000000 s
b1 v
b10 t
1,
#720000
0,
#725000
b0 8
b10000000 o
b10 :
b1000 A
b0 @
0;
1#
b1000000000 %
b1000000000 i
b1000000000 m
b100 >
b11 ?
b10 *
b10 =
b10 C
1)
b100 +
b100 <
b100 B
1,
#730000
0,
#735000
1#
b1000000000 %
b1000000000 i
b1000000000 m
b101010 e
b0 *
b0 =
b0 C
0)
b0 +
b0 <
b0 B
b10 k
b1 ]
1_
0c
b101010 d
b10 ^
b1000 l
1,
#740000
0,
#745000
b101010 "
b101010 j
b101010 n
1!
0#
b1000000000 %
b1000000000 i
b1000000000 m
b11 k
1,
#750000
0,
#755000
b0 o
0!
b0 "
b0 j
b0 n
b0 %
b0 i
b0 m
b0 k
b100 '
b100 g
1,
#760000
0,
#765000
b0 '
b0 g
b0 >
b1000 r
b0 -
b0 E
b0 (
b0 9
b0 D
b0 /
b0 G
b0 u
1,
#770000
0,
#775000
1;
b10 :
b1000 A
b1 8
b1 0
b1 H
b1 (
b1 9
b1 D
b1 /
b1 G
b1000 r
b1000000000 {
b0 4
1,
#780000
0,
#785000
b0 8
b101010 $
b101010 K
b101010 p
b10000000 o
b0 :
b1000 A
0;
1#
b1000000000 %
b1000000000 i
b1000000000 m
b1 >
b1 ?
1)
b1 +
b1 <
b1 B
1,
#790000
0,
#795000
b0 $
b0 K
b0 p
b0 o
0#
b0 %
b0 i
b0 m
b0 e
0)
b0 +
b0 <
b0 B
b1 '
b1 g
b0 ]
0_
1a
b0 d
b0 ^
1,
#800000
0,
#805000
b0 '
b0 g
b0 >
b1000 r
b0 0
b0 H
b0 (
b0 9
b0 D
b0 /
b0 G
b101010 }
1,
#810000
0,
#815000
1;
b11 @
b0 :
b1000 A
b1000 8
b1000 -
b1000 E
b1000 (
b1000 9
b1000 D
b1000 /
b1000 G
b1000 r
b111010 w
b11 t
b1001 7
b101010 4
1,
#820000
0,
#825000
b0 8
b101010 $
b101010 K
b101010 p
b10000000 o
b11 :
b1000 A
b0 @
0;
1#
b1000000000 %
b1000000000 i
b1000000000 m
b1000 >
b100 ?
b11 *
b11 =
b11 C
1)
b1000 +
b1000 <
b1000 B
1,
#830000
0,
#835000
1#
b1000000000 %
b1000000000 i
b1000000000 m
b111010 e
b0 *
b0 =
b0 C
0)
b0 +
b0 <
b0 B
b10 k
b1 ]
1_
0a
b111010 d
b11 ^
b1000 l
1,
#840000
0,
#845000
b0 $
b0 K
b0 p
b1100100 "
b1100100 j
b1100100 n
1!
0#
b1000000000 %
b1000000000 i
b1000000000 m
b1100100 e
b11 k
b101010 f
1,
#850000
0,
#855000
b0 o
0!
b0 "
b0 j
b0 n
b0 %
b0 i
b0 m
b0 k
b1000 '
b1000 g
1,
#860000
0,
#865000
b0 '
b0 g
b0 >
b1000 r
b0 -
b0 E
b0 (
b0 9
b0 D
b0 /
b0 G
b101010 u
1,
#870000
0,
#875000
1;
b11 :
b1000 A
b1 8
b1 0
b1 H
b1 (
b1 9
b1 D
b1 /
b1 G
b1000 r
1,
#880000
0,
#885000
b0 8
b1100100 $
b1100100 K
b1100100 p
b10000000 o
b0 :
b1000 A
0;
1#
b1000000000 %
b1000000000 i
b1000000000 m
b1 >
b1 ?
1)
b1 +
b1 <
b1 B
1,
#890000
0,
#895000
b0 $
b0 K
b0 p
b0 o
0#
b0 %
b0 i
b0 m
b0 e
0)
b0 +
b0 <
b0 B
b1 '
b1 g
b0 ]
0_
1a
b0 d
b0 ^
1,
#900000
0,
#905000
b0 '
b0 g
b0 >
b1000 r
b0 0
b0 H
b0 (
b0 9
b0 D
b0 /
b0 G
b1100100 }
1,
#910000
0,
#915000
b1010 7
b1100100 4
1,
