risc_core_waveform.vcd
$date
	Fri Jun 19 14:16:38 2026
$end
$version
	Icarus Verilog
$end
$timescale
	1ps
$end
$scope module tb_risc_core $end
$var wire 1 ! mem_we $end
$var wire 32 " mem_wdata [31:0] $end
$var wire 1 # mem_sc $end
$var wire 1 $ mem_req $end
$var wire 1 % mem_re $end
$var wire 1 & mem_lr $end
$var wire 4 ' mem_amo_op [3:0] $end
$var wire 1 ( mem_amo $end
$var wire 32 ) mem_addr [31:0] $end
$var reg 1 * clk $end
$var reg 32 + mem_rdata [31:0] $end
$var reg 1 , mem_ready $end
$var reg 1 - mem_sc_result $end
$var reg 1 . reset $end
$var reg 2 / stall_counter [1:0] $end
$scope module uut $end
$var wire 1 * clk $end
$var wire 1 0 mem_can_forward $end
$var wire 32 1 mem_rdata [31:0] $end
$var wire 1 , mem_ready $end
$var wire 1 - mem_sc_result $end
$var wire 1 2 mem_uses_bus $end
$var wire 1 3 mem_wait $end
$var wire 1 . reset $end
$var wire 1 4 wb_can_forward $end
$var wire 32 5 wb_write_data [31:0] $end
$var wire 1 6 wb_valid $end
$var wire 1 7 wb_reg_write $end
$var wire 5 8 wb_rd_addr [4:0] $end
$var wire 32 9 rs2_data [31:0] $end
$var wire 32 : rs1_data [31:0] $end
$var wire 32 ; redirect_target [31:0] $end
$var wire 1 < redirect_taken $end
$var wire 4 = pipe_mem_amo_op [3:0] $end
$var wire 1 > mem_wb_clear $end
$var wire 1 ? mem_valid $end
$var wire 32 @ mem_store_data [31:0] $end
$var wire 32 A mem_result [31:0] $end
$var wire 1 B mem_reg_write $end
$var wire 5 C mem_rd_addr [4:0] $end
$var wire 1 D mem_mem_write $end
$var wire 1 E mem_mem_to_reg $end
$var wire 1 F mem_mem_sc $end
$var wire 1 G mem_mem_read $end
$var wire 1 H mem_mem_lr $end
$var wire 1 I mem_mem_amo $end
$var wire 1 J load_use_stall $end
$var wire 32 K instr_from_mem [31:0] $end
$var wire 1 L if_id_valid $end
$var wire 32 M if_id_pc [31:0] $end
$var wire 32 N if_id_instr [31:0] $end
$var wire 1 O if_id_hold $end
$var wire 1 P if_id_clear $end
$var wire 1 Q id_ex_hold $end
$var wire 1 R id_ex_clear $end
$var wire 2 S forward_b [1:0] $end
$var wire 2 T forward_a [1:0] $end
$var wire 1 U ex_valid $end
$var wire 32 V ex_stage_result [31:0] $end
$var wire 32 W ex_rs2_data [31:0] $end
$var wire 5 X ex_rs2_addr [4:0] $end
$var wire 32 Y ex_rs1_data [31:0] $end
$var wire 5 Z ex_rs1_addr [4:0] $end
$var wire 1 [ ex_reg_write $end
$var wire 5 \ ex_rd_addr [4:0] $end
$var wire 32 ] ex_pc [31:0] $end
$var wire 1 ^ ex_mem_write $end
$var wire 1 _ ex_mem_to_reg $end
$var wire 1 ` ex_mem_sc $end
$var wire 1 a ex_mem_read $end
$var wire 1 b ex_mem_lr $end
$var wire 1 c ex_mem_hold $end
$var wire 1 d ex_mem_amo $end
$var wire 1 e ex_lui $end
$var wire 1 f ex_jump $end
$var wire 1 g ex_jalr $end
$var wire 32 h ex_imm [31:0] $end
$var wire 3 i ex_branch_type [2:0] $end
$var wire 1 j ex_branch $end
$var wire 1 k ex_auipc $end
$var wire 4 l ex_amo_op [3:0] $end
$var wire 1 m ex_alu_src $end
$var wire 4 n ex_alu_control [3:0] $end
$var wire 5 o cu_rs2_addr [4:0] $end
$var wire 5 p cu_rs1_addr [4:0] $end
$var wire 1 q cu_reg_write $end
$var wire 5 r cu_rd_addr [4:0] $end
$var wire 1 s cu_mem_write $end
$var wire 1 t cu_mem_to_reg $end
$var wire 1 u cu_mem_sc $end
$var wire 1 v cu_mem_read $end
$var wire 1 w cu_mem_lr $end
$var wire 1 x cu_mem_amo $end
$var wire 1 y cu_lui $end
$var wire 1 z cu_jump $end
$var wire 1 { cu_jalr $end
$var wire 32 | cu_imm [31:0] $end
$var wire 3 } cu_branch_type [2:0] $end
$var wire 1 ~ cu_branch $end
$var wire 1 !" cu_auipc $end
$var wire 4 "" cu_amo_op [3:0] $end
$var wire 1 #" cu_alu_src $end
$var wire 4 $" cu_alu_control [3:0] $end
$var wire 1 %" alu_zero $end
$var wire 32 &" alu_result [31:0] $end
$var parameter 32 '" CORE_ID $end
$var parameter 88 (" INIT_FILE $end
$var parameter 32 )" PROGRAM_WORDS $end
$var reg 32 *" alu_input_a [31:0] $end
$var reg 32 +" alu_input_b [31:0] $end
$var reg 32 ," flush_count [31:0] $end
$var reg 32 -" fwd_rs1_data [31:0] $end
$var reg 32 ." fwd_rs2_data [31:0] $end
$var reg 32 /" load_use_stall_count [31:0] $end
$var reg 32 0" mem_addr [31:0] $end
$var reg 1 ( mem_amo $end
$var reg 4 1" mem_amo_op [3:0] $end
$var reg 1 & mem_lr $end
$var reg 1 % mem_re $end
$var reg 1 $ mem_req $end
$var reg 1 # mem_sc $end
$var reg 32 2" mem_stall_count [31:0] $end
$var reg 32 3" mem_wb_in_write_data [31:0] $end
$var reg 32 4" mem_wdata [31:0] $end
$var reg 1 ! mem_we $end
$var reg 32 5" pc [31:0] $end
$var reg 32 6" pipeline_cycle_count [31:0] $end
$var reg 32 7" retired_count [31:0] $end
$scope module u_alu $end
$var wire 32 8" a [31:0] $end
$var wire 32 9" b [31:0] $end
$var wire 1 %" zero $end
$var wire 4 :" alu_control [3:0] $end
$var parameter 4 ;" ADD $end
$var parameter 4 <" AND $end
$var parameter 4 =" OR $end
$var parameter 4 >" SLL $end
$var parameter 4 ?" SLT $end
$var parameter 4 @" SRL $end
$var parameter 4 A" SUB $end
$var parameter 4 B" XOR $end
$var reg 32 C" result [31:0] $end
$upscope $end
$scope module u_branch_check $end
$var wire 32 D" alu_result [31:0] $end
$var wire 32 E" rs1 [31:0] $end
$var wire 32 F" rs2 [31:0] $end
$var wire 1 U ex_valid $end
$var wire 32 G" ex_pc [31:0] $end
$var wire 1 e ex_lui $end
$var wire 1 f ex_jump $end
$var wire 1 g ex_jalr $end
$var wire 32 H" ex_imm [31:0] $end
$var wire 1 j ex_branch $end
$var wire 1 k ex_auipc $end
$var wire 3 I" branch_type [2:0] $end
$var reg 1 J" condition_met $end
$var reg 32 K" ex_stage_result [31:0] $end
$var reg 1 < redirect_taken $end
$var reg 32 L" redirect_target [31:0] $end
$upscope $end
$scope module u_cu $end
$var wire 5 M" rs2_addr [4:0] $end
$var wire 5 N" rs1_addr [4:0] $end
$var wire 5 O" rd_addr [4:0] $end
$var wire 7 P" opcode [6:0] $end
$var wire 32 Q" instruction [31:0] $end
$var wire 7 R" funct7 [6:0] $end
$var wire 5 S" funct5 [4:0] $end
$var wire 3 T" funct3 [2:0] $end
$var parameter 4 U" ALU_ADD $end
$var parameter 4 V" ALU_AND $end
$var parameter 4 W" ALU_OR $end
$var parameter 4 X" ALU_SLL $end
$var parameter 4 Y" ALU_SLT $end
$var parameter 4 Z" ALU_SRL $end
$var parameter 4 [" ALU_SUB $end
$var parameter 4 \" ALU_XOR $end
$var parameter 7 ]" OP_AMO $end
$var parameter 7 ^" OP_AUIPC $end
$var parameter 7 _" OP_BRANCH $end
$var parameter 7 `" OP_I_TYPE $end
$var parameter 7 a" OP_JAL $end
$var parameter 7 b" OP_JALR $end
$var parameter 7 c" OP_LOAD $end
$var parameter 7 d" OP_LUI $end
$var parameter 7 e" OP_R_TYPE $end
$var parameter 7 f" OP_STORE $end
$var reg 4 g" alu_control [3:0] $end
$var reg 1 #" alu_src $end
$var reg 4 h" amo_op [3:0] $end
$var reg 1 !" auipc $end
$var reg 1 ~ branch $end
$var reg 3 i" branch_type [2:0] $end
$var reg 32 j" imm [31:0] $end
$var reg 1 { jalr $end
$var reg 1 z jump $end
$var reg 1 y lui $end
$var reg 1 x mem_amo $end
$var reg 1 w mem_lr $end
$var reg 1 v mem_read $end
$var reg 1 u mem_sc $end
$var reg 1 t mem_to_reg $end
$var reg 1 s mem_write $end
$var reg 1 q reg_write $end
$upscope $end
$scope module u_hazard_center $end
$var wire 5 k" cu_rs1_addr [4:0] $end
$var wire 5 l" cu_rs2_addr [4:0] $end
$var wire 1 m" ex_load_like $end
$var wire 1 c ex_mem_hold $end
$var wire 1 R id_ex_clear $end
$var wire 1 Q id_ex_hold $end
$var wire 1 P if_id_clear $end
$var wire 1 O if_id_hold $end
$var wire 1 J load_use_stall $end
$var wire 1 0 mem_can_forward $end
$var wire 1 3 mem_wait $end
$var wire 1 > mem_wb_hold $end
$var wire 1 < redirect_taken $end
$var wire 1 4 wb_can_forward $end
$var wire 5 n" wb_rd_addr [4:0] $end
$var wire 5 o" mem_rd_addr [4:0] $end
$var wire 1 L id_valid $end
$var wire 1 U ex_valid $end
$var wire 5 p" ex_rs2_addr [4:0] $end
$var wire 5 q" ex_rs1_addr [4:0] $end
$var wire 1 [ ex_reg_write $end
$var wire 5 r" ex_rd_addr [4:0] $end
$var reg 2 s" forward_a [1:0] $end
$var reg 2 t" forward_b [1:0] $end
$upscope $end
$scope module u_instr_mem $end
$var wire 32 u" addr [31:0] $end
$var wire 32 v" instruction [31:0] $end
$var wire 8 w" word_addr [7:0] $end
$var parameter 88 x" INIT_FILE $end
$var parameter 32 y" PROGRAM_WORDS $end
$var integer 32 z" i [31:0] $end
$upscope $end
$scope module u_pipe_ex_mem $end
$var wire 1 * clk $end
$var wire 32 {" ex_result [31:0] $end
$var wire 32 |" ex_store_data [31:0] $end
$var wire 1 c hold $end
$var wire 1 . reset $end
$var wire 1 U ex_valid $end
$var wire 1 [ ex_reg_write $end
$var wire 5 }" ex_rd_addr [4:0] $end
$var wire 1 ^ ex_mem_write $end
$var wire 1 _ ex_mem_to_reg $end
$var wire 1 ` ex_mem_sc $end
$var wire 1 a ex_mem_read $end
$var wire 1 b ex_mem_lr $end
$var wire 1 d ex_mem_amo $end
$var wire 4 ~" ex_amo_op [3:0] $end
$var reg 4 !# mem_amo_op [3:0] $end
$var reg 1 I mem_mem_amo $end
$var reg 1 H mem_mem_lr $end
$var reg 1 G mem_mem_read $end
$var reg 1 F mem_mem_sc $end
$var reg 1 E mem_mem_to_reg $end
$var reg 1 D mem_mem_write $end
$var reg 5 "# mem_rd_addr [4:0] $end
$var reg 1 B mem_reg_write $end
$var reg 32 ## mem_result [31:0] $end
$var reg 32 $# mem_store_data [31:0] $end
$var reg 1 ? mem_valid $end
$upscope $end
$scope module u_pipe_id_ex $end
$var wire 1 R clear $end
$var wire 1 * clk $end
$var wire 1 Q hold $end
$var wire 4 %# id_alu_control [3:0] $end
$var wire 1 #" id_alu_src $end
$var wire 4 &# id_amo_op [3:0] $end
$var wire 1 !" id_auipc $end
$var wire 1 ~ id_branch $end
$var wire 3 '# id_branch_type [2:0] $end
$var wire 32 (# id_imm [31:0] $end
$var wire 1 { id_jalr $end
$var wire 1 z id_jump $end
$var wire 1 y id_lui $end
$var wire 1 x id_mem_amo $end
$var wire 1 w id_mem_lr $end
$var wire 1 v id_mem_read $end
$var wire 1 u id_mem_sc $end
$var wire 1 t id_mem_to_reg $end
$var wire 1 s id_mem_write $end
$var wire 5 )# id_rd_addr [4:0] $end
$var wire 1 q id_reg_write $end
$var wire 5 *# id_rs1_addr [4:0] $end
$var wire 5 +# id_rs2_addr [4:0] $end
$var wire 1 . reset $end
$var wire 1 L id_valid $end
$var wire 32 ,# id_rs2_data [31:0] $end
$var wire 32 -# id_rs1_data [31:0] $end
$var wire 32 .# id_pc [31:0] $end
$var reg 4 /# ex_alu_control [3:0] $end
$var reg 1 m ex_alu_src $end
$var reg 4 0# ex_amo_op [3:0] $end
$var reg 1 k ex_auipc $end
$var reg 1 j ex_branch $end
$var reg 3 1# ex_branch_type [2:0] $end
$var reg 32 2# ex_imm [31:0] $end
$var reg 1 g ex_jalr $end
$var reg 1 f ex_jump $end
$var reg 1 e ex_lui $end
$var reg 1 d ex_mem_amo $end
$var reg 1 b ex_mem_lr $end
$var reg 1 a ex_mem_read $end
$var reg 1 ` ex_mem_sc $end
$var reg 1 _ ex_mem_to_reg $end
$var reg 1 ^ ex_mem_write $end
$var reg 32 3# ex_pc [31:0] $end
$var reg 5 4# ex_rd_addr [4:0] $end
$var reg 1 [ ex_reg_write $end
$var reg 5 5# ex_rs1_addr [4:0] $end
$var reg 32 6# ex_rs1_data [31:0] $end
$var reg 5 7# ex_rs2_addr [4:0] $end
$var reg 32 8# ex_rs2_data [31:0] $end
$var reg 1 U ex_valid $end
$upscope $end
$scope module u_pipe_if_id $end
$var wire 1 P clear $end
$var wire 1 * clk $end
$var wire 1 O hold $end
$var wire 32 9# if_instr [31:0] $end
$var wire 32 :# if_pc [31:0] $end
$var wire 1 . reset $end
$var reg 32 ;# id_instr [31:0] $end
$var reg 32 <# id_pc [31:0] $end
$var reg 1 L id_valid $end
$upscope $end
$scope module u_pipe_mem_wb $end
$var wire 1 =# clear $end
$var wire 1 * clk $end
$var wire 1 > hold $end
$var wire 5 ># mem_wb_in_rd_addr [4:0] $end
$var wire 1 ?# mem_wb_in_reg_write $end
$var wire 1 @# mem_wb_in_valid $end
$var wire 32 A# mem_wb_in_write_data [31:0] $end
$var wire 1 . reset $end
$var reg 5 B# wb_rd_addr [4:0] $end
$var reg 1 7 wb_reg_write $end
$var reg 1 6 wb_valid $end
$var reg 32 C# wb_write_data [31:0] $end
$upscope $end
$scope module u_rf $end
$var wire 1 * clk $end
$var wire 5 D# rd_addr [4:0] $end
$var wire 1 E# reg_write $end
$var wire 1 . reset $end
$var wire 5 F# rs1_addr [4:0] $end
$var wire 5 G# rs2_addr [4:0] $end
$var wire 32 H# write_data [31:0] $end
$var wire 32 I# rs2_data [31:0] $end
$var wire 32 J# rs1_data [31:0] $end
$var integer 32 K# i [31:0] $end
$upscope $end
$upscope $end
$upscope $end
$enddefinitions $end
$comment Show the parameter values. $end
$dumpall
b1000000 y"
b111000001110010011011110110011101110010011000010110110100101110011010000110010101111000 x"
b100011 f"
b110011 e"
b110111 d"
b11 c"
b1100111 b"
b1101111 a"
b10011 `"
b1100011 _"
b10111 ^"
b101111 ]"
b100 \"
b110 ["
b101 Z"
b111 Y"
b11 X"
b1 W"
b0 V"
b10 U"
b100 B"
b110 A"
b101 @"
b111 ?"
b11 >"
b1 ="
b0 <"
b10 ;"
b1000000 )"
b111000001110010011011110110011101110010011000010110110100101110011010000110010101111000 ("
b0 '"
$end
#0
$dumpvars
b100000 K#
b0 J#
b0 I#
b0 H#
b0 G#
b0 F#
0E#
b0 D#
b0 C#
b0 B#
b0 A#
0@#
0?#
b0 >#
0=#
b0 <#
b0 ;#
b0 :#
b10100000000000100010011 9#
b0 8#
b0 7#
b0 6#
b0 5#
b0 4#
b0 3#
b0 2#
b0 1#
b0 0#
b0 /#
b0 .#
b0 -#
b0 ,#
b0 +#
b0 *#
b0 )#
b0 (#
b0 '#
b0 &#
b10 %#
b0 $#
b0 ##
b0 "#
b0 !#
b0 ~"
b0 }"
b0 |"
b0 {"
b100000000 z"
b0 w"
b10100000000000100010011 v"
b0 u"
b0 t"
b0 s"
b0 r"
b0 q"
b0 p"
b0 o"
b0 n"
0m"
b0 l"
b0 k"
b0 j"
b0 i"
b0 h"
b10 g"
b0 T"
b0 S"
b0 R"
b0 Q"
b0 P"
b0 O"
b0 N"
b0 M"
b0 L"
b0 K"
1J"
b0 I"
b0 H"
b0 G"
b0 F"
b0 E"
b0 D"
b0 C"
b0 :"
b0 9"
b0 8"
b0 7"
b0 6"
b0 5"
b0 4"
b0 3"
b0 2"
b0 1"
b0 0"
b0 /"
b0 ."
b0 -"
b0 ,"
b0 +"
b0 *"
b0 &"
1%"
b10 $"
0#"
b0 ""
0!"
0~
b0 }
b0 |
0{
0z
0y
0x
0w
0v
0u
0t
0s
b0 r
0q
b0 p
b0 o
b0 n
0m
b0 l
0k
0j
b0 i
b0 h
0g
0f
0e
0d
0c
0b
0a
0`
0_
0^
b0 ]
b0 \
0[
b0 Z
b0 Y
b0 X
b0 W
b0 V
0U
b0 T
b0 S
0R
0Q
0P
0O
b0 N
b0 M
0L
b10100000000000100010011 K
0J
0I
0H
0G
0F
0E
0D
b0 C
0B
b0 A
b0 @
0?
0>
b0 =
0<
b0 ;
b0 :
b0 9
b0 8
07
06
b0 5
04
03
02
b0 1
00
b0 /
1.
0-
0,
b0 +
0*
b0 )
0(
b0 '
0&
0%
0$
0#
b0 "
0!
$end
#5000
b100000 K#
1*
#10000
0*
#15000
b100000 K#
1*
#20000
0*
0.
#25000
b101000000000000110010011 K
b101000000000000110010011 v"
b101000000000000110010011 9#
1#"
1q
b101 |
b101 j"
b101 (#
b1 w"
b10 r
b10 O"
b10 )#
b101 o
b101 M"
b101 l"
b101 +#
b101 G#
b10011 P"
b100 5"
b100 u"
b100 :#
b1 6"
b10 n
b10 :"
b10 /#
b10100000000000100010011 N
b10100000000000100010011 Q"
b10100000000000100010011 ;#
1L
1*
#30000
0*
#35000
b101 V
b101 K"
b101 {"
0%"
b101 &"
b101 C"
b101 D"
b1100010000001000110011 K
b1100010000001000110011 v"
b1100010000001000110011 9#
b11 r
b11 O"
b11 )#
b1010 o
b1010 M"
b1010 l"
b1010 +#
b1010 G#
b1010 |
b1010 j"
b1010 (#
b101 +"
b101 9"
1J"
b10 w"
b101000000000000110010011 N
b101000000000000110010011 Q"
b101000000000000110010011 ;#
b100 M
b100 .#
b100 <#
1m
1[
b10 \
b10 r"
b10 }"
b10 4#
b101 X
b101 p"
b101 7#
b101 h
b101 H"
b101 2#
1U
b1000 5"
b1000 u"
b1000 :#
b10 6"
1*
#40000
0*
#45000
b1010 V
b1010 K"
b1010 {"
b0 K
b0 v"
b0 9#
10
b1010 &"
b1010 C"
b1010 D"
0#"
1q
b11 w"
b101 3"
b101 A#
b101 )
b101 0"
1?#
1@#
b1010 +"
b1010 9"
1J"
b100 r
b100 O"
b100 )#
b11 o
b11 M"
b11 l"
b11 +#
b11 G#
b10 p
b10 N"
b10 k"
b10 *#
b10 F#
b110011 P"
b0 |
b0 j"
b0 (#
b1100 5"
b1100 u"
b1100 :#
b11 6"
b10 C
b10 o"
b10 "#
b10 >#
b101 A
b101 ##
1B
1?
b11 \
b11 r"
b11 }"
b11 4#
b1010 X
b1010 p"
b1010 7#
b1010 h
b1010 H"
b1010 2#
b100 ]
b100 G"
b100 3#
b1100010000001000110011 N
b1100010000001000110011 Q"
b1100010000001000110011 ;#
b1000 M
b1000 .#
b1000 <#
1*
#50000
0*
#55000
b1111 V
b1111 K"
b1111 {"
b1111 &"
b1111 C"
b1111 D"
b101 *"
b101 8"
b101 -"
b101 E"
0q
b1 T
b1 s"
b0 r
b0 O"
b0 )#
b0 o
b0 M"
b0 l"
b0 +#
b0 G#
b0 p
b0 N"
b0 k"
b0 *#
b0 F#
b0 P"
0J"
b1010 3"
b1010 A#
b1010 )
b1010 0"
b1010 ."
b1010 F"
b1010 |"
14
b10 S
b10 t"
1E#
b100 w"
b0 N
b0 Q"
b0 ;#
b1100 M
b1100 .#
b1100 <#
0m
b100 \
b100 r"
b100 }"
b100 4#
b11 X
b11 p"
b11 7#
b10 Z
b10 q"
b10 5#
b0 h
b0 H"
b0 2#
b1000 ]
b1000 G"
b1000 3#
b11 C
b11 o"
b11 "#
b11 >#
b1010 A
b1010 ##
b101 5
b101 C#
b101 H#
b10 8
b10 n"
b10 B#
b10 D#
17
16
b10000 5"
b10000 u"
b10000 :#
b100 6"
1*
#60000
0*
#65000
b0 V
b0 K"
b0 {"
1%"
b0 &"
b0 C"
b0 D"
1J"
b101 w"
b0 +"
b0 9"
b0 *"
b0 8"
b0 ."
b0 F"
b0 |"
b0 -"
b0 E"
b1111 3"
b1111 A#
b1010 "
b1010 4"
b1111 )
b1111 0"
b0 S
b0 t"
b0 T
b0 s"
b10100 5"
b10100 u"
b10100 :#
b1 7"
b101 6"
b1010 5
b1010 C#
b1010 H#
b11 8
b11 n"
b11 B#
b11 D#
b100 C
b100 o"
b100 "#
b100 >#
b1010 @
b1010 $#
b1111 A
b1111 ##
0[
b0 \
b0 r"
b0 }"
b0 4#
b0 X
b0 p"
b0 7#
b0 Z
b0 q"
b0 5#
b1100 ]
b1100 G"
b1100 3#
b10000 M
b10000 .#
b10000 <#
1*
#70000
0*
#75000
00
1J"
b0 3"
b0 A#
b0 "
b0 4"
b0 )
b0 0"
0?#
b110 w"
b10100 M
b10100 .#
b10100 <#
b10000 ]
b10000 G"
b10000 3#
b0 C
b0 o"
b0 "#
b0 >#
b0 @
b0 $#
b0 A
b0 ##
0B
b1111 5
b1111 C#
b1111 H#
b100 8
b100 n"
b100 B#
b100 D#
b11000 5"
b11000 u"
b11000 :#
b10 7"
b110 6"
1*
#80000
0*
#85000
b111 w"
04
0E#
1J"
b11100 5"
b11100 u"
b11100 :#
b11 7"
b111 6"
b0 5
b0 C#
b0 H#
b0 8
b0 n"
b0 B#
b0 D#
07
b10100 ]
b10100 G"
b10100 3#
b11000 M
b11000 .#
b11000 <#
1*
#90000
0*
#95000
1J"
b1000 w"
b11100 M
b11100 .#
b11100 <#
b11000 ]
b11000 G"
b11000 3#
b100000 5"
b100000 u"
b100000 :#
b100 7"
b1000 6"
1*
#100000
0*
#105000
b1001 w"
1J"
b100100 5"
b100100 u"
b100100 :#
b101 7"
b1001 6"
b11100 ]
b11100 G"
b11100 3#
b100000 M
b100000 .#
b100000 <#
1*
#110000
0*
#115000
1J"
b1010 w"
b100100 M
b100100 .#
b100100 <#
b100000 ]
b100000 G"
b100000 3#
b101000 5"
b101000 u"
b101000 :#
b110 7"
b1010 6"
1*
#120000
0*
#125000
b1011 w"
1J"
b101100 5"
b101100 u"
b101100 :#
b111 7"
b1011 6"
b100100 ]
b100100 G"
b100100 3#
b101000 M
b101000 .#
b101000 <#
1*
#130000
0*
#135000
1J"
b1100 w"
b101100 M
b101100 .#
b101100 <#
b101000 ]
b101000 G"
b101000 3#
b110000 5"
b110000 u"
b110000 :#
b1000 7"
b1100 6"
1*
#140000
0*
#145000
b1101 w"
1J"
b110100 5"
b110100 u"
b110100 :#
b1001 7"
b1101 6"
b101100 ]
b101100 G"
b101100 3#
b110000 M
b110000 .#
b110000 <#
1*
#150000
0*
#155000
1J"
b1110 w"
b110100 M
b110100 .#
b110100 <#
b110000 ]
b110000 G"
b110000 3#
b111000 5"
b111000 u"
b111000 :#
b1010 7"
b1110 6"
1*
#160000
0*
#165000
b1111 w"
1J"
b111100 5"
b111100 u"
b111100 :#
b1011 7"
b1111 6"
b110100 ]
b110100 G"
b110100 3#
b111000 M
b111000 .#
b111000 <#
1*
#170000
0*
#175000
1J"
b10000 w"
b111100 M
b111100 .#
b111100 <#
b111000 ]
b111000 G"
b111000 3#
b1000000 5"
b1000000 u"
b1000000 :#
b1100 7"
b10000 6"
1*
#180000
0*
#185000
b10001 w"
1J"
b1000100 5"
b1000100 u"
b1000100 :#
b1101 7"
b10001 6"
b111100 ]
b111100 G"
b111100 3#
b1000000 M
b1000000 .#
b1000000 <#
1*
#190000
0*
#195000
1J"
b10010 w"
b1000100 M
b1000100 .#
b1000100 <#
b1000000 ]
b1000000 G"
b1000000 3#
b1001000 5"
b1001000 u"
b1001000 :#
b1110 7"
b10010 6"
1*
#200000
0*
#205000
b10011 w"
1J"
b1001100 5"
b1001100 u"
b1001100 :#
b1111 7"
b10011 6"
b1000100 ]
b1000100 G"
b1000100 3#
b1001000 M
b1001000 .#
b1001000 <#
1*
#210000
0*
#215000
1J"
b10100 w"
b1001100 M
b1001100 .#
b1001100 <#
b1001000 ]
b1001000 G"
b1001000 3#
b1010000 5"
b1010000 u"
b1010000 :#
b10000 7"
b10100 6"
1*
#220000
0*
#225000
b10101 w"
1J"
b1010100 5"
b1010100 u"
b1010100 :#
b10001 7"
b10101 6"
b1001100 ]
b1001100 G"
b1001100 3#
b1010000 M
b1010000 .#
b1010000 <#
1*
#230000
0*
#235000
1J"
b10110 w"
b1010100 M
b1010100 .#
b1010100 <#
b1010000 ]
b1010000 G"
b1010000 3#
b1011000 5"
b1011000 u"
b1011000 :#
b10010 7"
b10110 6"
1*
#240000
0*
#245000
b10111 w"
1J"
b1011100 5"
b1011100 u"
b1011100 :#
b10011 7"
b10111 6"
b1010100 ]
b1010100 G"
b1010100 3#
b1011000 M
b1011000 .#
b1011000 <#
1*
#250000
0*
#255000
1J"
b11000 w"
b1011100 M
b1011100 .#
b1011100 <#
b1011000 ]
b1011000 G"
b1011000 3#
b1100000 5"
b1100000 u"
b1100000 :#
b10100 7"
b11000 6"
1*
#260000
0*
#265000
b11001 w"
1J"
b1100100 5"
b1100100 u"
b1100100 :#
b10101 7"
b11001 6"
b1011100 ]
b1011100 G"
b1011100 3#
b1100000 M
b1100000 .#
b1100000 <#
1*
#270000
0*
#275000
1J"
b11010 w"
b1100100 M
b1100100 .#
b1100100 <#
b1100000 ]
b1100000 G"
b1100000 3#
b1101000 5"
b1101000 u"
b1101000 :#
b10110 7"
b11010 6"
1*
#280000
0*
#285000
b11011 w"
1J"
b1101100 5"
b1101100 u"
b1101100 :#
b10111 7"
b11011 6"
b1100100 ]
b1100100 G"
b1100100 3#
b1101000 M
b1101000 .#
b1101000 <#
1*
#290000
0*
#295000
1J"
b11100 w"
b1101100 M
b1101100 .#
b1101100 <#
b1101000 ]
b1101000 G"
b1101000 3#
b1110000 5"
b1110000 u"
b1110000 :#
b11000 7"
b11100 6"
1*
#300000
0*
#305000
b11101 w"
1J"
b1110100 5"
b1110100 u"
b1110100 :#
b11001 7"
b11101 6"
b1101100 ]
b1101100 G"
b1101100 3#
b1110000 M
b1110000 .#
b1110000 <#
1*
#310000
0*
#315000
1J"
b11110 w"
b1110100 M
b1110100 .#
b1110100 <#
b1110000 ]
b1110000 G"
b1110000 3#
b1111000 5"
b1111000 u"
b1111000 :#
b11010 7"
b11110 6"
1*
#320000
0*
#325000
b11111 w"
1J"
b1111100 5"
b1111100 u"
b1111100 :#
b11011 7"
b11111 6"
b1110100 ]
b1110100 G"
b1110100 3#
b1111000 M
b1111000 .#
b1111000 <#
1*
#330000
0*
#335000
1J"
b100000 w"
b1111100 M
b1111100 .#
b1111100 <#
b1111000 ]
b1111000 G"
b1111000 3#
b10000000 5"
b10000000 u"
b10000000 :#
b11100 7"
b100000 6"
1*
#340000
0*
#345000
b100001 w"
1J"
b10000100 5"
b10000100 u"
b10000100 :#
b11101 7"
b100001 6"
b1111100 ]
b1111100 G"
b1111100 3#
b10000000 M
b10000000 .#
b10000000 <#
1*
#350000
0*
#355000
1J"
b100010 w"
b10000100 M
b10000100 .#
b10000100 <#
b10000000 ]
b10000000 G"
b10000000 3#
b10001000 5"
b10001000 u"
b10001000 :#
b11110 7"
b100010 6"
1*
#360000
0*
#365000
b100011 w"
1J"
b10001100 5"
b10001100 u"
b10001100 :#
b11111 7"
b100011 6"
b10000100 ]
b10000100 G"
b10000100 3#
b10001000 M
b10001000 .#
b10001000 <#
1*
#370000
0*
#375000
1J"
b100100 w"
b10001100 M
b10001100 .#
b10001100 <#
b10001000 ]
b10001000 G"
b10001000 3#
b10010000 5"
b10010000 u"
b10010000 :#
b100000 7"
b100100 6"
1*
#380000
0*
#385000
b100101 w"
1J"
b10010100 5"
b10010100 u"
b10010100 :#
b100001 7"
b100101 6"
b10001100 ]
b10001100 G"
b10001100 3#
b10010000 M
b10010000 .#
b10010000 <#
1*
#390000
0*
#395000
1J"
b100110 w"
b10010100 M
b10010100 .#
b10010100 <#
b10010000 ]
b10010000 G"
b10010000 3#
b10011000 5"
b10011000 u"
b10011000 :#
b100010 7"
b100110 6"
1*
#400000
0*
#405000
b100111 w"
1J"
b10011100 5"
b10011100 u"
b10011100 :#
b100011 7"
b100111 6"
b10010100 ]
b10010100 G"
b10010100 3#
b10011000 M
b10011000 .#
b10011000 <#
1*
#410000
0*
#415000
1J"
b101000 w"
b10011100 M
b10011100 .#
b10011100 <#
b10011000 ]
b10011000 G"
b10011000 3#
b10100000 5"
b10100000 u"
b10100000 :#
b100100 7"
b101000 6"
1*
