tb/core_tb.vcd
$date
	Fri Jun 05 15:21:26 2026
$end
$version
	Icarus Verilog
$end
$timescale
	1ps
$end
$scope module core_tb $end
$var wire 32 ! mem_rdata [31:0] $end
$var wire 1 " mem_we $end
$var wire 32 # mem_wdata [31:0] $end
$var wire 1 $ mem_req $end
$var wire 1 % mem_re $end
$var wire 32 & mem_addr [31:0] $end
$var wire 32 ' dm_rdata [31:0] $end
$var reg 1 ( clk $end
$var reg 32 ) dm_addr [31:0] $end
$var reg 1 * dm_re $end
$var reg 32 + dm_wdata [31:0] $end
$var reg 1 , dm_we $end
$var reg 1 - mem_ready $end
$var reg 1 . mem_req_prev $end
$var reg 1 / reset $end
$var integer 32 0 cycle_count [31:0] $end
$var integer 32 1 test_fail [31:0] $end
$var integer 32 2 test_pass [31:0] $end
$scope module u_core $end
$var wire 1 ( clk $end
$var wire 1 3 ex_mem_can_forward $end
$var wire 1 4 ex_mem_uses_memory $end
$var wire 1 5 id_ex_load_like $end
$var wire 1 6 load_use_stall $end
$var wire 1 7 mem_complete $end
$var wire 32 8 mem_rdata [31:0] $end
$var wire 1 - mem_ready $end
$var wire 1 9 mem_sc_result $end
$var wire 1 : mem_wait $end
$var wire 1 ; mem_wb_can_forward $end
$var wire 1 / reset $end
$var wire 5 < rf_rd_addr [4:0] $end
$var wire 32 = rf_write_data [31:0] $end
$var wire 1 > rf_write_en $end
$var wire 32 ? rs2_data [31:0] $end
$var wire 32 @ rs1_data [31:0] $end
$var wire 32 A instr_from_mem [31:0] $end
$var wire 5 B cu_rs2_addr [4:0] $end
$var wire 5 C cu_rs1_addr [4:0] $end
$var wire 1 D cu_reg_write $end
$var wire 5 E cu_rd_addr [4:0] $end
$var wire 1 F cu_mem_write $end
$var wire 1 G cu_mem_to_reg $end
$var wire 1 H cu_mem_sc $end
$var wire 1 I cu_mem_read $end
$var wire 1 J cu_mem_lr $end
$var wire 1 K cu_mem_amo $end
$var wire 1 L cu_lui $end
$var wire 1 M cu_jump $end
$var wire 1 N cu_jalr $end
$var wire 32 O cu_imm [31:0] $end
$var wire 3 P cu_branch_type [2:0] $end
$var wire 1 Q cu_branch $end
$var wire 1 R cu_auipc $end
$var wire 4 S cu_amo_op [3:0] $end
$var wire 1 T cu_alu_src $end
$var wire 4 U cu_alu_control [3:0] $end
$var wire 1 V alu_zero $end
$var wire 32 W alu_result [31:0] $end
$var parameter 32 X CORE_ID $end
$var parameter 88 Y INIT_FILE $end
$var parameter 32 Z PROGRAM_WORDS $end
$var reg 32 [ alu_input_a [31:0] $end
$var reg 32 \ alu_input_b [31:0] $end
$var reg 1 ] branch_condition_met $end
$var reg 4 ^ ex_mem_amo_op [3:0] $end
$var reg 1 _ ex_mem_mem_amo $end
$var reg 1 ` ex_mem_mem_lr $end
$var reg 1 a ex_mem_mem_read $end
$var reg 1 b ex_mem_mem_sc $end
$var reg 1 c ex_mem_mem_to_reg $end
$var reg 1 d ex_mem_mem_write $end
$var reg 5 e ex_mem_rd_addr [4:0] $end
$var reg 1 f ex_mem_reg_write $end
$var reg 32 g ex_mem_result [31:0] $end
$var reg 32 h ex_mem_store_data [31:0] $end
$var reg 1 i ex_mem_valid $end
$var reg 32 j ex_stage_result [31:0] $end
$var reg 32 k flush_count [31:0] $end
$var reg 32 l fwd_rs1_data [31:0] $end
$var reg 32 m fwd_rs2_data [31:0] $end
$var reg 4 n id_ex_alu_control [3:0] $end
$var reg 1 o id_ex_alu_src $end
$var reg 4 p id_ex_amo_op [3:0] $end
$var reg 1 q id_ex_auipc $end
$var reg 1 r id_ex_branch $end
$var reg 3 s id_ex_branch_type [2:0] $end
$var reg 32 t id_ex_imm [31:0] $end
$var reg 1 u id_ex_jalr $end
$var reg 1 v id_ex_jump $end
$var reg 1 w id_ex_lui $end
$var reg 1 x id_ex_mem_amo $end
$var reg 1 y id_ex_mem_lr $end
$var reg 1 z id_ex_mem_read $end
$var reg 1 { id_ex_mem_sc $end
$var reg 1 | id_ex_mem_to_reg $end
$var reg 1 } id_ex_mem_write $end
$var reg 32 ~ id_ex_pc [31:0] $end
$var reg 5 !" id_ex_rd_addr [4:0] $end
$var reg 1 "" id_ex_reg_write $end
$var reg 5 #" id_ex_rs1_addr [4:0] $end
$var reg 32 $" id_ex_rs1_data [31:0] $end
$var reg 5 %" id_ex_rs2_addr [4:0] $end
$var reg 32 &" id_ex_rs2_data [31:0] $end
$var reg 1 '" id_ex_valid $end
$var reg 32 (" if_id_instr [31:0] $end
$var reg 32 )" if_id_pc [31:0] $end
$var reg 1 *" if_id_valid $end
$var reg 32 +" load_use_stall_count [31:0] $end
$var reg 32 ," mem_addr [31:0] $end
$var reg 1 -" mem_amo $end
$var reg 4 ." mem_amo_op [3:0] $end
$var reg 1 /" mem_lr $end
$var reg 1 % mem_re $end
$var reg 1 $ mem_req $end
$var reg 1 0" mem_sc $end
$var reg 32 1" mem_stall_count [31:0] $end
$var reg 5 2" mem_wb_rd_addr [4:0] $end
$var reg 1 3" mem_wb_reg_write $end
$var reg 1 4" mem_wb_valid $end
$var reg 32 5" mem_wb_write_data [31:0] $end
$var reg 32 6" mem_wdata [31:0] $end
$var reg 1 " mem_we $end
$var reg 32 7" pc [31:0] $end
$var reg 32 8" pipeline_cycle_count [31:0] $end
$var reg 1 9" redirect_taken $end
$var reg 32 :" redirect_target [31:0] $end
$var reg 32 ;" retired_count [31:0] $end
$scope module u_alu $end
$var wire 32 <" a [31:0] $end
$var wire 4 =" alu_control [3:0] $end
$var wire 32 >" b [31:0] $end
$var wire 1 V zero $end
$var parameter 4 ?" ADD $end
$var parameter 4 @" AND $end
$var parameter 4 A" OR $end
$var parameter 4 B" SLL $end
$var parameter 4 C" SLT $end
$var parameter 4 D" SRL $end
$var parameter 4 E" SUB $end
$var parameter 4 F" XOR $end
$var reg 32 G" result [31:0] $end
$upscope $end
$scope module u_cu $end
$var wire 32 H" instruction [31:0] $end
$var wire 5 I" rs2_addr [4:0] $end
$var wire 5 J" rs1_addr [4:0] $end
$var wire 5 K" rd_addr [4:0] $end
$var wire 7 L" opcode [6:0] $end
$var wire 7 M" funct7 [6:0] $end
$var wire 5 N" funct5 [4:0] $end
$var wire 3 O" funct3 [2:0] $end
$var parameter 4 P" ALU_ADD $end
$var parameter 4 Q" ALU_AND $end
$var parameter 4 R" ALU_OR $end
$var parameter 4 S" ALU_SLL $end
$var parameter 4 T" ALU_SLT $end
$var parameter 4 U" ALU_SRL $end
$var parameter 4 V" ALU_SUB $end
$var parameter 4 W" ALU_XOR $end
$var parameter 7 X" OP_AMO $end
$var parameter 7 Y" OP_AUIPC $end
$var parameter 7 Z" OP_BRANCH $end
$var parameter 7 [" OP_I_TYPE $end
$var parameter 7 \" OP_JAL $end
$var parameter 7 ]" OP_JALR $end
$var parameter 7 ^" OP_LOAD $end
$var parameter 7 _" OP_LUI $end
$var parameter 7 `" OP_R_TYPE $end
$var parameter 7 a" OP_STORE $end
$var reg 4 b" alu_control [3:0] $end
$var reg 1 T alu_src $end
$var reg 4 c" amo_op [3:0] $end
$var reg 1 R auipc $end
$var reg 1 Q branch $end
$var reg 3 d" branch_type [2:0] $end
$var reg 32 e" imm [31:0] $end
$var reg 1 N jalr $end
$var reg 1 M jump $end
$var reg 1 L lui $end
$var reg 1 K mem_amo $end
$var reg 1 J mem_lr $end
$var reg 1 I mem_read $end
$var reg 1 H mem_sc $end
$var reg 1 G mem_to_reg $end
$var reg 1 F mem_write $end
$var reg 1 D reg_write $end
$upscope $end
$scope module u_instr_mem $end
$var wire 32 f" addr [31:0] $end
$var wire 32 g" instruction [31:0] $end
$var wire 8 h" word_addr [7:0] $end
$var parameter 88 i" INIT_FILE $end
$var parameter 32 j" PROGRAM_WORDS $end
$var integer 32 k" i [31:0] $end
$upscope $end
$scope module u_rf $end
$var wire 1 ( clk $end
$var wire 5 l" rd_addr [4:0] $end
$var wire 1 > reg_write $end
$var wire 1 / reset $end
$var wire 5 m" rs1_addr [4:0] $end
$var wire 5 n" rs2_addr [4:0] $end
$var wire 32 o" write_data [31:0] $end
$var wire 32 p" rs2_data [31:0] $end
$var wire 32 q" rs1_data [31:0] $end
$var integer 32 r" i [31:0] $end
$upscope $end
$upscope $end
$scope module u_dmem $end
$var wire 32 s" addr [31:0] $end
$var wire 1 ( clk $end
$var wire 1 * re $end
$var wire 1 / reset $end
$var wire 32 t" wdata [31:0] $end
$var wire 1 , we $end
$var wire 10 u" word_addr [9:0] $end
$var reg 32 v" rdata [31:0] $end
$var integer 32 w" i [31:0] $end
$upscope $end
$upscope $end
$enddefinitions $end
$comment Show the parameter values. $end
$dumpall
b1001 j"
b111000001110010011011110110011101110010011000010110110100101110011010000110010101111000 i"
b100011 a"
b110011 `"
b110111 _"
b11 ^"
b1100111 ]"
b1101111 \"
b10011 ["
b1100011 Z"
b10111 Y"
b101111 X"
b100 W"
b110 V"
b101 U"
b111 T"
b11 S"
b1 R"
b0 Q"
b10 P"
b100 F"
b110 E"
b101 D"
b111 C"
b11 B"
b1 A"
b0 @"
b10 ?"
b1001 Z
b111000001110010011011110110011101110010011000010110110100101110011010000110010101111000 Y
b0 X
$end
#0
$dumpvars
b10000000000 w"
b0 v"
b0 u"
b0 t"
b0 s"
b100000 r"
b0 q"
b0 p"
b0 o"
b0 n"
b0 m"
b0 l"
b100000000 k"
b0 h"
b101000000000000010010011 g"
b0 f"
b0 e"
b0 d"
b0 c"
b10 b"
b0 O"
b0 N"
b0 M"
b0 L"
b0 K"
b0 J"
b0 I"
b0 H"
b0 G"
b0 >"
b0 ="
b0 <"
b0 ;"
b0 :"
09"
b0 8"
b0 7"
b0 6"
b0 5"
04"
03"
b0 2"
b0 1"
00"
0/"
b0 ."
0-"
b0 ,"
b0 +"
0*"
b0 )"
b0 ("
0'"
b0 &"
b0 %"
b0 $"
b0 #"
0""
b0 !"
b0 ~
0}
0|
0{
0z
0y
0x
0w
0v
0u
b0 t
b0 s
0r
0q
b0 p
0o
b0 n
b0 m
b0 l
b0 k
b0 j
0i
b0 h
b0 g
0f
b0 e
0d
0c
0b
0a
0`
0_
b0 ^
1]
b0 \
b0 [
b0 W
1V
b10 U
0T
b0 S
0R
0Q
b0 P
b0 O
0N
0M
0L
0K
0J
0I
0H
0G
0F
b0 E
0D
b0 C
b0 B
b101000000000000010010011 A
b0 @
b0 ?
0>
b0 =
b0 <
0;
0:
z9
b0 8
07
06
05
04
03
b0 2
b0 1
b0 0
1/
0.
0-
0,
b0 +
0*
b0 )
0(
b0 '
b0 &
0%
0$
b0 #
0"
b0 !
$end
#5000
b10000000000 w"
b100000 r"
1(
#10000
0(
#15000
b100000 r"
b10000000000 w"
1(
#20000
0(
#25000
b1010000000000000100010011 A
b1010000000000000100010011 g"
1T
1D
b1 h"
b1010 O
b1010 e"
b10011 L"
b1010 B
b1010 I"
b1010 n"
b1 E
b1 K"
b100 7"
b100 f"
b101000000000000010010011 ("
b101000000000000010010011 H"
1*"
b1 8"
b1 0
1(
0/
#30000
0(
#35000
b1010 j
b1000001000000110110011 A
b1000001000000110110011 g"
0V
b1010 W
b1010 G"
b1010 \
b1010 >"
1]
b10 h"
b10100 O
b10100 e"
b10100 B
b10100 I"
b10100 n"
b10 E
b10 K"
b10 n
b10 ="
1o
1""
b1 !"
b1010 %"
b1010 t
1'"
b1000 7"
b1000 f"
b1010000000000000100010011 ("
b1010000000000000100010011 H"
b100 )"
b10 8"
b10 0
1(
#40000
0(
#45000
b10100 j
b1100000010000000100011 A
b1100000010000000100011 g"
0T
1D
13
b10100 W
b10100 G"
1]
b11 h"
b0 O
b0 e"
b110011 L"
b1 C
b1 J"
b1 m"
b10 B
b10 I"
b10 n"
b11 E
b11 K"
b1010 &
b1010 ,"
b10100 \
b10100 >"
b10 !"
b10100 %"
b10100 t
b100 ~
b1100 7"
b1100 f"
b1000001000000110110011 ("
b1000001000000110110011 H"
b1000 )"
1f
b1 e
b1010 g
1i
b11 8"
b11 0
1(
#50000
0(
#55000
b11110 j
b10001000000011 A
b10001000000011 g"
1F
1T
0D
b11110 W
b11110 G"
0]
b100 h"
b100011 L"
b10 O"
b0 C
b0 J"
b0 m"
b11 B
b11 I"
b11 n"
b0 E
b0 K"
b10100 &
b10100 ,"
b1010 [
b1010 <"
b10100 m
b1010 l
1;
1>
0o
b11 !"
b10 %"
b1 #"
b0 t
b1000 ~
b10000 7"
b10000 f"
b1100000010000000100011 ("
b1100000010000000100011 H"
b1100 )"
b10 e
b10100 g
b1010 =
b1010 5"
b1010 o"
b1 <
b1 l"
b1 2"
13"
14"
b100 8"
b100 0
1(
#60000
0(
#65000
b0 j
b10000011000010001100011 A
b10000011000010001100011 g"
1G
1I
1D
0F
1T
1V
b0 W
b0 G"
b101 h"
b11 L"
b0 B
b0 I"
b0 n"
b100 E
b100 K"
b10100 #
b10100 6"
b11110 &
b11110 ,"
b0 \
b0 >"
b0 [
b0 <"
b11110 m
b0 l
1}
1o
0""
b0 !"
b11 %"
b0 #"
b1100 ~
b10100 7"
b10100 f"
b10001000000011 ("
b10001000000011 H"
b10000 )"
b11 e
b10100 h
b11110 g
b10100 =
b10100 5"
b10100 o"
b10 <
b10 l"
b10 2"
b1 ;"
b101 8"
b101 0
1(
#70000
0(
#75000
16
1:
1$
14
15
b11110 @
b11110 q"
b1101111 A
b1101111 g"
1Q
b110 U
b110 b"
0G
0I
0T
0D
03
1]
b110 h"
b1000 O
b1000 e"
b1100011 L"
b0 O"
b11 C
b11 J"
b11 m"
b100 B
b100 I"
b100 n"
b1000 E
b1000 K"
1"
b11110 #
b11110 6"
b0 &
b0 ,"
b0 m
1|
0}
1z
1""
b100 !"
b0 %"
b10000 ~
b11000 7"
b11000 f"
b10000011000010001100011 ("
b10000011000010001100011 H"
b10100 )"
1d
0f
b0 e
b11110 h
b0 g
b11110 =
b11110 5"
b11110 o"
b11 <
b11 l"
b11 2"
b10 ;"
b110 8"
b110 0
1(
#80000
0(
#85000
0;
0>
1,
b11110 +
b11110 t"
1.
b1 1"
04"
b11 ;"
b111 8"
b111 0
1(
#90000
0(
#95000
17
0:
b10 1"
b1000 8"
0,
1-
b1000 0
1(
#100000
0(
#105000
0$
07
04
1-
0i
b0 =
b0 5"
b0 o"
b0 <
b0 l"
b0 2"
03"
14"
b1001 8"
b1001 0
1(
#110000
0(
#115000
06
05
03
1:
1]
1%
0"
b0 #
b0 6"
1$
14
b1 +"
0|
0z
0""
0'"
1c
0d
1a
1f
b100 e
b0 h
1i
04"
b100 ;"
b1010 8"
0-
0.
b1010 0
1(
#120000
0(
#125000
b11110 !
b11110 8
b11110 '
b11110 v"
1*
b0 +
b0 t"
1.
b11 1"
b1011 8"
b1011 0
1(
#130000
0(
#135000
17
0:
b100 1"
b1100 8"
1-
b1100 0
1(
#140000
0(
#145000
b11110 ?
b11110 p"
0$
07
04
1;
1>
1-
0i
b11110 =
b11110 5"
b11110 o"
b100 <
b100 l"
b100 2"
13"
14"
b1101 8"
b1101 0
1(
#150000
0(
#155000
b11100 :"
19"
b11110 \
b11110 >"
b0 j
b100000000001010010011 A
b100000000001010010011 g"
1M
1D
0Q
b10 U
b10 b"
b0 @
b0 q"
b0 ?
b0 p"
0;
1V
b0 W
b0 G"
1]
b111 h"
b0 O
b0 e"
b1101111 L"
b0 C
b0 J"
b0 m"
b0 B
b0 I"
b0 n"
b0 E
b0 K"
0%
b11110 [
b11110 <"
b11110 m
b11110 l
0>
b0 !
b0 8
b0 '
b0 v"
1r
b110 n
b110 ="
0o
b1000 !"
b100 %"
b11 #"
b1000 t
b11110 &"
b11110 $"
b10100 ~
1'"
b11100 7"
b11100 f"
b1101111 ("
b1101111 H"
b11000 )"
0c
0a
0f
b0 =
b0 5"
b0 o"
04"
b101 ;"
b1110 8"
0*
0-
0.
b1110 0
1(
#160000
0(
#165000
0M
0D
b0 :"
09"
1]
b0 L"
b11110 #
b11110 6"
b1 k
0r
0'"
b0 ("
b0 H"
b0 )"
0*"
b1000 e
b11110 h
1i
03"
b1111 8"
b1111 0
1(
#170000
0(
#175000
b1010 ?
b1010 p"
b1101111 A
b1101111 g"
1T
1D
1]
b1000 h"
b1 O
b1 e"
b10011 L"
b1 B
b1 I"
b1 n"
b101 E
b101 K"
b0 \
b0 >"
b0 [
b0 <"
b0 m
b0 l
b0 n
b0 ="
b0 !"
b0 %"
b0 #"
b0 t
b0 &"
b0 $"
b0 ~
b100000 7"
b100000 f"
b100000000001010010011 ("
b100000000001010010011 H"
b11100 )"
1*"
0i
b1000 <
b1000 l"
b1000 2"
14"
b10000 8"
b10000 0
1(
#180000
0(
#185000
b1 j
b10011 A
b10011 g"
1M
0T
1D
b0 ?
b0 p"
0V
b1 W
b1 G"
0]
b1001 h"
b0 O
b0 e"
b1101111 L"
b0 B
b0 I"
b0 n"
b0 E
b0 K"
b1 \
b1 >"
b1010 m
b0 #
b0 6"
b10 n
b10 ="
1o
1""
b101 !"
b1 %"
b1 t
b1010 &"
b11100 ~
1'"
b100100 7"
b100100 f"
b1101111 ("
b1101111 H"
b100000 )"
b0 e
b0 h
04"
b110 ;"
b10001 8"
b10001 0
1(
#190000
0(
#195000
1T
0M
1D
13
1V
b0 W
b0 G"
b100100 j
b100000 :"
19"
1]
b1010 h"
b10011 L"
b1010 #
b1010 6"
b1 &
b1 ,"
b0 \
b0 >"
b0 m
1v
0o
b0 !"
b0 %"
b0 t
b0 &"
b100000 ~
b101000 7"
b101000 f"
b10011 ("
b10011 H"
b100100 )"
1f
b101 e
b1010 h
b1 g
1i
b0 <
b0 l"
b0 2"
b10010 8"
b10010 0
1(
#200000
0(
#205000
0T
0D
b1101111 A
b1101111 g"
03
1V
b0 W
b0 G"
b0 j
b0 :"
09"
1]
b0 L"
b1000 h"
b0 #
b0 6"
b100100 &
b100100 ,"
b0 \
b0 >"
b0 [
b0 <"
b0 m
b0 l
1;
1>
b10 k
0v
0""
0'"
b0 ("
b0 H"
b0 )"
0*"
b100000 7"
b100000 f"
b0 e
b0 h
b100100 g
b1 =
b1 5"
b1 o"
b101 <
b101 l"
b101 2"
13"
14"
b10011 8"
b10011 0
1(
#210000
0(
#215000
b10011 A
b10011 g"
1M
1D
1]
b1001 h"
b1101111 L"
b0 &
b0 ,"
0;
b0 n
b0 ="
b0 ~
b100100 7"
b100100 f"
b1101111 ("
b1101111 H"
b100000 )"
1*"
0f
b0 g
0i
b100100 =
b100100 5"
b100100 o"
b0 <
b0 l"
b0 2"
b111 ;"
b10100 8"
b10100 0
1(
#220000
0(
#225000
1T
0M
1D
b100100 j
b100000 :"
19"
1]
b1010 h"
b10011 L"
0>
1v
b10 n
b10 ="
1""
b100000 ~
1'"
b101000 7"
b101000 f"
b10011 ("
b10011 H"
b100100 )"
b0 =
b0 5"
b0 o"
03"
04"
b1000 ;"
b10101 8"
b10101 0
1(
#230000
0(
#235000
0T
0D
b1101111 A
b1101111 g"
b0 j
b0 :"
09"
1]
b0 L"
b1000 h"
b100100 &
b100100 ,"
b11 k
0v
0""
0'"
b0 ("
b0 H"
b0 )"
0*"
b100000 7"
b100000 f"
1f
b100100 g
1i
b10110 8"
b10110 0
1(
#240000
0(
#245000
b10011 A
b10011 g"
1M
1D
1]
b1001 h"
b1101111 L"
b0 &
b0 ,"
1>
b0 n
b0 ="
b0 ~
b100100 7"
b100100 f"
b1101111 ("
b1101111 H"
b100000 )"
1*"
0f
b0 g
0i
b100100 =
b100100 5"
b100100 o"
13"
14"
b10111 8"
b10111 0
1(
#250000
0(
#255000
1T
0M
1D
b100100 j
b100000 :"
19"
1]
b1010 h"
b10011 L"
0>
1v
b10 n
b10 ="
1""
b100000 ~
1'"
b101000 7"
b101000 f"
b10011 ("
b10011 H"
b100100 )"
b0 =
b0 5"
b0 o"
03"
04"
b1001 ;"
b11000 8"
b11000 0
1(
#260000
0(
#265000
0T
0D
b1101111 A
b1101111 g"
b0 j
b0 :"
09"
1]
b0 L"
b1000 h"
b100100 &
b100100 ,"
b100 k
0v
0""
0'"
b0 ("
b0 H"
b0 )"
0*"
b100000 7"
b100000 f"
1f
b100100 g
1i
b11001 8"
b11001 0
1(
#270000
0(
#275000
b10011 A
b10011 g"
1M
1D
1]
b1001 h"
b1101111 L"
b0 &
b0 ,"
1>
b0 n
b0 ="
b0 ~
b100100 7"
b100100 f"
b1101111 ("
b1101111 H"
b100000 )"
1*"
0f
b0 g
0i
b100100 =
b100100 5"
b100100 o"
13"
14"
b11010 8"
b11010 0
1(
#280000
0(
#285000
1T
0M
1D
b100100 j
b100000 :"
19"
1]
b1010 h"
b10011 L"
0>
1v
b10 n
b10 ="
1""
b100000 ~
1'"
b101000 7"
b101000 f"
b10011 ("
b10011 H"
b100100 )"
b0 =
b0 5"
b0 o"
03"
04"
b1010 ;"
b11011 8"
b11011 0
1(
#290000
0(
#295000
0T
0D
b1101111 A
b1101111 g"
b0 j
b0 :"
09"
1]
b0 L"
b1000 h"
b100100 &
b100100 ,"
b101 k
0v
0""
0'"
b0 ("
b0 H"
b0 )"
0*"
b100000 7"
b100000 f"
1f
b100100 g
1i
b11100 8"
b11100 0
1(
#300000
0(
#305000
b10011 A
b10011 g"
1M
1D
1]
b1001 h"
b1101111 L"
b0 &
b0 ,"
1>
b0 n
b0 ="
b0 ~
b100100 7"
b100100 f"
b1101111 ("
b1101111 H"
b100000 )"
1*"
0f
b0 g
0i
b100100 =
b100100 5"
b100100 o"
13"
14"
b11101 8"
b11101 0
1(
#310000
0(
#315000
1T
0M
1D
b100100 j
b100000 :"
19"
1]
b1010 h"
b10011 L"
0>
1v
b10 n
b10 ="
1""
b100000 ~
1'"
b101000 7"
b101000 f"
b10011 ("
b10011 H"
b100100 )"
b0 =
b0 5"
b0 o"
03"
04"
b1011 ;"
b11110 8"
b11110 0
1(
#320000
0(
#325000
0T
0D
b1101111 A
b1101111 g"
b0 j
b0 :"
09"
1]
b0 L"
b1000 h"
b100100 &
b100100 ,"
b110 k
0v
0""
0'"
b0 ("
b0 H"
b0 )"
0*"
b100000 7"
b100000 f"
1f
b100100 g
1i
b11111 8"
b11111 0
1(
#330000
0(
#335000
b10011 A
b10011 g"
1M
1D
1]
b1001 h"
b1101111 L"
b0 &
b0 ,"
1>
b0 n
b0 ="
b0 ~
b100100 7"
b100100 f"
b1101111 ("
b1101111 H"
b100000 )"
1*"
0f
b0 g
0i
b100100 =
b100100 5"
b100100 o"
13"
14"
b100000 8"
b100000 0
1(
#340000
0(
#345000
1T
0M
1D
b100100 j
b100000 :"
19"
1]
b1010 h"
b10011 L"
0>
1v
b10 n
b10 ="
1""
b100000 ~
1'"
b101000 7"
b101000 f"
b10011 ("
b10011 H"
b100100 )"
b0 =
b0 5"
b0 o"
03"
04"
b1100 ;"
b100001 8"
b100001 0
1(
#350000
0(
#355000
0T
0D
b1101111 A
b1101111 g"
b0 j
b0 :"
09"
1]
b0 L"
b1000 h"
b100100 &
b100100 ,"
b111 k
0v
0""
0'"
b0 ("
b0 H"
b0 )"
0*"
b100000 7"
b100000 f"
1f
b100100 g
1i
b100010 8"
b100010 0
1(
#360000
0(
#365000
b10011 A
b10011 g"
1M
1D
1]
b1001 h"
b1101111 L"
b0 &
b0 ,"
1>
b0 n
b0 ="
b0 ~
b100100 7"
b100100 f"
b1101111 ("
b1101111 H"
b100000 )"
1*"
0f
b0 g
0i
b100100 =
b100100 5"
b100100 o"
13"
14"
b100011 8"
b100011 0
1(
#370000
0(
#375000
1T
0M
1D
b100100 j
b100000 :"
19"
1]
b1010 h"
b10011 L"
0>
1v
b10 n
b10 ="
1""
b100000 ~
1'"
b101000 7"
b101000 f"
b10011 ("
b10011 H"
b100100 )"
b0 =
b0 5"
b0 o"
03"
04"
b1101 ;"
b100100 8"
b100100 0
1(
#380000
0(
#385000
0T
0D
b1101111 A
b1101111 g"
b0 j
b0 :"
09"
1]
b0 L"
b1000 h"
b100100 &
b100100 ,"
b1000 k
0v
0""
0'"
b0 ("
b0 H"
b0 )"
0*"
b100000 7"
b100000 f"
1f
b100100 g
1i
b100101 8"
b100101 0
1(
#390000
0(
#395000
b10011 A
b10011 g"
1M
1D
1]
b1001 h"
b1101111 L"
b0 &
b0 ,"
1>
b0 n
b0 ="
b0 ~
b100100 7"
b100100 f"
b1101111 ("
b1101111 H"
b100000 )"
1*"
0f
b0 g
0i
b100100 =
b100100 5"
b100100 o"
13"
14"
b100110 8"
b100110 0
1(
#400000
0(
#405000
1T
0M
1D
b100100 j
b100000 :"
19"
1]
b1010 h"
b10011 L"
0>
1v
b10 n
b10 ="
1""
b100000 ~
1'"
b101000 7"
b101000 f"
b10011 ("
b10011 H"
b100100 )"
b0 =
b0 5"
b0 o"
03"
04"
b1110 ;"
b100111 8"
b100111 0
1(
#410000
0(
#415000
0T
0D
b1101111 A
b1101111 g"
b0 j
b0 :"
09"
1]
b0 L"
b1000 h"
b100100 &
b100100 ,"
b1001 k
0v
0""
0'"
b0 ("
b0 H"
b0 )"
0*"
b100000 7"
b100000 f"
1f
b100100 g
1i
b101000 8"
b101000 0
1(
#420000
0(
#425000
b10011 A
b10011 g"
1M
1D
1]
b1001 h"
b1101111 L"
b0 &
b0 ,"
1>
b0 n
b0 ="
b0 ~
b100100 7"
b100100 f"
b1101111 ("
b1101111 H"
b100000 )"
1*"
0f
b0 g
0i
b100100 =
b100100 5"
b100100 o"
13"
14"
b101001 8"
b101001 0
1(
#430000
0(
#435000
1T
0M
1D
b100100 j
b100000 :"
19"
1]
b1010 h"
b10011 L"
0>
1v
b10 n
b10 ="
1""
b100000 ~
1'"
b101000 7"
b101000 f"
b10011 ("
b10011 H"
b100100 )"
b0 =
b0 5"
b0 o"
03"
04"
b1111 ;"
b101010 8"
b101010 0
1(
#440000
0(
#445000
0T
0D
b1101111 A
b1101111 g"
b0 j
b0 :"
09"
1]
b0 L"
b1000 h"
b100100 &
b100100 ,"
b1010 k
0v
0""
0'"
b0 ("
b0 H"
b0 )"
0*"
b100000 7"
b100000 f"
1f
b100100 g
1i
b101011 8"
b101011 0
1(
#450000
0(
#455000
b10011 A
b10011 g"
1M
1D
1]
b1001 h"
b1101111 L"
b0 &
b0 ,"
1>
b0 n
b0 ="
b0 ~
b100100 7"
b100100 f"
b1101111 ("
b1101111 H"
b100000 )"
1*"
0f
b0 g
0i
b100100 =
b100100 5"
b100100 o"
13"
14"
b101100 8"
b101100 0
1(
#460000
0(
#465000
1T
0M
1D
b100100 j
b100000 :"
19"
1]
b1010 h"
b10011 L"
0>
1v
b10 n
b10 ="
1""
b100000 ~
1'"
b101000 7"
b101000 f"
b10011 ("
b10011 H"
b100100 )"
b0 =
b0 5"
b0 o"
03"
04"
b10000 ;"
b101101 8"
b101101 0
1(
#470000
0(
#475000
0T
0D
b1101111 A
b1101111 g"
b0 j
b0 :"
09"
1]
b0 L"
b1000 h"
b100100 &
b100100 ,"
b1011 k
0v
0""
0'"
b0 ("
b0 H"
b0 )"
0*"
b100000 7"
b100000 f"
1f
b100100 g
1i
b101110 8"
b101110 0
1(
#480000
0(
#485000
b10011 A
b10011 g"
1M
1D
1]
b1001 h"
b1101111 L"
b0 &
b0 ,"
1>
b0 n
b0 ="
b0 ~
b100100 7"
b100100 f"
b1101111 ("
b1101111 H"
b100000 )"
1*"
0f
b0 g
0i
b100100 =
b100100 5"
b100100 o"
13"
14"
b101111 8"
b101111 0
1(
#490000
0(
#495000
1T
0M
1D
b100100 j
b100000 :"
19"
1]
b1010 h"
b10011 L"
0>
1v
b10 n
b10 ="
1""
b100000 ~
1'"
b101000 7"
b101000 f"
b10011 ("
b10011 H"
b100100 )"
b0 =
b0 5"
b0 o"
03"
04"
b10001 ;"
b110000 8"
b110000 0
1(
#500000
0(
#505000
0T
0D
b1101111 A
b1101111 g"
b0 j
b0 :"
09"
1]
b0 L"
b1000 h"
b100100 &
b100100 ,"
b1100 k
0v
0""
0'"
b0 ("
b0 H"
b0 )"
0*"
b100000 7"
b100000 f"
1f
b100100 g
1i
b110001 8"
b110001 0
1(
#510000
0(
#515000
b10011 A
b10011 g"
1M
1D
1]
b1001 h"
b1101111 L"
b0 &
b0 ,"
1>
b0 n
b0 ="
b0 ~
b100100 7"
b100100 f"
b1101111 ("
b1101111 H"
b100000 )"
1*"
0f
b0 g
0i
b100100 =
b100100 5"
b100100 o"
13"
14"
b110010 8"
b110010 0
1(
#520000
0(
#525000
1T
0M
1D
b100100 j
b100000 :"
19"
1]
b1010 h"
b10011 L"
0>
1v
b10 n
b10 ="
1""
b100000 ~
1'"
b101000 7"
b101000 f"
b10011 ("
b10011 H"
b100100 )"
b0 =
b0 5"
b0 o"
03"
04"
b10010 ;"
b110011 8"
b110011 0
1(
#530000
0(
#535000
0T
0D
b1101111 A
b1101111 g"
b0 j
b0 :"
09"
1]
b0 L"
b1000 h"
b100100 &
b100100 ,"
b1101 k
0v
0""
0'"
b0 ("
b0 H"
b0 )"
0*"
b100000 7"
b100000 f"
1f
b100100 g
1i
b110100 8"
b110100 0
1(
#540000
0(
#545000
b10011 A
b10011 g"
1M
1D
1]
b1001 h"
b1101111 L"
b0 &
b0 ,"
1>
b0 n
b0 ="
b0 ~
b100100 7"
b100100 f"
b1101111 ("
b1101111 H"
b100000 )"
1*"
0f
b0 g
0i
b100100 =
b100100 5"
b100100 o"
13"
14"
b110101 8"
b110101 0
1(
#550000
0(
#555000
1T
0M
1D
b100100 j
b100000 :"
19"
1]
b1010 h"
b10011 L"
0>
1v
b10 n
b10 ="
1""
b100000 ~
1'"
b101000 7"
b101000 f"
b10011 ("
b10011 H"
b100100 )"
b0 =
b0 5"
b0 o"
03"
04"
b10011 ;"
b110110 8"
b110110 0
1(
#560000
0(
