tb/core_tb.vcd
$date
	Fri May 08 17:12:16 2026
$end
$version
	Icarus Verilog
$end
$timescale
	1ps
$end
$scope module core_tb $end
$var wire 32 ! mem_rdata [31:0] $end
$var wire 1 " mem_we $end
$var wire 32 # mem_wdata [31:0] $end
$var wire 1 $ mem_req $end
$var wire 1 % mem_re $end
$var wire 32 & mem_addr [31:0] $end
$var wire 32 ' dm_rdata [31:0] $end
$var reg 1 ( clk $end
$var reg 32 ) dm_addr [31:0] $end
$var reg 1 * dm_re $end
$var reg 32 + dm_wdata [31:0] $end
$var reg 1 , dm_we $end
$var reg 1 - mem_ready $end
$var reg 1 . mem_req_prev $end
$var reg 1 / reset $end
$var integer 32 0 cycle_count [31:0] $end
$var integer 32 1 test_fail [31:0] $end
$var integer 32 2 test_pass [31:0] $end
$scope module u_core $end
$var wire 1 ( clk $end
$var wire 32 3 mem_rdata [31:0] $end
$var wire 1 - mem_ready $end
$var wire 1 / reset $end
$var wire 32 4 rs2_data [31:0] $end
$var wire 32 5 rs1_data [31:0] $end
$var wire 32 6 pc [31:0] $end
$var wire 32 7 instr_from_mem [31:0] $end
$var wire 5 8 cu_rs2_addr [4:0] $end
$var wire 5 9 cu_rs1_addr [4:0] $end
$var wire 1 : cu_reg_write $end
$var wire 5 ; cu_rd_addr [4:0] $end
$var wire 1 < cu_mem_write $end
$var wire 1 = cu_mem_to_reg $end
$var wire 1 > cu_mem_read $end
$var wire 1 ? cu_lui $end
$var wire 1 @ cu_jump $end
$var wire 1 A cu_jalr $end
$var wire 32 B cu_imm [31:0] $end
$var wire 3 C cu_branch_type [2:0] $end
$var wire 1 D cu_branch $end
$var wire 1 E cu_auipc $end
$var wire 1 F cu_alu_src $end
$var wire 4 G cu_alu_control [3:0] $end
$var wire 1 H alu_zero $end
$var wire 32 I alu_result [31:0] $end
$var parameter 32 J CORE_ID $end
$var parameter 88 K INIT_FILE $end
$var parameter 2 L S_EXECUTE $end
$var parameter 2 M S_FETCH $end
$var parameter 2 N S_MEMORY $end
$var reg 32 O alu_input_a [31:0] $end
$var reg 32 P alu_input_b [31:0] $end
$var reg 1 Q branch_condition_met $end
$var reg 32 R instr_reg [31:0] $end
$var reg 32 S mem_addr [31:0] $end
$var reg 1 % mem_re $end
$var reg 1 $ mem_req $end
$var reg 32 T mem_wdata [31:0] $end
$var reg 1 " mem_we $end
$var reg 1 U pc_branch_taken $end
$var reg 32 V pc_branch_target [31:0] $end
$var reg 1 W pc_jump $end
$var reg 32 X pc_jump_target [31:0] $end
$var reg 1 Y pc_stall $end
$var reg 5 Z rf_rd_addr [4:0] $end
$var reg 32 [ rf_write_data [31:0] $end
$var reg 1 \ rf_write_en $end
$var reg 32 ] saved_alu_result [31:0] $end
$var reg 1 ^ saved_mem_to_reg $end
$var reg 32 _ saved_pc [31:0] $end
$var reg 5 ` saved_rd_addr [4:0] $end
$var reg 1 a saved_reg_write $end
$var reg 2 b state [1:0] $end
$scope module u_alu $end
$var wire 32 c a [31:0] $end
$var wire 32 d b [31:0] $end
$var wire 1 H zero $end
$var wire 4 e alu_control [3:0] $end
$var parameter 4 f ADD $end
$var parameter 4 g AND $end
$var parameter 4 h OR $end
$var parameter 4 i SLL $end
$var parameter 4 j SLT $end
$var parameter 4 k SRL $end
$var parameter 4 l SUB $end
$var parameter 4 m XOR $end
$var reg 32 n result [31:0] $end
$upscope $end
$scope module u_cu $end
$var wire 32 o instruction [31:0] $end
$var wire 5 p rs2_addr [4:0] $end
$var wire 5 q rs1_addr [4:0] $end
$var wire 5 r rd_addr [4:0] $end
$var wire 7 s opcode [6:0] $end
$var wire 7 t funct7 [6:0] $end
$var wire 3 u funct3 [2:0] $end
$var parameter 4 v ALU_ADD $end
$var parameter 4 w ALU_AND $end
$var parameter 4 x ALU_OR $end
$var parameter 4 y ALU_SLL $end
$var parameter 4 z ALU_SLT $end
$var parameter 4 { ALU_SRL $end
$var parameter 4 | ALU_SUB $end
$var parameter 4 } ALU_XOR $end
$var parameter 7 ~ OP_AUIPC $end
$var parameter 7 !" OP_BRANCH $end
$var parameter 7 "" OP_I_TYPE $end
$var parameter 7 #" OP_JAL $end
$var parameter 7 $" OP_JALR $end
$var parameter 7 %" OP_LOAD $end
$var parameter 7 &" OP_LUI $end
$var parameter 7 '" OP_R_TYPE $end
$var parameter 7 (" OP_STORE $end
$var reg 4 )" alu_control [3:0] $end
$var reg 1 F alu_src $end
$var reg 1 E auipc $end
$var reg 1 D branch $end
$var reg 3 *" branch_type [2:0] $end
$var reg 32 +" imm [31:0] $end
$var reg 1 A jalr $end
$var reg 1 @ jump $end
$var reg 1 ? lui $end
$var reg 1 > mem_read $end
$var reg 1 = mem_to_reg $end
$var reg 1 < mem_write $end
$var reg 1 : reg_write $end
$upscope $end
$scope module u_instr_mem $end
$var wire 32 ," instruction [31:0] $end
$var wire 8 -" word_addr [7:0] $end
$var wire 32 ." addr [31:0] $end
$var parameter 88 /" INIT_FILE $end
$upscope $end
$scope module u_pc $end
$var wire 1 U branch_taken $end
$var wire 32 0" branch_target [31:0] $end
$var wire 1 ( clk $end
$var wire 1 W jump $end
$var wire 32 1" jump_target [31:0] $end
$var wire 1 / reset $end
$var wire 1 Y stall $end
$var reg 32 2" pc [31:0] $end
$upscope $end
$scope module u_rf $end
$var wire 1 ( clk $end
$var wire 5 3" rd_addr [4:0] $end
$var wire 1 \ reg_write $end
$var wire 1 / reset $end
$var wire 5 4" rs1_addr [4:0] $end
$var wire 5 5" rs2_addr [4:0] $end
$var wire 32 6" write_data [31:0] $end
$var wire 32 7" rs2_data [31:0] $end
$var wire 32 8" rs1_data [31:0] $end
$var integer 32 9" i [31:0] $end
$upscope $end
$upscope $end
$scope module u_dmem $end
$var wire 32 :" addr [31:0] $end
$var wire 1 ( clk $end
$var wire 1 * re $end
$var wire 1 / reset $end
$var wire 32 ;" wdata [31:0] $end
$var wire 1 , we $end
$var wire 10 <" word_addr [9:0] $end
$var reg 32 =" rdata [31:0] $end
$var integer 32 >" i [31:0] $end
$upscope $end
$upscope $end
$enddefinitions $end
$comment Show the parameter values. $end
$dumpall
b111000001110010011011110110011101110010011000010110110100101110011010000110010101111000 /"
b100011 ("
b110011 '"
b110111 &"
b11 %"
b1100111 $"
b1101111 #"
b10011 ""
b1100011 !"
b10111 ~
b100 }
b110 |
b101 {
b111 z
b11 y
b1 x
b0 w
b10 v
b100 m
b110 l
b101 k
b111 j
b11 i
b1 h
b0 g
b10 f
b10 N
b0 M
b1 L
b111000001110010011011110110011101110010011000010110110100101110011010000110010101111000 K
b0 J
$end
#0
$dumpvars
b10000000000 >"
b0 ="
b0 <"
b0 ;"
b0 :"
b100000 9"
b0 8"
b0 7"
b0 6"
b0 5"
b0 4"
b0 3"
b0 2"
b0 1"
b0 0"
b0 ."
b0 -"
b101000000000000010010011 ,"
b0 +"
b0 *"
b10 )"
b0 u
b0 t
b0 s
b0 r
b0 q
b0 p
b0 o
b0 n
b10 e
b0 d
b0 c
b0 b
0a
b0 `
b0 _
0^
b0 ]
0\
b0 [
b0 Z
0Y
b0 X
0W
b0 V
0U
b0 T
b0 S
b0 R
0Q
b0 P
b0 O
b0 I
1H
b10 G
0F
0E
0D
b0 C
b0 B
0A
0@
0?
0>
0=
0<
b0 ;
0:
b0 9
b0 8
b101000000000000010010011 7
b0 6
b0 5
b0 4
b0 3
b0 2
b0 1
b0 0
1/
0.
0-
0,
b0 +
0*
b0 )
0(
b0 '
b0 &
0%
0$
b0 #
0"
b0 !
$end
#5000
b10000000000 >"
b100000 9"
1(
#10000
0(
#15000
b100000 9"
b10000000000 >"
1(
#20000
0(
#25000
0H
b1010 I
b1010 n
b1010 P
b1010 d
1F
1:
b1010000000000000100010011 7
b1010000000000000100010011 ,"
b1010 B
b1010 +"
b10011 s
b1010 8
b1010 p
b1010 5"
b1 ;
b1 r
b1 -"
b1 b
1Y
b101000000000000010010011 R
b101000000000000010010011 o
b100 6
b100 ."
b100 2"
b1 0
1(
0/
#30000
0(
#35000
b0 b
0Y
b1010 [
b1010 6"
b1 Z
b1 3"
1\
b10 0
1(
#40000
0(
#45000
b10100 I
b10100 n
b10100 P
b10100 d
b1000001000000110110011 7
b1000001000000110110011 ,"
b10100 B
b10100 +"
b10100 8
b10100 p
b10100 5"
b10 ;
b10 r
b10 -"
b1 b
1Y
b100 _
b1010000000000000100010011 R
b1010000000000000100010011 o
0\
b1000 6
b1000 ."
b1000 2"
b11 0
1(
#50000
0(
#55000
b0 b
0Y
b10100 [
b10100 6"
b10 Z
b10 3"
1\
b100 0
1(
#60000
0(
#65000
b11110 I
b11110 n
b10100 4
b10100 7"
b10100 P
b10100 d
b1010 O
b1010 c
0F
1:
b1010 5
b1010 8"
b1100000010000000100011 7
b1100000010000000100011 ,"
b0 B
b0 +"
b110011 s
b1 9
b1 q
b1 4"
b10 8
b10 p
b10 5"
b11 ;
b11 r
b11 -"
b1 b
1Y
b1000 _
b1000001000000110110011 R
b1000001000000110110011 o
0\
b1100 6
b1100 ."
b1100 2"
b101 0
1(
#70000
0(
#75000
b0 b
0Y
b11110 [
b11110 6"
b11 Z
b11 3"
1\
b110 0
1(
#80000
0(
#85000
1H
b0 I
b0 n
b0 P
b0 d
b0 O
b0 c
b11110 4
b11110 7"
1<
1F
0:
b0 5
b0 8"
b10001000000011 7
b10001000000011 ,"
b100011 s
b10 u
b0 9
b0 q
b0 4"
b11 8
b11 p
b11 5"
b0 ;
b0 r
b100 -"
b1 b
1Y
b1100 _
b1100000010000000100011 R
b1100000010000000100011 o
0\
b10000 6
b10000 ."
b10000 2"
b111 0
1(
#90000
0(
#95000
b10 b
b11110 #
b11110 T
1"
1$
b1000 0
1(
#100000
0(
#105000
1,
b11110 +
b11110 ;"
1.
b1001 0
1(
#110000
0(
#115000
0,
1-
b1010 0
1(
#120000
0(
#125000
1-
b0 b
0Y
0"
0$
b1011 0
1(
#130000
0(
#135000
b10000011000010001100011 7
b10000011000010001100011 ,"
1=
1>
1:
0<
1F
b0 4
b0 7"
b101 -"
b11 s
b0 8
b0 p
b0 5"
b100 ;
b100 r
b10100 6
b10100 ."
b10100 2"
b1 b
1Y
b10000 _
b10001000000011 R
b10001000000011 o
0-
0.
b1100 0
1(
#140000
0(
#145000
b10 b
1%
1$
1a
1^
b100 `
b1101 0
1(
#150000
0(
#155000
b11110 !
b11110 3
b11110 '
b11110 ="
1*
1.
b1110 0
1(
#160000
0(
#165000
1-
b1111 0
1(
#170000
0(
#175000
b0 b
0Y
b100 Z
b100 3"
1\
0%
0$
1-
b10000 0
1(
#180000
0(
#185000
1Q
b11110 P
b11110 d
b11110 O
b11110 c
1D
b110 G
b110 e
b110 )"
0=
0>
0F
0:
b11110 5
b11110 8"
b11110 4
b11110 7"
b1101111 7
b1101111 ,"
b0 !
b0 3
b0 '
b0 ="
b1000 B
b1000 +"
b1100011 s
b0 u
b11 9
b11 q
b11 4"
b100 8
b100 p
b100 5"
b1000 ;
b1000 r
b110 -"
0*
0-
0.
b1 b
1Y
b10100 _
b10000011000010001100011 R
b10000011000010001100011 o
0\
b11000 6
b11000 ."
b11000 2"
b10001 0
1(
#190000
0(
#195000
b0 b
0Y
b11100 V
b11100 0"
1U
b10010 0
1(
#200000
0(
#205000
0Q
b0 P
b0 d
b0 O
b0 c
1@
1:
0D
b10 G
b10 e
b10 )"
b0 5
b0 8"
b0 4
b0 7"
b100000000001010010011 7
b100000000001010010011 ,"
b0 B
b0 +"
b1101111 s
b0 9
b0 q
b0 4"
b0 8
b0 p
b0 5"
b0 ;
b0 r
b111 -"
b1 b
1Y
b11000 _
b1101111 R
b1101111 o
0U
b11100 6
b11100 ."
b11100 2"
b10011 0
1(
#210000
0(
#215000
b0 b
0Y
b11000 X
b11000 1"
1W
b11100 [
b11100 6"
b0 Z
b0 3"
1\
b10100 0
1(
#220000
0(
#225000
0H
b1 I
b1 n
b1 P
b1 d
1F
0@
1:
b1010 4
b1010 7"
b1101111 7
b1101111 ,"
b1 B
b1 +"
b10011 s
b1 8
b1 p
b1 5"
b101 ;
b101 r
b110 -"
b1 b
1Y
b11100 _
b100000000001010010011 R
b100000000001010010011 o
0\
0W
b11000 6
b11000 ."
b11000 2"
b10101 0
1(
#230000
0(
#235000
b0 b
0Y
b1 [
b1 6"
b101 Z
b101 3"
1\
b10110 0
1(
#240000
0(
#245000
1H
b0 I
b0 n
b0 P
b0 d
1@
0F
1:
b0 4
b0 7"
b100000000001010010011 7
b100000000001010010011 ,"
b0 B
b0 +"
b1101111 s
b0 8
b0 p
b0 5"
b0 ;
b0 r
b111 -"
b1 b
1Y
b11000 _
b1101111 R
b1101111 o
0\
b11100 6
b11100 ."
b11100 2"
b10111 0
1(
#250000
0(
#255000
b0 b
0Y
1W
b11100 [
b11100 6"
b0 Z
b0 3"
1\
b11000 0
1(
#260000
0(
#265000
0H
b1 I
b1 n
b1 P
b1 d
1F
0@
1:
b1010 4
b1010 7"
b1101111 7
b1101111 ,"
b1 B
b1 +"
b10011 s
b1 8
b1 p
b1 5"
b101 ;
b101 r
b110 -"
b1 b
1Y
b11100 _
b100000000001010010011 R
b100000000001010010011 o
0\
0W
b11000 6
b11000 ."
b11000 2"
b11001 0
1(
#270000
0(
#275000
b0 b
0Y
b1 [
b1 6"
b101 Z
b101 3"
1\
b11010 0
1(
#280000
0(
#285000
1H
b0 I
b0 n
b0 P
b0 d
1@
0F
1:
b0 4
b0 7"
b100000000001010010011 7
b100000000001010010011 ,"
b0 B
b0 +"
b1101111 s
b0 8
b0 p
b0 5"
b0 ;
b0 r
b111 -"
b1 b
1Y
b11000 _
b1101111 R
b1101111 o
0\
b11100 6
b11100 ."
b11100 2"
b11011 0
1(
#290000
0(
#295000
b0 b
0Y
1W
b11100 [
b11100 6"
b0 Z
b0 3"
1\
b11100 0
1(
#300000
0(
#305000
0H
b1 I
b1 n
b1 P
b1 d
1F
0@
1:
b1010 4
b1010 7"
b1101111 7
b1101111 ,"
b1 B
b1 +"
b10011 s
b1 8
b1 p
b1 5"
b101 ;
b101 r
b110 -"
b1 b
1Y
b11100 _
b100000000001010010011 R
b100000000001010010011 o
0\
0W
b11000 6
b11000 ."
b11000 2"
b11101 0
1(
#310000
0(
#315000
b0 b
0Y
b1 [
b1 6"
b101 Z
b101 3"
1\
b11110 0
1(
#320000
0(
#325000
1H
b0 I
b0 n
b0 P
b0 d
1@
0F
1:
b0 4
b0 7"
b100000000001010010011 7
b100000000001010010011 ,"
b0 B
b0 +"
b1101111 s
b0 8
b0 p
b0 5"
b0 ;
b0 r
b111 -"
b1 b
1Y
b11000 _
b1101111 R
b1101111 o
0\
b11100 6
b11100 ."
b11100 2"
b11111 0
1(
#330000
0(
#335000
b0 b
0Y
1W
b11100 [
b11100 6"
b0 Z
b0 3"
1\
b100000 0
1(
#340000
0(
#345000
0H
b1 I
b1 n
b1 P
b1 d
1F
0@
1:
b1010 4
b1010 7"
b1101111 7
b1101111 ,"
b1 B
b1 +"
b10011 s
b1 8
b1 p
b1 5"
b101 ;
b101 r
b110 -"
b1 b
1Y
b11100 _
b100000000001010010011 R
b100000000001010010011 o
0\
0W
b11000 6
b11000 ."
b11000 2"
b100001 0
1(
#350000
0(
#355000
b0 b
0Y
b1 [
b1 6"
b101 Z
b101 3"
1\
b100010 0
1(
#360000
0(
#365000
1H
b0 I
b0 n
b0 P
b0 d
1@
0F
1:
b0 4
b0 7"
b100000000001010010011 7
b100000000001010010011 ,"
b0 B
b0 +"
b1101111 s
b0 8
b0 p
b0 5"
b0 ;
b0 r
b111 -"
b1 b
1Y
b11000 _
b1101111 R
b1101111 o
0\
b11100 6
b11100 ."
b11100 2"
b100011 0
1(
#370000
0(
#375000
b0 b
0Y
1W
b11100 [
b11100 6"
b0 Z
b0 3"
1\
b100100 0
1(
#380000
0(
#385000
0H
b1 I
b1 n
b1 P
b1 d
1F
0@
1:
b1010 4
b1010 7"
b1101111 7
b1101111 ,"
b1 B
b1 +"
b10011 s
b1 8
b1 p
b1 5"
b101 ;
b101 r
b110 -"
b1 b
1Y
b11100 _
b100000000001010010011 R
b100000000001010010011 o
0\
0W
b11000 6
b11000 ."
b11000 2"
b100101 0
1(
#390000
0(
#395000
b0 b
0Y
b1 [
b1 6"
b101 Z
b101 3"
1\
b100110 0
1(
#400000
0(
#405000
1H
b0 I
b0 n
b0 P
b0 d
1@
0F
1:
b0 4
b0 7"
b100000000001010010011 7
b100000000001010010011 ,"
b0 B
b0 +"
b1101111 s
b0 8
b0 p
b0 5"
b0 ;
b0 r
b111 -"
b1 b
1Y
b11000 _
b1101111 R
b1101111 o
0\
b11100 6
b11100 ."
b11100 2"
b100111 0
1(
#410000
0(
#415000
b0 b
0Y
1W
b11100 [
b11100 6"
b0 Z
b0 3"
1\
b101000 0
1(
#420000
0(
#425000
0H
b1 I
b1 n
b1 P
b1 d
1F
0@
1:
b1010 4
b1010 7"
b1101111 7
b1101111 ,"
b1 B
b1 +"
b10011 s
b1 8
b1 p
b1 5"
b101 ;
b101 r
b110 -"
b1 b
1Y
b11100 _
b100000000001010010011 R
b100000000001010010011 o
0\
0W
b11000 6
b11000 ."
b11000 2"
b101001 0
1(
#430000
0(
#435000
b0 b
0Y
b1 [
b1 6"
b101 Z
b101 3"
1\
b101010 0
1(
#440000
0(
#445000
1H
b0 I
b0 n
b0 P
b0 d
1@
0F
1:
b0 4
b0 7"
b100000000001010010011 7
b100000000001010010011 ,"
b0 B
b0 +"
b1101111 s
b0 8
b0 p
b0 5"
b0 ;
b0 r
b111 -"
b1 b
1Y
b11000 _
b1101111 R
b1101111 o
0\
b11100 6
b11100 ."
b11100 2"
b101011 0
1(
#450000
0(
#455000
b0 b
0Y
1W
b11100 [
b11100 6"
b0 Z
b0 3"
1\
b101100 0
1(
#460000
0(
#465000
0H
b1 I
b1 n
b1 P
b1 d
1F
0@
1:
b1010 4
b1010 7"
b1101111 7
b1101111 ,"
b1 B
b1 +"
b10011 s
b1 8
b1 p
b1 5"
b101 ;
b101 r
b110 -"
b1 b
1Y
b11100 _
b100000000001010010011 R
b100000000001010010011 o
0\
0W
b11000 6
b11000 ."
b11000 2"
b101101 0
1(
#470000
0(
#475000
b0 b
0Y
b1 [
b1 6"
b101 Z
b101 3"
1\
b101110 0
1(
#480000
0(
#485000
1H
b0 I
b0 n
b0 P
b0 d
1@
0F
1:
b0 4
b0 7"
b100000000001010010011 7
b100000000001010010011 ,"
b0 B
b0 +"
b1101111 s
b0 8
b0 p
b0 5"
b0 ;
b0 r
b111 -"
b1 b
1Y
b11000 _
b1101111 R
b1101111 o
0\
b11100 6
b11100 ."
b11100 2"
b101111 0
1(
#490000
0(
#495000
b0 b
0Y
1W
b11100 [
b11100 6"
b0 Z
b0 3"
1\
b110000 0
1(
#500000
0(
#505000
0H
b1 I
b1 n
b1 P
b1 d
1F
0@
1:
b1010 4
b1010 7"
b1101111 7
b1101111 ,"
b1 B
b1 +"
b10011 s
b1 8
b1 p
b1 5"
b101 ;
b101 r
b110 -"
b1 b
1Y
b11100 _
b100000000001010010011 R
b100000000001010010011 o
0\
0W
b11000 6
b11000 ."
b11000 2"
b110001 0
1(
#510000
0(
#515000
b0 b
0Y
b1 [
b1 6"
b101 Z
b101 3"
1\
b110010 0
1(
#520000
0(
#525000
1H
b0 I
b0 n
b0 P
b0 d
1@
0F
1:
b0 4
b0 7"
b100000000001010010011 7
b100000000001010010011 ,"
b0 B
b0 +"
b1101111 s
b0 8
b0 p
b0 5"
b0 ;
b0 r
b111 -"
b1 b
1Y
b11000 _
b1101111 R
b1101111 o
0\
b11100 6
b11100 ."
b11100 2"
b110011 0
1(
#530000
0(
#535000
b0 b
0Y
1W
b11100 [
b11100 6"
b0 Z
b0 3"
1\
b110100 0
1(
#540000
0(
#545000
0H
b1 I
b1 n
b1 P
b1 d
1F
0@
1:
b1010 4
b1010 7"
b1101111 7
b1101111 ,"
b1 B
b1 +"
b10011 s
b1 8
b1 p
b1 5"
b101 ;
b101 r
b110 -"
b1 b
1Y
b11100 _
b100000000001010010011 R
b100000000001010010011 o
0\
0W
b11000 6
b11000 ."
b11000 2"
b110101 0
1(
#550000
0(
#555000
b0 b
0Y
b1 [
b1 6"
b101 Z
b101 3"
1\
b110110 0
1(
#560000
0(
#565000
1H
b0 I
b0 n
b0 P
b0 d
1@
0F
1:
b0 4
b0 7"
b100000000001010010011 7
b100000000001010010011 ,"
b0 B
b0 +"
b1101111 s
b0 8
b0 p
b0 5"
b0 ;
b0 r
b111 -"
b1 b
1Y
b11000 _
b1101111 R
b1101111 o
0\
b11100 6
b11100 ."
b11100 2"
b110111 0
1(
#570000
0(
#575000
b0 b
0Y
1W
b11100 [
b11100 6"
b0 Z
b0 3"
1\
b111000 0
1(
#580000
0(
#585000
0H
b1 I
b1 n
b1 P
b1 d
1F
0@
1:
b1010 4
b1010 7"
b1101111 7
b1101111 ,"
b1 B
b1 +"
b10011 s
b1 8
b1 p
b1 5"
b101 ;
b101 r
b110 -"
b1 b
1Y
b11100 _
b100000000001010010011 R
b100000000001010010011 o
0\
0W
b11000 6
b11000 ."
b11000 2"
b111001 0
1(
#590000
0(
#595000
b0 b
0Y
b1 [
b1 6"
b101 Z
b101 3"
1\
b111010 0
1(
#600000
0(
#605000
1H
b0 I
b0 n
b0 P
b0 d
1@
0F
1:
b0 4
b0 7"
b100000000001010010011 7
b100000000001010010011 ,"
b0 B
b0 +"
b1101111 s
b0 8
b0 p
b0 5"
b0 ;
b0 r
b111 -"
b1 b
1Y
b11000 _
b1101111 R
b1101111 o
0\
b11100 6
b11100 ."
b11100 2"
b111011 0
1(
#610000
0(
#615000
b0 b
0Y
1W
b11100 [
b11100 6"
b0 Z
b0 3"
1\
b111100 0
1(
#620000
0(
#625000
0H
b1 I
b1 n
b1 P
b1 d
1F
0@
1:
b1010 4
b1010 7"
b1101111 7
b1101111 ,"
b1 B
b1 +"
b10011 s
b1 8
b1 p
b1 5"
b101 ;
b101 r
b110 -"
b1 b
1Y
b11100 _
b100000000001010010011 R
b100000000001010010011 o
0\
0W
b11000 6
b11000 ."
b11000 2"
b111101 0
1(
#630000
0(
#635000
b0 b
0Y
b1 [
b1 6"
b101 Z
b101 3"
1\
b111110 0
1(
#640000
0(
#645000
1H
b0 I
b0 n
b0 P
b0 d
1@
0F
1:
b0 4
b0 7"
b100000000001010010011 7
b100000000001010010011 ,"
b0 B
b0 +"
b1101111 s
b0 8
b0 p
b0 5"
b0 ;
b0 r
b111 -"
b1 b
1Y
b11000 _
b1101111 R
b1101111 o
0\
b11100 6
b11100 ."
b11100 2"
b111111 0
1(
#650000
0(
#655000
b0 b
0Y
1W
b11100 [
b11100 6"
b0 Z
b0 3"
1\
b1000000 0
1(
#660000
0(
#665000
0H
b1 I
b1 n
b1 P
b1 d
1F
0@
1:
b1010 4
b1010 7"
b1101111 7
b1101111 ,"
b1 B
b1 +"
b10011 s
b1 8
b1 p
b1 5"
b101 ;
b101 r
b110 -"
b1 b
1Y
b11100 _
b100000000001010010011 R
b100000000001010010011 o
0\
0W
b11000 6
b11000 ."
b11000 2"
b1000001 0
1(
#670000
0(
#675000
b0 b
0Y
b1 [
b1 6"
b101 Z
b101 3"
1\
b1000010 0
1(
#680000
0(
#685000
1H
b0 I
b0 n
b0 P
b0 d
1@
0F
1:
b0 4
b0 7"
b100000000001010010011 7
b100000000001010010011 ,"
b0 B
b0 +"
b1101111 s
b0 8
b0 p
b0 5"
b0 ;
b0 r
b111 -"
b1 b
1Y
b11000 _
b1101111 R
b1101111 o
0\
b11100 6
b11100 ."
b11100 2"
b1000011 0
1(
#690000
0(
#695000
b0 b
0Y
1W
b11100 [
b11100 6"
b0 Z
b0 3"
1\
b1000100 0
1(
#700000
0(
#705000
0H
b1 I
b1 n
b1 P
b1 d
1F
0@
1:
b1010 4
b1010 7"
b1101111 7
b1101111 ,"
b1 B
b1 +"
b10011 s
b1 8
b1 p
b1 5"
b101 ;
b101 r
b110 -"
b1 b
1Y
b11100 _
b100000000001010010011 R
b100000000001010010011 o
0\
0W
b11000 6
b11000 ."
b11000 2"
b1000101 0
1(
#710000
0(
#715000
b0 b
0Y
b1 [
b1 6"
b101 Z
b101 3"
1\
b1000110 0
1(
#720000
0(
#725000
1H
b0 I
b0 n
b0 P
b0 d
1@
0F
1:
b0 4
b0 7"
b100000000001010010011 7
b100000000001010010011 ,"
b0 B
b0 +"
b1101111 s
b0 8
b0 p
b0 5"
b0 ;
b0 r
b111 -"
b1 b
1Y
b11000 _
b1101111 R
b1101111 o
0\
b11100 6
b11100 ."
b11100 2"
b1000111 0
1(
#730000
0(
#735000
b0 b
0Y
1W
b11100 [
b11100 6"
b0 Z
b0 3"
1\
b1001000 0
1(
#740000
0(
#745000
0H
b1 I
b1 n
b1 P
b1 d
1F
0@
1:
b1010 4
b1010 7"
b1101111 7
b1101111 ,"
b1 B
b1 +"
b10011 s
b1 8
b1 p
b1 5"
b101 ;
b101 r
b110 -"
b1 b
1Y
b11100 _
b100000000001010010011 R
b100000000001010010011 o
0\
0W
b11000 6
b11000 ."
b11000 2"
b1001001 0
1(
#750000
0(
#755000
b0 b
0Y
b1 [
b1 6"
b101 Z
b101 3"
1\
b1001010 0
1(
#760000
0(
#765000
1H
b0 I
b0 n
b0 P
b0 d
1@
0F
1:
b0 4
b0 7"
b100000000001010010011 7
b100000000001010010011 ,"
b0 B
b0 +"
b1101111 s
b0 8
b0 p
b0 5"
b0 ;
b0 r
b111 -"
b1 b
1Y
b11000 _
b1101111 R
b1101111 o
0\
b11100 6
b11100 ."
b11100 2"
b1001011 0
1(
#770000
0(
#775000
b0 b
0Y
1W
b11100 [
b11100 6"
b0 Z
b0 3"
1\
b1001100 0
1(
#780000
0(
#785000
0H
b1 I
b1 n
b1 P
b1 d
1F
0@
1:
b1010 4
b1010 7"
b1101111 7
b1101111 ,"
b1 B
b1 +"
b10011 s
b1 8
b1 p
b1 5"
b101 ;
b101 r
b110 -"
b1 b
1Y
b11100 _
b100000000001010010011 R
b100000000001010010011 o
0\
0W
b11000 6
b11000 ."
b11000 2"
b1001101 0
1(
#790000
0(
#795000
b0 b
0Y
b1 [
b1 6"
b101 Z
b101 3"
1\
b1001110 0
1(
#800000
0(
#805000
1H
b0 I
b0 n
b0 P
b0 d
1@
0F
1:
b0 4
b0 7"
b100000000001010010011 7
b100000000001010010011 ,"
b0 B
b0 +"
b1101111 s
b0 8
b0 p
b0 5"
b0 ;
b0 r
b111 -"
b1 b
1Y
b11000 _
b1101111 R
b1101111 o
0\
b11100 6
b11100 ."
b11100 2"
b1001111 0
1(
#810000
0(
#815000
b0 b
0Y
1W
b11100 [
b11100 6"
b0 Z
b0 3"
1\
b1010000 0
1(
#820000
0(
#825000
0H
b1 I
b1 n
b1 P
b1 d
1F
0@
1:
b1010 4
b1010 7"
b1101111 7
b1101111 ,"
b1 B
b1 +"
b10011 s
b1 8
b1 p
b1 5"
b101 ;
b101 r
b110 -"
b1 b
1Y
b11100 _
b100000000001010010011 R
b100000000001010010011 o
0\
0W
b11000 6
b11000 ."
b11000 2"
b1010001 0
1(
#830000
0(
#835000
b0 b
0Y
b1 [
b1 6"
b101 Z
b101 3"
1\
b1010010 0
1(
#840000
0(
#845000
1H
b0 I
b0 n
b0 P
b0 d
1@
0F
1:
b0 4
b0 7"
b100000000001010010011 7
b100000000001010010011 ,"
b0 B
b0 +"
b1101111 s
b0 8
b0 p
b0 5"
b0 ;
b0 r
b111 -"
b1 b
1Y
b11000 _
b1101111 R
b1101111 o
0\
b11100 6
b11100 ."
b11100 2"
b1010011 0
1(
#850000
0(
#855000
b0 b
0Y
1W
b11100 [
b11100 6"
b0 Z
b0 3"
1\
b1010100 0
1(
#860000
0(
#865000
0H
b1 I
b1 n
b1 P
b1 d
1F
0@
1:
b1010 4
b1010 7"
b1101111 7
b1101111 ,"
b1 B
b1 +"
b10011 s
b1 8
b1 p
b1 5"
b101 ;
b101 r
b110 -"
b1 b
1Y
b11100 _
b100000000001010010011 R
b100000000001010010011 o
0\
0W
b11000 6
b11000 ."
b11000 2"
b1010101 0
1(
#870000
0(
#875000
b0 b
0Y
b1 [
b1 6"
b101 Z
b101 3"
1\
b1010110 0
1(
#880000
0(
#885000
1H
b0 I
b0 n
b0 P
b0 d
1@
0F
1:
b0 4
b0 7"
b100000000001010010011 7
b100000000001010010011 ,"
b0 B
b0 +"
b1101111 s
b0 8
b0 p
b0 5"
b0 ;
b0 r
b111 -"
b1 b
1Y
b11000 _
b1101111 R
b1101111 o
0\
b11100 6
b11100 ."
b11100 2"
b1010111 0
1(
#890000
0(
#895000
b0 b
0Y
1W
b11100 [
b11100 6"
b0 Z
b0 3"
1\
b1011000 0
1(
#900000
0(
#905000
0H
b1 I
b1 n
b1 P
b1 d
1F
0@
1:
b1010 4
b1010 7"
b1101111 7
b1101111 ,"
b1 B
b1 +"
b10011 s
b1 8
b1 p
b1 5"
b101 ;
b101 r
b110 -"
b1 b
1Y
b11100 _
b100000000001010010011 R
b100000000001010010011 o
0\
0W
b11000 6
b11000 ."
b11000 2"
b1011001 0
1(
#910000
0(
#915000
b0 b
0Y
b1 [
b1 6"
b101 Z
b101 3"
1\
b1011010 0
1(
#920000
0(
#925000
1H
b0 I
b0 n
b0 P
b0 d
1@
0F
1:
b0 4
b0 7"
b100000000001010010011 7
b100000000001010010011 ,"
b0 B
b0 +"
b1101111 s
b0 8
b0 p
b0 5"
b0 ;
b0 r
b111 -"
b1 b
1Y
b11000 _
b1101111 R
b1101111 o
0\
b11100 6
b11100 ."
b11100 2"
b1011011 0
1(
#930000
0(
#935000
b0 b
0Y
1W
b11100 [
b11100 6"
b0 Z
b0 3"
1\
b1011100 0
1(
#940000
0(
