tb/core_tb.vcd
$date
	Sat Jun 20 11:47:14 2026
$end
$version
	Icarus Verilog
$end
$timescale
	1ps
$end
$scope module core_tb $end
$var wire 32 ! mem_rdata [31:0] $end
$var wire 1 " mem_we $end
$var wire 32 # mem_wdata [31:0] $end
$var wire 1 $ mem_req $end
$var wire 1 % mem_re $end
$var wire 32 & mem_addr [31:0] $end
$var wire 32 ' dm_rdata [31:0] $end
$var reg 1 ( clk $end
$var reg 32 ) dm_addr [31:0] $end
$var reg 1 * dm_re $end
$var reg 32 + dm_wdata [31:0] $end
$var reg 1 , dm_we $end
$var reg 1 - mem_ready $end
$var reg 1 . reset $end
$var integer 32 / cycle_count [31:0] $end
$var integer 32 0 test_fail [31:0] $end
$var integer 32 1 test_pass [31:0] $end
$scope module u_core $end
$var wire 1 ( clk $end
$var wire 1 2 mem_can_forward $end
$var wire 32 3 mem_rdata [31:0] $end
$var wire 1 - mem_ready $end
$var wire 1 4 mem_sc_result $end
$var wire 1 5 mem_uses_bus $end
$var wire 1 6 mem_wait $end
$var wire 1 . reset $end
$var wire 1 7 wb_can_forward $end
$var wire 32 8 wb_write_data [31:0] $end
$var wire 1 9 wb_valid $end
$var wire 1 : wb_reg_write $end
$var wire 5 ; wb_rd_addr [4:0] $end
$var wire 32 < rs2_data [31:0] $end
$var wire 32 = rs1_data [31:0] $end
$var wire 32 > redirect_target [31:0] $end
$var wire 1 ? redirect_taken $end
$var wire 4 @ pipe_mem_amo_op [3:0] $end
$var wire 1 A mem_wb_clear $end
$var wire 1 B mem_valid $end
$var wire 32 C mem_store_data [31:0] $end
$var wire 32 D mem_result [31:0] $end
$var wire 1 E mem_reg_write $end
$var wire 5 F mem_rd_addr [4:0] $end
$var wire 1 G mem_mem_write $end
$var wire 1 H mem_mem_to_reg $end
$var wire 1 I mem_mem_sc $end
$var wire 1 J mem_mem_read $end
$var wire 1 K mem_mem_lr $end
$var wire 1 L mem_mem_amo $end
$var wire 1 M load_use_stall $end
$var wire 32 N instr_from_mem [31:0] $end
$var wire 1 O if_id_valid $end
$var wire 32 P if_id_pc [31:0] $end
$var wire 32 Q if_id_instr [31:0] $end
$var wire 1 R if_id_hold $end
$var wire 1 S if_id_clear $end
$var wire 1 T id_ex_hold $end
$var wire 1 U id_ex_clear $end
$var wire 2 V forward_b [1:0] $end
$var wire 2 W forward_a [1:0] $end
$var wire 1 X ex_valid $end
$var wire 32 Y ex_stage_result [31:0] $end
$var wire 32 Z ex_rs2_data [31:0] $end
$var wire 5 [ ex_rs2_addr [4:0] $end
$var wire 32 \ ex_rs1_data [31:0] $end
$var wire 5 ] ex_rs1_addr [4:0] $end
$var wire 1 ^ ex_reg_write $end
$var wire 5 _ ex_rd_addr [4:0] $end
$var wire 32 ` ex_pc [31:0] $end
$var wire 1 a ex_mem_write $end
$var wire 1 b ex_mem_to_reg $end
$var wire 1 c ex_mem_sc $end
$var wire 1 d ex_mem_read $end
$var wire 1 e ex_mem_lr $end
$var wire 1 f ex_mem_hold $end
$var wire 1 g ex_mem_amo $end
$var wire 1 h ex_lui $end
$var wire 1 i ex_jump $end
$var wire 1 j ex_jalr $end
$var wire 32 k ex_imm [31:0] $end
$var wire 3 l ex_branch_type [2:0] $end
$var wire 1 m ex_branch $end
$var wire 1 n ex_auipc $end
$var wire 4 o ex_amo_op [3:0] $end
$var wire 1 p ex_alu_src $end
$var wire 4 q ex_alu_control [3:0] $end
$var wire 5 r cu_rs2_addr [4:0] $end
$var wire 5 s cu_rs1_addr [4:0] $end
$var wire 1 t cu_reg_write $end
$var wire 5 u cu_rd_addr [4:0] $end
$var wire 1 v cu_mem_write $end
$var wire 1 w cu_mem_to_reg $end
$var wire 1 x cu_mem_sc $end
$var wire 1 y cu_mem_read $end
$var wire 1 z cu_mem_lr $end
$var wire 1 { cu_mem_amo $end
$var wire 1 | cu_lui $end
$var wire 1 } cu_jump $end
$var wire 1 ~ cu_jalr $end
$var wire 32 !" cu_imm [31:0] $end
$var wire 3 "" cu_branch_type [2:0] $end
$var wire 1 #" cu_branch $end
$var wire 1 $" cu_auipc $end
$var wire 4 %" cu_amo_op [3:0] $end
$var wire 1 &" cu_alu_src $end
$var wire 4 '" cu_alu_control [3:0] $end
$var wire 1 (" alu_zero $end
$var wire 32 )" alu_result [31:0] $end
$var parameter 32 *" CORE_ID $end
$var parameter 88 +" INIT_FILE $end
$var parameter 32 ," PROGRAM_WORDS $end
$var reg 32 -" alu_input_a [31:0] $end
$var reg 32 ." alu_input_b [31:0] $end
$var reg 32 /" flush_count [31:0] $end
$var reg 32 0" fwd_rs1_data [31:0] $end
$var reg 32 1" fwd_rs2_data [31:0] $end
$var reg 32 2" load_use_stall_count [31:0] $end
$var reg 32 3" mem_addr [31:0] $end
$var reg 1 4" mem_amo $end
$var reg 4 5" mem_amo_op [3:0] $end
$var reg 1 6" mem_lr $end
$var reg 1 % mem_re $end
$var reg 1 $ mem_req $end
$var reg 1 7" mem_sc $end
$var reg 32 8" mem_stall_count [31:0] $end
$var reg 32 9" mem_wb_in_write_data [31:0] $end
$var reg 32 :" mem_wdata [31:0] $end
$var reg 1 " mem_we $end
$var reg 32 ;" pc [31:0] $end
$var reg 32 <" pipeline_cycle_count [31:0] $end
$var reg 32 =" retired_count [31:0] $end
$scope module u_alu $end
$var wire 32 >" a [31:0] $end
$var wire 32 ?" b [31:0] $end
$var wire 1 (" zero $end
$var wire 4 @" alu_control [3:0] $end
$var parameter 4 A" ADD $end
$var parameter 4 B" AND $end
$var parameter 4 C" OR $end
$var parameter 4 D" SLL $end
$var parameter 4 E" SLT $end
$var parameter 4 F" SRL $end
$var parameter 4 G" SUB $end
$var parameter 4 H" XOR $end
$var reg 32 I" result [31:0] $end
$upscope $end
$scope module u_branch_check $end
$var wire 32 J" alu_result [31:0] $end
$var wire 32 K" rs1 [31:0] $end
$var wire 32 L" rs2 [31:0] $end
$var wire 1 X ex_valid $end
$var wire 32 M" ex_pc [31:0] $end
$var wire 1 h ex_lui $end
$var wire 1 i ex_jump $end
$var wire 1 j ex_jalr $end
$var wire 32 N" ex_imm [31:0] $end
$var wire 1 m ex_branch $end
$var wire 1 n ex_auipc $end
$var wire 3 O" branch_type [2:0] $end
$var reg 1 P" condition_met $end
$var reg 32 Q" ex_stage_result [31:0] $end
$var reg 1 ? redirect_taken $end
$var reg 32 R" redirect_target [31:0] $end
$upscope $end
$scope module u_cu $end
$var wire 5 S" rs2_addr [4:0] $end
$var wire 5 T" rs1_addr [4:0] $end
$var wire 5 U" rd_addr [4:0] $end
$var wire 7 V" opcode [6:0] $end
$var wire 32 W" instruction [31:0] $end
$var wire 7 X" funct7 [6:0] $end
$var wire 5 Y" funct5 [4:0] $end
$var wire 3 Z" funct3 [2:0] $end
$var parameter 4 [" ALU_ADD $end
$var parameter 4 \" ALU_AND $end
$var parameter 4 ]" ALU_OR $end
$var parameter 4 ^" ALU_SLL $end
$var parameter 4 _" ALU_SLT $end
$var parameter 4 `" ALU_SRL $end
$var parameter 4 a" ALU_SUB $end
$var parameter 4 b" ALU_XOR $end
$var parameter 7 c" OP_AMO $end
$var parameter 7 d" OP_AUIPC $end
$var parameter 7 e" OP_BRANCH $end
$var parameter 7 f" OP_I_TYPE $end
$var parameter 7 g" OP_JAL $end
$var parameter 7 h" OP_JALR $end
$var parameter 7 i" OP_LOAD $end
$var parameter 7 j" OP_LUI $end
$var parameter 7 k" OP_R_TYPE $end
$var parameter 7 l" OP_STORE $end
$var reg 4 m" alu_control [3:0] $end
$var reg 1 &" alu_src $end
$var reg 4 n" amo_op [3:0] $end
$var reg 1 $" auipc $end
$var reg 1 #" branch $end
$var reg 3 o" branch_type [2:0] $end
$var reg 32 p" imm [31:0] $end
$var reg 1 ~ jalr $end
$var reg 1 } jump $end
$var reg 1 | lui $end
$var reg 1 { mem_amo $end
$var reg 1 z mem_lr $end
$var reg 1 y mem_read $end
$var reg 1 x mem_sc $end
$var reg 1 w mem_to_reg $end
$var reg 1 v mem_write $end
$var reg 1 t reg_write $end
$upscope $end
$scope module u_hazard_center $end
$var wire 5 q" cu_rs1_addr [4:0] $end
$var wire 5 r" cu_rs2_addr [4:0] $end
$var wire 1 s" ex_load_like $end
$var wire 1 f ex_mem_hold $end
$var wire 1 U id_ex_clear $end
$var wire 1 T id_ex_hold $end
$var wire 1 S if_id_clear $end
$var wire 1 R if_id_hold $end
$var wire 1 M load_use_stall $end
$var wire 1 2 mem_can_forward $end
$var wire 1 6 mem_wait $end
$var wire 1 A mem_wb_hold $end
$var wire 1 ? redirect_taken $end
$var wire 1 7 wb_can_forward $end
$var wire 5 t" wb_rd_addr [4:0] $end
$var wire 5 u" mem_rd_addr [4:0] $end
$var wire 1 O id_valid $end
$var wire 1 X ex_valid $end
$var wire 5 v" ex_rs2_addr [4:0] $end
$var wire 5 w" ex_rs1_addr [4:0] $end
$var wire 1 ^ ex_reg_write $end
$var wire 5 x" ex_rd_addr [4:0] $end
$var reg 2 y" forward_a [1:0] $end
$var reg 2 z" forward_b [1:0] $end
$upscope $end
$scope module u_instr_mem $end
$var wire 32 {" addr [31:0] $end
$var wire 32 |" instruction [31:0] $end
$var wire 8 }" word_addr [7:0] $end
$var parameter 88 ~" INIT_FILE $end
$var parameter 32 !# PROGRAM_WORDS $end
$var integer 32 "# i [31:0] $end
$upscope $end
$scope module u_pipe_ex_mem $end
$var wire 1 ( clk $end
$var wire 32 ## ex_result [31:0] $end
$var wire 32 $# ex_store_data [31:0] $end
$var wire 1 f hold $end
$var wire 1 . reset $end
$var wire 1 X ex_valid $end
$var wire 1 ^ ex_reg_write $end
$var wire 5 %# ex_rd_addr [4:0] $end
$var wire 1 a ex_mem_write $end
$var wire 1 b ex_mem_to_reg $end
$var wire 1 c ex_mem_sc $end
$var wire 1 d ex_mem_read $end
$var wire 1 e ex_mem_lr $end
$var wire 1 g ex_mem_amo $end
$var wire 4 &# ex_amo_op [3:0] $end
$var reg 4 '# mem_amo_op [3:0] $end
$var reg 1 L mem_mem_amo $end
$var reg 1 K mem_mem_lr $end
$var reg 1 J mem_mem_read $end
$var reg 1 I mem_mem_sc $end
$var reg 1 H mem_mem_to_reg $end
$var reg 1 G mem_mem_write $end
$var reg 5 (# mem_rd_addr [4:0] $end
$var reg 1 E mem_reg_write $end
$var reg 32 )# mem_result [31:0] $end
$var reg 32 *# mem_store_data [31:0] $end
$var reg 1 B mem_valid $end
$upscope $end
$scope module u_pipe_id_ex $end
$var wire 1 U clear $end
$var wire 1 ( clk $end
$var wire 1 T hold $end
$var wire 4 +# id_alu_control [3:0] $end
$var wire 1 &" id_alu_src $end
$var wire 4 ,# id_amo_op [3:0] $end
$var wire 1 $" id_auipc $end
$var wire 1 #" id_branch $end
$var wire 3 -# id_branch_type [2:0] $end
$var wire 32 .# id_imm [31:0] $end
$var wire 1 ~ id_jalr $end
$var wire 1 } id_jump $end
$var wire 1 | id_lui $end
$var wire 1 { id_mem_amo $end
$var wire 1 z id_mem_lr $end
$var wire 1 y id_mem_read $end
$var wire 1 x id_mem_sc $end
$var wire 1 w id_mem_to_reg $end
$var wire 1 v id_mem_write $end
$var wire 5 /# id_rd_addr [4:0] $end
$var wire 1 t id_reg_write $end
$var wire 5 0# id_rs1_addr [4:0] $end
$var wire 5 1# id_rs2_addr [4:0] $end
$var wire 1 . reset $end
$var wire 1 O id_valid $end
$var wire 32 2# id_rs2_data [31:0] $end
$var wire 32 3# id_rs1_data [31:0] $end
$var wire 32 4# id_pc [31:0] $end
$var reg 4 5# ex_alu_control [3:0] $end
$var reg 1 p ex_alu_src $end
$var reg 4 6# ex_amo_op [3:0] $end
$var reg 1 n ex_auipc $end
$var reg 1 m ex_branch $end
$var reg 3 7# ex_branch_type [2:0] $end
$var reg 32 8# ex_imm [31:0] $end
$var reg 1 j ex_jalr $end
$var reg 1 i ex_jump $end
$var reg 1 h ex_lui $end
$var reg 1 g ex_mem_amo $end
$var reg 1 e ex_mem_lr $end
$var reg 1 d ex_mem_read $end
$var reg 1 c ex_mem_sc $end
$var reg 1 b ex_mem_to_reg $end
$var reg 1 a ex_mem_write $end
$var reg 32 9# ex_pc [31:0] $end
$var reg 5 :# ex_rd_addr [4:0] $end
$var reg 1 ^ ex_reg_write $end
$var reg 5 ;# ex_rs1_addr [4:0] $end
$var reg 32 <# ex_rs1_data [31:0] $end
$var reg 5 =# ex_rs2_addr [4:0] $end
$var reg 32 ># ex_rs2_data [31:0] $end
$var reg 1 X ex_valid $end
$upscope $end
$scope module u_pipe_if_id $end
$var wire 1 S clear $end
$var wire 1 ( clk $end
$var wire 1 R hold $end
$var wire 32 ?# if_instr [31:0] $end
$var wire 32 @# if_pc [31:0] $end
$var wire 1 . reset $end
$var reg 32 A# id_instr [31:0] $end
$var reg 32 B# id_pc [31:0] $end
$var reg 1 O id_valid $end
$upscope $end
$scope module u_pipe_mem_wb $end
$var wire 1 C# clear $end
$var wire 1 ( clk $end
$var wire 1 A hold $end
$var wire 5 D# mem_wb_in_rd_addr [4:0] $end
$var wire 1 E# mem_wb_in_reg_write $end
$var wire 1 F# mem_wb_in_valid $end
$var wire 32 G# mem_wb_in_write_data [31:0] $end
$var wire 1 . reset $end
$var reg 5 H# wb_rd_addr [4:0] $end
$var reg 1 : wb_reg_write $end
$var reg 1 9 wb_valid $end
$var reg 32 I# wb_write_data [31:0] $end
$upscope $end
$scope module u_rf $end
$var wire 1 ( clk $end
$var wire 5 J# rd_addr [4:0] $end
$var wire 1 K# reg_write $end
$var wire 1 . reset $end
$var wire 5 L# rs1_addr [4:0] $end
$var wire 5 M# rs2_addr [4:0] $end
$var wire 32 N# write_data [31:0] $end
$var wire 32 O# rs2_data [31:0] $end
$var wire 32 P# rs1_data [31:0] $end
$var integer 32 Q# i [31:0] $end
$upscope $end
$upscope $end
$scope module u_dmem $end
$var wire 32 R# addr [31:0] $end
$var wire 1 ( clk $end
$var wire 1 * re $end
$var wire 1 . reset $end
$var wire 32 S# wdata [31:0] $end
$var wire 1 , we $end
$var wire 10 T# word_addr [9:0] $end
$var reg 32 U# rdata [31:0] $end
$var integer 32 V# i [31:0] $end
$upscope $end
$upscope $end
$enddefinitions $end
$comment Show the parameter values. $end
$dumpall
b1001 !#
b111000001110010011011110110011101110010011000010110110100101110011010000110010101111000 ~"
b100011 l"
b110011 k"
b110111 j"
b11 i"
b1100111 h"
b1101111 g"
b10011 f"
b1100011 e"
b10111 d"
b101111 c"
b100 b"
b110 a"
b101 `"
b111 _"
b11 ^"
b1 ]"
b0 \"
b10 ["
b100 H"
b110 G"
b101 F"
b111 E"
b11 D"
b1 C"
b0 B"
b10 A"
b1001 ,"
b111000001110010011011110110011101110010011000010110110100101110011010000110010101111000 +"
b0 *"
$end
#0
$dumpvars
b10000000000 V#
b0 U#
b0 T#
b0 S#
b0 R#
b100000 Q#
b0 P#
b0 O#
b0 N#
b0 M#
b0 L#
0K#
b0 J#
b0 I#
b0 H#
b0 G#
0F#
0E#
b0 D#
0C#
b0 B#
b0 A#
b0 @#
b101000000000000010010011 ?#
b0 >#
b0 =#
b0 <#
b0 ;#
b0 :#
b0 9#
b0 8#
b0 7#
b0 6#
b0 5#
b0 4#
b0 3#
b0 2#
b0 1#
b0 0#
b0 /#
b0 .#
b0 -#
b0 ,#
b10 +#
b0 *#
b0 )#
b0 (#
b0 '#
b0 &#
b0 %#
b0 $#
b0 ##
b100000000 "#
b0 }"
b101000000000000010010011 |"
b0 {"
b0 z"
b0 y"
b0 x"
b0 w"
b0 v"
b0 u"
b0 t"
0s"
b0 r"
b0 q"
b0 p"
b0 o"
b0 n"
b10 m"
b0 Z"
b0 Y"
b0 X"
b0 W"
b0 V"
b0 U"
b0 T"
b0 S"
b0 R"
b0 Q"
1P"
b0 O"
b0 N"
b0 M"
b0 L"
b0 K"
b0 J"
b0 I"
b0 @"
b0 ?"
b0 >"
b0 ="
b0 <"
b0 ;"
b0 :"
b0 9"
b0 8"
07"
06"
b0 5"
04"
b0 3"
b0 2"
b0 1"
b0 0"
b0 /"
b0 ."
b0 -"
b0 )"
1("
b10 '"
0&"
b0 %"
0$"
0#"
b0 ""
b0 !"
0~
0}
0|
0{
0z
0y
0x
0w
0v
b0 u
0t
b0 s
b0 r
b0 q
0p
b0 o
0n
0m
b0 l
b0 k
0j
0i
0h
0g
0f
0e
0d
0c
0b
0a
b0 `
b0 _
0^
b0 ]
b0 \
b0 [
b0 Z
b0 Y
0X
b0 W
b0 V
0U
0T
0S
0R
b0 Q
b0 P
0O
b101000000000000010010011 N
0M
0L
0K
0J
0I
0H
0G
b0 F
0E
b0 D
b0 C
0B
0A
b0 @
0?
b0 >
b0 =
b0 <
b0 ;
0:
09
b0 8
07
06
05
z4
b0 3
02
b0 1
b0 0
b0 /
1.
0-
0,
b0 +
0*
b0 )
0(
b0 '
b0 &
0%
0$
b0 #
0"
b0 !
$end
#5000
b10000000000 V#
b100000 Q#
1(
#10000
0(
#15000
b100000 Q#
b10000000000 V#
1(
#20000
0(
#25000
b1010000000000000100010011 N
b1010000000000000100010011 |"
b1010000000000000100010011 ?#
1&"
1t
b1010 !"
b1010 p"
b1010 .#
b1 }"
b1 u
b1 U"
b1 /#
b1010 r
b1010 S"
b1010 r"
b1010 1#
b1010 M#
b10011 V"
b100 ;"
b100 {"
b100 @#
b1 <"
b10 q
b10 @"
b10 5#
b101000000000000010010011 Q
b101000000000000010010011 W"
b101000000000000010010011 A#
1O
b1 /
1(
0.
#30000
0(
#35000
b1010 Y
b1010 Q"
b1010 ##
0("
b1010 )"
b1010 I"
b1010 J"
b1000001000000110110011 N
b1000001000000110110011 |"
b1000001000000110110011 ?#
b10 u
b10 U"
b10 /#
b10100 r
b10100 S"
b10100 r"
b10100 1#
b10100 M#
b10100 !"
b10100 p"
b10100 .#
b1010 ."
b1010 ?"
1P"
b10 }"
b1010000000000000100010011 Q
b1010000000000000100010011 W"
b1010000000000000100010011 A#
b100 P
b100 4#
b100 B#
1p
1^
b1 _
b1 x"
b1 %#
b1 :#
b1010 [
b1010 v"
b1010 =#
b1010 k
b1010 N"
b1010 8#
1X
b1000 ;"
b1000 {"
b1000 @#
b10 <"
b10 /
1(
#40000
0(
#45000
b10 T#
b10100 Y
b10100 Q"
b10100 ##
b1100000010000000100011 N
b1100000010000000100011 |"
b1100000010000000100011 ?#
12
b1010 )
b1010 R#
b10100 )"
b10100 I"
b10100 J"
0&"
1t
b11 }"
b1010 9"
b1010 G#
b1010 &
b1010 3"
1E#
1F#
b10100 ."
b10100 ?"
1P"
b11 u
b11 U"
b11 /#
b10 r
b10 S"
b10 r"
b10 1#
b10 M#
b1 s
b1 T"
b1 q"
b1 0#
b1 L#
b110011 V"
b0 !"
b0 p"
b0 .#
b1100 ;"
b1100 {"
b1100 @#
b11 <"
b1 F
b1 u"
b1 (#
b1 D#
b1010 D
b1010 )#
1E
1B
b10 _
b10 x"
b10 %#
b10 :#
b10100 [
b10100 v"
b10100 =#
b10100 k
b10100 N"
b10100 8#
b100 `
b100 M"
b100 9#
b1000001000000110110011 Q
b1000001000000110110011 W"
b1000001000000110110011 A#
b1000 P
b1000 4#
b1000 B#
b11 /
1(
#50000
0(
#55000
b11110 Y
b11110 Q"
b11110 ##
b11110 )"
b11110 I"
b11110 J"
b101 T#
b1010 -"
b1010 >"
b1010 0"
b1010 K"
1v
1&"
0t
b10100 )
b10100 R#
b1 W
b1 y"
b10001000000011 N
b10001000000011 |"
b10001000000011 ?#
b0 u
b0 U"
b0 /#
b11 r
b11 S"
b11 r"
b11 1#
b11 M#
b0 s
b0 T"
b0 q"
b0 0#
b0 L#
b10 Z"
b100011 V"
0P"
b10100 9"
b10100 G#
b10100 &
b10100 3"
b10100 1"
b10100 L"
b10100 $#
17
b10 V
b10 z"
1K#
b100 }"
b1100000010000000100011 Q
b1100000010000000100011 W"
b1100000010000000100011 A#
b1100 P
b1100 4#
b1100 B#
0p
b11 _
b11 x"
b11 %#
b11 :#
b10 [
b10 v"
b10 =#
b1 ]
b1 w"
b1 ;#
b0 k
b0 N"
b0 8#
b1000 `
b1000 M"
b1000 9#
b10 F
b10 u"
b10 (#
b10 D#
b10100 D
b10100 )#
b1010 8
b1010 I#
b1010 N#
b1 ;
b1 t"
b1 H#
b1 J#
1:
19
b10000 ;"
b10000 {"
b10000 @#
b100 <"
b100 /
1(
#60000
0(
#65000
b111 T#
b0 Y
b0 Q"
b0 ##
b10000011000010001100011 N
b10000011000010001100011 |"
b10000011000010001100011 ?#
b10100 +
b10100 S#
b11110 )
b11110 R#
1("
b0 )"
b0 I"
b0 J"
1w
1y
1t
0v
1&"
b101 }"
b11110 9"
b11110 G#
b10100 #
b10100 :"
b11110 &
b11110 3"
b0 ."
b0 ?"
b0 -"
b0 >"
b11110 1"
b11110 L"
b11110 $#
b0 0"
b0 K"
b10 V
b10 z"
b0 W
b0 y"
b100 u
b100 U"
b100 /#
b0 r
b0 S"
b0 r"
b0 1#
b0 M#
b11 V"
b0 !"
b0 p"
b0 .#
b10100 ;"
b10100 {"
b10100 @#
b1 ="
b101 <"
b10100 8
b10100 I#
b10100 N#
b10 ;
b10 t"
b10 H#
b10 J#
b11 F
b11 u"
b11 (#
b11 D#
b10100 C
b10100 *#
b11110 D
b11110 )#
1a
1p
0^
b0 _
b0 x"
b0 %#
b0 :#
b11 [
b11 v"
b11 =#
b0 ]
b0 w"
b0 ;#
b1100 `
b1100 M"
b1100 9#
b10001000000011 Q
b10001000000011 W"
b10001000000011 A#
b10000 P
b10000 4#
b10000 B#
b101 /
1(
#70000
0(
#75000
1M
0F#
1R
1T
1f
1A
16
1$
15
b11110 =
b11110 3#
b11110 P#
1s"
b0 T#
1#"
b110 '"
b110 m"
b110 +#
0w
0y
0&"
0t
02
b11110 +
b11110 S#
1,
b0 )
b0 R#
b1101111 N
b1101111 |"
b1101111 ?#
b1000 u
b1000 U"
b1000 /#
b100 r
b100 S"
b100 r"
b100 1#
b100 M#
b11 s
b11 T"
b11 q"
b11 0#
b11 L#
b0 Z"
b1100011 V"
b1000 !"
b1000 p"
b1000 .#
1P"
b0 9"
b0 G#
1"
b11110 #
b11110 :"
b0 &
b0 3"
0E#
b0 1"
b0 L"
b0 $#
b0 V
b0 z"
b110 }"
b10000011000010001100011 Q
b10000011000010001100011 W"
b10000011000010001100011 A#
b10100 P
b10100 4#
b10100 B#
1b
0a
1d
1^
b100 _
b100 x"
b100 %#
b100 :#
b0 [
b0 v"
b0 =#
b10000 `
b10000 M"
b10000 9#
b0 F
b0 u"
b0 (#
b0 D#
b11110 C
b11110 *#
b0 D
b0 )#
1G
0E
b11110 8
b11110 I#
b11110 N#
b11 ;
b11 t"
b11 H#
b11 J#
b11000 ;"
b11000 {"
b11000 @#
b10 ="
b110 <"
b110 /
1(
#80000
0(
#85000
1F#
1U
0T
0f
0A
06
1-
b1 8"
b11 ="
b111 <"
b111 /
1(
#90000
0(
#95000
b11110 9"
b11110 G#
b11110 !
b11110 3
b11110 '
b11110 U#
0M
0s"
02
b0 +
b0 S#
0,
1*
0F#
0U
1P"
1%
0"
b0 #
b0 :"
07
0K#
1T
1f
1A
16
0b
0d
0p
0^
b0 q
b0 @"
b0 5#
b0 _
b0 x"
b0 %#
b0 :#
b0 `
b0 M"
b0 9#
0X
b100 F
b100 u"
b100 (#
b100 D#
b0 C
b0 *#
1H
0G
1J
1E
b0 8
b0 I#
b0 N#
b0 ;
b0 t"
b0 H#
b0 J#
0:
b1 2"
b100 ="
b1000 <"
0-
b1000 /
1(
#100000
0(
#105000
1F#
1E#
0R
0T
0f
0A
06
1-
b10 8"
b101 ="
b1001 <"
b1001 /
1(
#110000
0(
#115000
1U
1S
b11100 >
b11100 R"
1?
b0 !
b0 3
b0 '
b0 U#
b11110 ."
b11110 ?"
b11110 1"
b11110 L"
b11110 $#
b0 =
b0 3#
b0 P#
1}
1t
0#"
b10 '"
b10 m"
b10 +#
b0 Y
b0 Q"
b0 ##
0*
b1 V
b1 z"
b100000000001010010011 N
b100000000001010010011 |"
b100000000001010010011 ?#
0R
b0 u
b0 U"
b0 /#
b0 r
b0 S"
b0 r"
b0 1#
b0 M#
b0 s
b0 T"
b0 q"
b0 0#
b0 L#
b1101111 V"
b0 !"
b0 p"
b0 .#
1("
b0 )"
b0 I"
b0 J"
1P"
b0 9"
b0 G#
0%
0$
0E#
0F#
05
b11110 -"
b11110 >"
b11110 0"
b11110 K"
17
1K#
b111 }"
0T
0f
0A
06
b1101111 Q
b1101111 W"
b1101111 A#
b11000 P
b11000 4#
b11000 B#
1m
b110 q
b110 @"
b110 5#
b1000 _
b1000 x"
b1000 %#
b1000 :#
b100 [
b100 v"
b100 =#
b11 ]
b11 w"
b11 ;#
b1000 k
b1000 N"
b1000 8#
b11110 \
b11110 <#
b10100 `
b10100 M"
b10100 9#
1X
b0 F
b0 u"
b0 (#
b0 D#
0H
0J
0E
0B
b11110 8
b11110 I#
b11110 N#
b100 ;
b100 t"
b100 H#
b100 J#
1:
b11100 ;"
b11100 {"
b11100 @#
b110 ="
b1010 <"
0-
b1010 /
1(
#120000
0(
#125000
0U
b11110 +
b11110 S#
0S
0}
0t
07
0K#
b11110 #
b11110 :"
1F#
b0 V
b0 z"
b0 ."
b0 ?"
b0 -"
b0 >"
b0 1"
b0 L"
b0 $#
b0 0"
b0 K"
b0 >
b0 R"
0?
1P"
b0 V"
b1 /"
b111 ="
b1011 <"
b0 8
b0 I#
b0 N#
b0 ;
b0 t"
b0 H#
b0 J#
0:
09
b1000 F
b1000 u"
b1000 (#
b1000 D#
b11110 C
b11110 *#
1B
0m
b0 q
b0 @"
b0 5#
b0 _
b0 x"
b0 %#
b0 :#
b0 [
b0 v"
b0 =#
b0 ]
b0 w"
b0 ;#
b0 k
b0 N"
b0 8#
b0 \
b0 <#
b0 `
b0 M"
b0 9#
0X
b0 Q
b0 W"
b0 A#
b0 P
b0 4#
b0 B#
0O
b1011 /
1(
#130000
0(
#135000
b1010 <
b1010 2#
b1010 O#
1&"
1t
b1 !"
b1 p"
b1 .#
b0 +
b0 S#
b1101111 N
b1101111 |"
b1101111 ?#
b101 u
b101 U"
b101 /#
b1 r
b1 S"
b1 r"
b1 1#
b1 M#
b10011 V"
b0 #
b0 :"
0F#
b1000 }"
b100000000001010010011 Q
b100000000001010010011 W"
b100000000001010010011 A#
b11100 P
b11100 4#
b11100 B#
1O
b10 q
b10 @"
b10 5#
b0 F
b0 u"
b0 (#
b0 D#
b0 C
b0 *#
0B
b1000 ;
b1000 t"
b1000 H#
b1000 J#
19
b100000 ;"
b100000 {"
b100000 @#
b1100 <"
b1100 /
1(
#140000
0(
#145000
b1 Y
b1 Q"
b1 ##
b10011 N
b10011 |"
b10011 ?#
0("
b1 )"
b1 I"
b1 J"
b0 <
b0 2#
b0 O#
1}
0&"
1t
b1001 }"
b1 ."
b1 ?"
b1010 1"
b1010 L"
b1010 $#
0P"
b0 u
b0 U"
b0 /#
b0 r
b0 S"
b0 r"
b0 1#
b0 M#
b1101111 V"
b0 !"
b0 p"
b0 .#
b100100 ;"
b100100 {"
b100100 @#
b1000 ="
b1101 <"
b0 ;
b0 t"
b0 H#
b0 J#
09
1p
1^
b101 _
b101 x"
b101 %#
b101 :#
b1 [
b1 v"
b1 =#
b1 k
b1 N"
b1 8#
b1010 Z
b1010 >#
b11100 `
b11100 M"
b11100 9#
1X
b1101111 Q
b1101111 W"
b1101111 A#
b100000 P
b100000 4#
b100000 B#
b1101 /
1(
#150000
0(
#155000
1U
1&"
0}
1t
1S
12
1("
b0 )"
b0 I"
b0 J"
b1010 +
b1010 S#
b1 )
b1 R#
b10011 V"
b100100 Y
b100100 Q"
b100100 ##
b100000 >
b100000 R"
1?
1P"
b0 ."
b0 ?"
b0 1"
b0 L"
b0 $#
b1 9"
b1 G#
b1010 #
b1010 :"
b1 &
b1 3"
1E#
1F#
b1010 }"
b10011 Q
b10011 W"
b10011 A#
b100100 P
b100100 4#
b100100 B#
1i
0p
b0 _
b0 x"
b0 %#
b0 :#
b0 [
b0 v"
b0 =#
b0 k
b0 N"
b0 8#
b0 Z
b0 >#
b100000 `
b100000 M"
b100000 9#
b101 F
b101 u"
b101 (#
b101 D#
b1010 C
b1010 *#
b1 D
b1 )#
1E
1B
b101000 ;"
b101000 {"
b101000 @#
b1110 <"
b1110 /
1(
#160000
0(
#165000
b1001 T#
0U
b1101111 N
b1101111 |"
b1101111 ?#
02
b0 +
b0 S#
b100100 )
b100100 R#
0S
0&"
0t
b1000 }"
17
1K#
b100100 9"
b100100 G#
b0 #
b0 :"
b100100 &
b100100 3"
b0 Y
b0 Q"
b0 ##
b0 >
b0 R"
0?
1P"
b0 V"
b100000 ;"
b100000 {"
b100000 @#
b10 /"
b1111 <"
b1 8
b1 I#
b1 N#
b101 ;
b101 t"
b101 H#
b101 J#
1:
19
b0 F
b0 u"
b0 (#
b0 D#
b0 C
b0 *#
b100100 D
b100100 )#
0i
0^
b0 q
b0 @"
b0 5#
b0 `
b0 M"
b0 9#
0X
b0 Q
b0 W"
b0 A#
b0 P
b0 4#
b0 B#
0O
b1111 /
1(
#170000
0(
#175000
b0 T#
1}
1t
b0 )
b0 R#
b10011 N
b10011 |"
b10011 ?#
b1101111 V"
b0 9"
b0 G#
b0 &
b0 3"
0E#
0F#
07
b1001 }"
b1101111 Q
b1101111 W"
b1101111 A#
b100000 P
b100000 4#
b100000 B#
1O
b10 q
b10 @"
b10 5#
b0 D
b0 )#
0E
0B
b100100 8
b100100 I#
b100100 N#
b0 ;
b0 t"
b0 H#
b0 J#
b100100 ;"
b100100 {"
b100100 @#
b1001 ="
b10000 <"
b10000 /
1(
#180000
0(
